{"metadata":{"brand":"NTN","brandSlug":"ntn","page":5,"pages":5,"count":4043,"chunkSize":1000,"currency":"EUR","priceMarkupPercent":20},"products":[{"id":"ntn-usfce205","name":"NTN USFCE205","nameOriginal":"USFCE205","brand":"NTN","sku":"USFCE205","category":"tractor","visual":"amber","icon":"package","price":0,"sourcePrice":0,"oldPrice":0,"oldSourcePrice":0,"currency":"EUR","stock":"Цена по запросу","image":"","availability":"","priceUpdatedAt":"","lastFetchedAt":"","url":"https://bartsparts.com/products/ntn-usfce205/"},{"id":"ntn-usfce209","name":"NTN USFCE209","nameOriginal":"USFCE209","brand":"NTN","sku":"USFCE209","category":"tractor","visual":"amber","icon":"package","price":0,"sourcePrice":0,"oldPrice":0,"oldSourcePrice":0,"currency":"EUR","stock":"Цена по запросу","image":"","availability":"","priceUpdatedAt":"","lastFetchedAt":"","url":"https://bartsparts.com/products/ntn-usfce209/"},{"id":"ntn-usfd202","name":"NTN USFD202","nameOriginal":"USFD202","brand":"NTN","sku":"USFD202","category":"tractor","visual":"amber","icon":"package","price":0,"sourcePrice":0,"oldPrice":0,"oldSourcePrice":0,"currency":"EUR","stock":"Цена по запросу","image":"","availability":"","priceUpdatedAt":"","lastFetchedAt":"","url":"https://bartsparts.com/products/ntn-usfd202/"},{"id":"ntn-usfd205","name":"NTN USFD205","nameOriginal":"USFD205","brand":"NTN","sku":"USFD205","category":"tractor","visual":"amber","icon":"package","price":0,"sourcePrice":0,"oldPrice":0,"oldSourcePrice":0,"currency":"EUR","stock":"Цена по запросу","image":"","availability":"","priceUpdatedAt":"","lastFetchedAt":"","url":"https://bartsparts.com/products/ntn-usfd205/"},{"id":"ntn-usfd205m12","name":"NTN USFD205M12","nameOriginal":"USFD205M12","brand":"NTN","sku":"USFD205M12","category":"tractor","visual":"amber","icon":"package","price":0,"sourcePrice":0,"oldPrice":0,"oldSourcePrice":0,"currency":"EUR","stock":"Цена по запросу","image":"","availability":"","priceUpdatedAt":"","lastFetchedAt":"","url":"https://bartsparts.com/products/ntn-usfd205m12/"},{"id":"ntn-usfd207","name":"NTN USFD207","nameOriginal":"USFD207","brand":"NTN","sku":"USFD207","category":"tractor","visual":"amber","icon":"package","price":0,"sourcePrice":0,"oldPrice":0,"oldSourcePrice":0,"currency":"EUR","stock":"Цена по запросу","image":"","availability":"","priceUpdatedAt":"","lastFetchedAt":"","url":"https://bartsparts.com/products/ntn-usfd207/"},{"id":"ntn-usfd208","name":"NTN USFD208","nameOriginal":"USFD208","brand":"NTN","sku":"USFD208","category":"tractor","visual":"amber","icon":"package","price":0,"sourcePrice":0,"oldPrice":0,"oldSourcePrice":0,"currency":"EUR","stock":"Цена по запросу","image":"","availability":"","priceUpdatedAt":"","lastFetchedAt":"","url":"https://bartsparts.com/products/ntn-usfd208/"},{"id":"ntn-usfe204","name":"NTN USFE204","nameOriginal":"USFE204","brand":"NTN","sku":"USFE204","category":"tractor","visual":"amber","icon":"package","price":0,"sourcePrice":0,"oldPrice":0,"oldSourcePrice":0,"currency":"EUR","stock":"Цена по запросу","image":"","availability":"","priceUpdatedAt":"","lastFetchedAt":"","url":"https://bartsparts.com/products/ntn-usfe204/"},{"id":"ntn-usfe206","name":"NTN USFE206","nameOriginal":"USFE206","brand":"NTN","sku":"USFE206","category":"tractor","visual":"amber","icon":"package","price":0,"sourcePrice":0,"oldPrice":0,"oldSourcePrice":0,"currency":"EUR","stock":"Цена по запросу","image":"","availability":"","priceUpdatedAt":"","lastFetchedAt":"","url":"https://bartsparts.com/products/ntn-usfe206/"},{"id":"ntn-usfe207","name":"NTN USFE207","nameOriginal":"USFE207","brand":"NTN","sku":"USFE207","category":"tractor","visual":"amber","icon":"package","price":0,"sourcePrice":0,"oldPrice":0,"oldSourcePrice":0,"currency":"EUR","stock":"Цена по запросу","image":"","availability":"","priceUpdatedAt":"","lastFetchedAt":"","url":"https://bartsparts.com/products/ntn-usfe207/"},{"id":"ntn-usfe209","name":"NTN USFE209","nameOriginal":"USFE209","brand":"NTN","sku":"USFE209","category":"tractor","visual":"amber","icon":"package","price":0,"sourcePrice":0,"oldPrice":0,"oldSourcePrice":0,"currency":"EUR","stock":"Цена по запросу","image":"","availability":"","priceUpdatedAt":"","lastFetchedAt":"","url":"https://bartsparts.com/products/ntn-usfe209/"},{"id":"ntn-usfe210","name":"NTN USFE210","nameOriginal":"USFE210","brand":"NTN","sku":"USFE210","category":"tractor","visual":"amber","icon":"package","price":0,"sourcePrice":0,"oldPrice":0,"oldSourcePrice":0,"currency":"EUR","stock":"Цена по запросу","image":"","availability":"","priceUpdatedAt":"","lastFetchedAt":"","url":"https://bartsparts.com/products/ntn-usfe210/"},{"id":"ntn-usfe212","name":"NTN USFE212","nameOriginal":"USFE212","brand":"NTN","sku":"USFE212","category":"tractor","visual":"amber","icon":"package","price":0,"sourcePrice":0,"oldPrice":0,"oldSourcePrice":0,"currency":"EUR","stock":"Цена по запросу","image":"","availability":"","priceUpdatedAt":"","lastFetchedAt":"","url":"https://bartsparts.com/products/ntn-usfe212/"},{"id":"ntn-usfle207","name":"NTN USFLE207","nameOriginal":"USFLE207","brand":"NTN","sku":"USFLE207","category":"tractor","visual":"amber","icon":"package","price":0,"sourcePrice":0,"oldPrice":0,"oldSourcePrice":0,"currency":"EUR","stock":"Цена по запросу","image":"","availability":"","priceUpdatedAt":"","lastFetchedAt":"","url":"https://bartsparts.com/products/ntn-usfle207/"},{"id":"ntn-usfle209","name":"NTN USFLE209","nameOriginal":"USFLE209","brand":"NTN","sku":"USFLE209","category":"tractor","visual":"amber","icon":"package","price":0,"sourcePrice":0,"oldPrice":0,"oldSourcePrice":0,"currency":"EUR","stock":"Цена по запросу","image":"","availability":"","priceUpdatedAt":"","lastFetchedAt":"","url":"https://bartsparts.com/products/ntn-usfle209/"},{"id":"ntn-usflz206","name":"NTN USFLZ206","nameOriginal":"USFLZ206","brand":"NTN","sku":"USFLZ206","category":"tractor","visual":"amber","icon":"package","price":0,"sourcePrice":0,"oldPrice":0,"oldSourcePrice":0,"currency":"EUR","stock":"Цена по запросу","image":"","availability":"","priceUpdatedAt":"","lastFetchedAt":"","url":"https://bartsparts.com/products/ntn-usflz206/"},{"id":"ntn-usfte205","name":"NTN USFTE205","nameOriginal":"USFTE205","brand":"NTN","sku":"USFTE205","category":"tractor","visual":"amber","icon":"package","price":0,"sourcePrice":0,"oldPrice":0,"oldSourcePrice":0,"currency":"EUR","stock":"Цена по запросу","image":"","availability":"","priceUpdatedAt":"","lastFetchedAt":"","url":"https://bartsparts.com/products/ntn-usfte205/"},{"id":"ntn-uspe203","name":"NTN USPE203","nameOriginal":"USPE203","brand":"NTN","sku":"USPE203","category":"tractor","visual":"amber","icon":"package","price":0,"sourcePrice":0,"oldPrice":0,"oldSourcePrice":0,"currency":"EUR","stock":"Цена по запросу","image":"","availability":"","priceUpdatedAt":"","lastFetchedAt":"","url":"https://bartsparts.com/products/ntn-uspe203/"},{"id":"ntn-uspe205","name":"NTN USPE205","nameOriginal":"USPE205","brand":"NTN","sku":"USPE205","category":"tractor","visual":"amber","icon":"package","price":0,"sourcePrice":0,"oldPrice":0,"oldSourcePrice":0,"currency":"EUR","stock":"Цена по запросу","image":"","availability":"","priceUpdatedAt":"","lastFetchedAt":"","url":"https://bartsparts.com/products/ntn-uspe205/"},{"id":"ntn-uspe206","name":"NTN USPE206","nameOriginal":"USPE206","brand":"NTN","sku":"USPE206","category":"tractor","visual":"amber","icon":"package","price":0,"sourcePrice":0,"oldPrice":0,"oldSourcePrice":0,"currency":"EUR","stock":"Цена по запросу","image":"","availability":"","priceUpdatedAt":"","lastFetchedAt":"","url":"https://bartsparts.com/products/ntn-uspe206/"},{"id":"ntn-uspe207","name":"NTN USPE207","nameOriginal":"USPE207","brand":"NTN","sku":"USPE207","category":"tractor","visual":"amber","icon":"package","price":0,"sourcePrice":0,"oldPrice":0,"oldSourcePrice":0,"currency":"EUR","stock":"Цена по запросу","image":"","availability":"","priceUpdatedAt":"","lastFetchedAt":"","url":"https://bartsparts.com/products/ntn-uspe207/"},{"id":"ntn-uspe208","name":"NTN USPE208","nameOriginal":"USPE208","brand":"NTN","sku":"USPE208","category":"tractor","visual":"amber","icon":"package","price":0,"sourcePrice":0,"oldPrice":0,"oldSourcePrice":0,"currency":"EUR","stock":"Цена по запросу","image":"","availability":"","priceUpdatedAt":"","lastFetchedAt":"","url":"https://bartsparts.com/products/ntn-uspe208/"},{"id":"ntn-uspf202","name":"NTN USPF202","nameOriginal":"USPF202","brand":"NTN","sku":"USPF202","category":"tractor","visual":"amber","icon":"package","price":0,"sourcePrice":0,"oldPrice":0,"oldSourcePrice":0,"currency":"EUR","stock":"Цена по запросу","image":"","availability":"","priceUpdatedAt":"","lastFetchedAt":"","url":"https://bartsparts.com/products/ntn-uspf202/"},{"id":"ntn-uspfl201","name":"NTN USPFL201","nameOriginal":"USPFL201","brand":"NTN","sku":"USPFL201","category":"tractor","visual":"amber","icon":"package","price":0,"sourcePrice":0,"oldPrice":0,"oldSourcePrice":0,"currency":"EUR","stock":"Цена по запросу","image":"","availability":"","priceUpdatedAt":"","lastFetchedAt":"","url":"https://bartsparts.com/products/ntn-uspfl201/"},{"id":"ntn-ws3552","name":"NTN WS3552","nameOriginal":"WS3552","brand":"NTN","sku":"WS3552","category":"tractor","visual":"amber","icon":"package","price":0,"sourcePrice":0,"oldPrice":0,"oldSourcePrice":0,"currency":"EUR","stock":"Цена по запросу","image":"","availability":"","priceUpdatedAt":"","lastFetchedAt":"","url":"https://bartsparts.com/products/ntn-ws3552/"},{"id":"ntn-ws81101","name":"NTN WS81101","nameOriginal":"WS81101","brand":"NTN","sku":"WS81101","category":"tractor","visual":"amber","icon":"package","price":0,"sourcePrice":0,"oldPrice":0,"oldSourcePrice":0,"currency":"EUR","stock":"Цена по запросу","image":"","availability":"","priceUpdatedAt":"","lastFetchedAt":"","url":"https://bartsparts.com/products/ntn-ws81101/"},{"id":"ntn-ws81106","name":"NTN WS81106","nameOriginal":"WS81106","brand":"NTN","sku":"WS81106","category":"tractor","visual":"amber","icon":"package","price":0,"sourcePrice":0,"oldPrice":0,"oldSourcePrice":0,"currency":"EUR","stock":"Цена по запросу","image":"","availability":"","priceUpdatedAt":"","lastFetchedAt":"","url":"https://bartsparts.com/products/ntn-ws81106/"},{"id":"ntn-ws81116","name":"NTN WS81116","nameOriginal":"WS81116","brand":"NTN","sku":"WS81116","category":"tractor","visual":"amber","icon":"package","price":0,"sourcePrice":0,"oldPrice":0,"oldSourcePrice":0,"currency":"EUR","stock":"Цена по запросу","image":"","availability":"","priceUpdatedAt":"","lastFetchedAt":"","url":"https://bartsparts.com/products/ntn-ws81116/"},{"id":"ntn-ws81117","name":"NTN WS81117","nameOriginal":"WS81117","brand":"NTN","sku":"WS81117","category":"tractor","visual":"amber","icon":"package","price":0,"sourcePrice":0,"oldPrice":0,"oldSourcePrice":0,"currency":"EUR","stock":"Цена по запросу","image":"","availability":"","priceUpdatedAt":"","lastFetchedAt":"","url":"https://bartsparts.com/products/ntn-ws81117/"},{"id":"ntn-ws81132","name":"NTN WS81132","nameOriginal":"WS81132","brand":"NTN","sku":"WS81132","category":"tractor","visual":"amber","icon":"package","price":0,"sourcePrice":0,"oldPrice":0,"oldSourcePrice":0,"currency":"EUR","stock":"Цена по запросу","image":"","availability":"","priceUpdatedAt":"","lastFetchedAt":"","url":"https://bartsparts.com/products/ntn-ws81132/"},{"id":"ntn-ws81215","name":"NTN WS81215","nameOriginal":"WS81215","brand":"NTN","sku":"WS81215","category":"tractor","visual":"amber","icon":"package","price":0,"sourcePrice":0,"oldPrice":0,"oldSourcePrice":0,"currency":"EUR","stock":"Цена по запросу","image":"","availability":"","priceUpdatedAt":"","lastFetchedAt":"","url":"https://bartsparts.com/products/ntn-ws81215/"},{"id":"ntn-ws81218","name":"NTN WS81218","nameOriginal":"WS81218","brand":"NTN","sku":"WS81218","category":"tractor","visual":"amber","icon":"package","price":0,"sourcePrice":0,"oldPrice":0,"oldSourcePrice":0,"currency":"EUR","stock":"Цена по запросу","image":"","availability":"","priceUpdatedAt":"","lastFetchedAt":"","url":"https://bartsparts.com/products/ntn-ws81218/"},{"id":"ntn-ws81222","name":"NTN WS81222","nameOriginal":"WS81222","brand":"NTN","sku":"WS81222","category":"tractor","visual":"amber","icon":"package","price":0,"sourcePrice":0,"oldPrice":0,"oldSourcePrice":0,"currency":"EUR","stock":"Цена по запросу","image":"","availability":"","priceUpdatedAt":"","lastFetchedAt":"","url":"https://bartsparts.com/products/ntn-ws81222/"},{"id":"ntn-ws81224","name":"NTN WS81224","nameOriginal":"WS81224","brand":"NTN","sku":"WS81224","category":"tractor","visual":"amber","icon":"package","price":0,"sourcePrice":0,"oldPrice":0,"oldSourcePrice":0,"currency":"EUR","stock":"Цена по запросу","image":"","availability":"","priceUpdatedAt":"","lastFetchedAt":"","url":"https://bartsparts.com/products/ntn-ws81224/"},{"id":"ntn-ws89306","name":"NTN WS89306","nameOriginal":"WS89306","brand":"NTN","sku":"WS89306","category":"tractor","visual":"amber","icon":"package","price":0,"sourcePrice":0,"oldPrice":0,"oldSourcePrice":0,"currency":"EUR","stock":"Цена по запросу","image":"","availability":"","priceUpdatedAt":"","lastFetchedAt":"","url":"https://bartsparts.com/products/ntn-ws89306/"},{"id":"ntn-ws89307","name":"NTN WS89307","nameOriginal":"WS89307","brand":"NTN","sku":"WS89307","category":"tractor","visual":"amber","icon":"package","price":0,"sourcePrice":0,"oldPrice":0,"oldSourcePrice":0,"currency":"EUR","stock":"Цена по запросу","image":"","availability":"","priceUpdatedAt":"","lastFetchedAt":"","url":"https://bartsparts.com/products/ntn-ws89307/"},{"id":"ntn-ws89308","name":"NTN WS89308","nameOriginal":"WS89308","brand":"NTN","sku":"WS89308","category":"tractor","visual":"amber","icon":"package","price":0,"sourcePrice":0,"oldPrice":0,"oldSourcePrice":0,"currency":"EUR","stock":"Цена по запросу","image":"","availability":"","priceUpdatedAt":"","lastFetchedAt":"","url":"https://bartsparts.com/products/ntn-ws89308/"},{"id":"ntn-ws89309","name":"NTN WS89309","nameOriginal":"WS89309","brand":"NTN","sku":"WS89309","category":"tractor","visual":"amber","icon":"package","price":0,"sourcePrice":0,"oldPrice":0,"oldSourcePrice":0,"currency":"EUR","stock":"Цена по запросу","image":"","availability":"","priceUpdatedAt":"","lastFetchedAt":"","url":"https://bartsparts.com/products/ntn-ws89309/"},{"id":"ntn-ws89311","name":"NTN WS89311","nameOriginal":"WS89311","brand":"NTN","sku":"WS89311","category":"tractor","visual":"amber","icon":"package","price":0,"sourcePrice":0,"oldPrice":0,"oldSourcePrice":0,"currency":"EUR","stock":"Цена по запросу","image":"","availability":"","priceUpdatedAt":"","lastFetchedAt":"","url":"https://bartsparts.com/products/ntn-ws89311/"},{"id":"ntn-ws89314","name":"NTN WS89314","nameOriginal":"WS89314","brand":"NTN","sku":"WS89314","category":"tractor","visual":"amber","icon":"package","price":0,"sourcePrice":0,"oldPrice":0,"oldSourcePrice":0,"currency":"EUR","stock":"Цена по запросу","image":"","availability":"","priceUpdatedAt":"","lastFetchedAt":"","url":"https://bartsparts.com/products/ntn-ws89314/"},{"id":"ntn-ws89315","name":"NTN WS89315","nameOriginal":"WS89315","brand":"NTN","sku":"WS89315","category":"tractor","visual":"amber","icon":"package","price":0,"sourcePrice":0,"oldPrice":0,"oldSourcePrice":0,"currency":"EUR","stock":"Цена по запросу","image":"","availability":"","priceUpdatedAt":"","lastFetchedAt":"","url":"https://bartsparts.com/products/ntn-ws89315/"},{"id":"ntn-ws89318","name":"NTN WS89318","nameOriginal":"WS89318","brand":"NTN","sku":"WS89318","category":"tractor","visual":"amber","icon":"package","price":0,"sourcePrice":0,"oldPrice":0,"oldSourcePrice":0,"currency":"EUR","stock":"Цена по запросу","image":"","availability":"","priceUpdatedAt":"","lastFetchedAt":"","url":"https://bartsparts.com/products/ntn-ws89318/"},{"id":"ntn-x619049641009ntn","name":"NTN X619049641009NTN","nameOriginal":"X619049641009NTN","brand":"NTN","sku":"X619049641009NTN","category":"tractor","visual":"amber","icon":"package","price":0,"sourcePrice":0,"oldPrice":0,"oldSourcePrice":0,"currency":"EUR","stock":"Цена по запросу","image":"","availability":"","priceUpdatedAt":"","lastFetchedAt":"","url":"https://bartsparts.com/products/ntn-x619049641009ntn/"}]}
