{"metadata":{"brand":"Timken","brandSlug":"timken","page":3,"pages":3,"count":2042,"chunkSize":1000,"currency":"EUR","priceMarkupPercent":20},"products":[{"id":"timken-ucf213timken","name":"Timken UCF213TIMKEN","nameOriginal":"UCF213TIMKEN","brand":"Timken","sku":"UCF213TIMKEN","category":"tractor","visual":"green","icon":"package","price":0,"sourcePrice":0,"currency":"EUR","stock":"Цена по запросу","url":"https://bartsparts.com/products/timken-ucf213timken/"},{"id":"timken-ucf309","name":"Timken UCF309","nameOriginal":"UCF309","brand":"Timken","sku":"UCF309","category":"tractor","visual":"green","icon":"package","price":0,"sourcePrice":0,"currency":"EUR","stock":"Цена по запросу","url":"https://bartsparts.com/products/timken-ucf309/"},{"id":"timken-ucfc205no","name":"Timken UCFC205NO","nameOriginal":"UCFC205NO","brand":"Timken","sku":"UCFC205NO","category":"tractor","visual":"green","icon":"package","price":0,"sourcePrice":0,"currency":"EUR","stock":"Цена по запросу","url":"https://bartsparts.com/products/timken-ucfc205no/"},{"id":"timken-ucfc206","name":"Timken UCFC206","nameOriginal":"UCFC206","brand":"Timken","sku":"UCFC206","category":"tractor","visual":"green","icon":"package","price":0,"sourcePrice":0,"currency":"EUR","stock":"Цена по запросу","url":"https://bartsparts.com/products/timken-ucfc206/"},{"id":"timken-ucfc207no","name":"Timken UCFC207NO","nameOriginal":"UCFC207NO","brand":"Timken","sku":"UCFC207NO","category":"tractor","visual":"green","icon":"package","price":0,"sourcePrice":0,"currency":"EUR","stock":"Цена по запросу","url":"https://bartsparts.com/products/timken-ucfc207no/"},{"id":"timken-ucfc208no","name":"Timken UCFC208NO","nameOriginal":"UCFC208NO","brand":"Timken","sku":"UCFC208NO","category":"tractor","visual":"green","icon":"package","price":0,"sourcePrice":0,"currency":"EUR","stock":"Цена по запросу","url":"https://bartsparts.com/products/timken-ucfc208no/"},{"id":"timken-ucfc209no","name":"Timken UCFC209NO","nameOriginal":"UCFC209NO","brand":"Timken","sku":"UCFC209NO","category":"tractor","visual":"green","icon":"package","price":0,"sourcePrice":0,"currency":"EUR","stock":"Цена по запросу","url":"https://bartsparts.com/products/timken-ucfc209no/"},{"id":"timken-ucfc210no","name":"Timken UCFC210NO","nameOriginal":"UCFC210NO","brand":"Timken","sku":"UCFC210NO","category":"tractor","visual":"green","icon":"package","price":0,"sourcePrice":0,"currency":"EUR","stock":"Цена по запросу","url":"https://bartsparts.com/products/timken-ucfc210no/"},{"id":"timken-ucfl205","name":"Timken UCFL205","nameOriginal":"UCFL205","brand":"Timken","sku":"UCFL205","category":"tractor","visual":"green","icon":"package","price":0,"sourcePrice":0,"currency":"EUR","stock":"Цена по запросу","url":"https://bartsparts.com/products/timken-ucfl205/"},{"id":"timken-ucfl205no","name":"Timken UCFL205NO","nameOriginal":"UCFL205NO","brand":"Timken","sku":"UCFL205NO","category":"tractor","visual":"green","icon":"package","price":0,"sourcePrice":0,"currency":"EUR","stock":"Цена по запросу","url":"https://bartsparts.com/products/timken-ucfl205no/"},{"id":"timken-ucfl206","name":"Timken UCFL206","nameOriginal":"UCFL206","brand":"Timken","sku":"UCFL206","category":"tractor","visual":"green","icon":"package","price":0,"sourcePrice":0,"currency":"EUR","stock":"Цена по запросу","url":"https://bartsparts.com/products/timken-ucfl206/"},{"id":"timken-ucfl206no","name":"Timken UCFL206NO","nameOriginal":"UCFL206NO","brand":"Timken","sku":"UCFL206NO","category":"tractor","visual":"green","icon":"package","price":0,"sourcePrice":0,"currency":"EUR","stock":"Цена по запросу","url":"https://bartsparts.com/products/timken-ucfl206no/"},{"id":"timken-ucfl207no","name":"Timken UCFL207NO","nameOriginal":"UCFL207NO","brand":"Timken","sku":"UCFL207NO","category":"tractor","visual":"green","icon":"package","price":0,"sourcePrice":0,"currency":"EUR","stock":"Цена по запросу","url":"https://bartsparts.com/products/timken-ucfl207no/"},{"id":"timken-ucfl208","name":"Timken UCFL208","nameOriginal":"UCFL208","brand":"Timken","sku":"UCFL208","category":"tractor","visual":"green","icon":"package","price":0,"sourcePrice":0,"currency":"EUR","stock":"Цена по запросу","url":"https://bartsparts.com/products/timken-ucfl208/"},{"id":"timken-ucfl208no","name":"Timken UCFL208NO","nameOriginal":"UCFL208NO","brand":"Timken","sku":"UCFL208NO","category":"tractor","visual":"green","icon":"package","price":0,"sourcePrice":0,"currency":"EUR","stock":"Цена по запросу","url":"https://bartsparts.com/products/timken-ucfl208no/"},{"id":"timken-ucfl209","name":"Timken UCFL209","nameOriginal":"UCFL209","brand":"Timken","sku":"UCFL209","category":"tractor","visual":"green","icon":"package","price":0,"sourcePrice":0,"currency":"EUR","stock":"Цена по запросу","url":"https://bartsparts.com/products/timken-ucfl209/"},{"id":"timken-ucfl212no","name":"Timken UCFL212NO","nameOriginal":"UCFL212NO","brand":"Timken","sku":"UCFL212NO","category":"tractor","visual":"green","icon":"package","price":0,"sourcePrice":0,"currency":"EUR","stock":"Цена по запросу","url":"https://bartsparts.com/products/timken-ucfl212no/"},{"id":"timken-ucp204no","name":"Timken UCP204NO","nameOriginal":"UCP204NO","brand":"Timken","sku":"UCP204NO","category":"tractor","visual":"green","icon":"package","price":0,"sourcePrice":0,"currency":"EUR","stock":"Цена по запросу","url":"https://bartsparts.com/products/timken-ucp204no/"},{"id":"timken-ucp205no","name":"Timken UCP205NO","nameOriginal":"UCP205NO","brand":"Timken","sku":"UCP205NO","category":"tractor","visual":"green","icon":"package","price":0,"sourcePrice":0,"currency":"EUR","stock":"Цена по запросу","url":"https://bartsparts.com/products/timken-ucp205no/"},{"id":"timken-ucp206","name":"Timken UCP206","nameOriginal":"UCP206","brand":"Timken","sku":"UCP206","category":"tractor","visual":"green","icon":"package","price":0,"sourcePrice":0,"currency":"EUR","stock":"Цена по запросу","url":"https://bartsparts.com/products/timken-ucp206/"},{"id":"timken-ucp206no","name":"Timken UCP206NO","nameOriginal":"UCP206NO","brand":"Timken","sku":"UCP206NO","category":"tractor","visual":"green","icon":"package","price":0,"sourcePrice":0,"currency":"EUR","stock":"Цена по запросу","url":"https://bartsparts.com/products/timken-ucp206no/"},{"id":"timken-ucp207","name":"Timken UCP207","nameOriginal":"UCP207","brand":"Timken","sku":"UCP207","category":"tractor","visual":"green","icon":"package","price":0,"sourcePrice":0,"currency":"EUR","stock":"Цена по запросу","url":"https://bartsparts.com/products/timken-ucp207/"},{"id":"timken-ucp207no","name":"Timken UCP207NO","nameOriginal":"UCP207NO","brand":"Timken","sku":"UCP207NO","category":"tractor","visual":"green","icon":"package","price":0,"sourcePrice":0,"currency":"EUR","stock":"Цена по запросу","url":"https://bartsparts.com/products/timken-ucp207no/"},{"id":"timken-ucp208","name":"Timken UCP208","nameOriginal":"UCP208","brand":"Timken","sku":"UCP208","category":"tractor","visual":"green","icon":"package","price":0,"sourcePrice":0,"currency":"EUR","stock":"Цена по запросу","url":"https://bartsparts.com/products/timken-ucp208/"},{"id":"timken-ucp209","name":"Timken UCP209","nameOriginal":"UCP209","brand":"Timken","sku":"UCP209","category":"tractor","visual":"green","icon":"package","price":0,"sourcePrice":0,"currency":"EUR","stock":"Цена по запросу","url":"https://bartsparts.com/products/timken-ucp209/"},{"id":"timken-ucp209no","name":"Timken UCP209NO","nameOriginal":"UCP209NO","brand":"Timken","sku":"UCP209NO","category":"tractor","visual":"green","icon":"package","price":0,"sourcePrice":0,"currency":"EUR","stock":"Цена по запросу","url":"https://bartsparts.com/products/timken-ucp209no/"},{"id":"timken-ucp210no","name":"Timken UCP210NO","nameOriginal":"UCP210NO","brand":"Timken","sku":"UCP210NO","category":"tractor","visual":"green","icon":"package","price":0,"sourcePrice":0,"currency":"EUR","stock":"Цена по запросу","url":"https://bartsparts.com/products/timken-ucp210no/"},{"id":"timken-ucp210tim","name":"Timken UCP210TIM","nameOriginal":"UCP210TIM","brand":"Timken","sku":"UCP210TIM","category":"tractor","visual":"green","icon":"package","price":0,"sourcePrice":0,"currency":"EUR","stock":"Цена по запросу","url":"https://bartsparts.com/products/timken-ucp210tim/"},{"id":"timken-ucp211no","name":"Timken UCP211NO","nameOriginal":"UCP211NO","brand":"Timken","sku":"UCP211NO","category":"tractor","visual":"green","icon":"package","price":0,"sourcePrice":0,"currency":"EUR","stock":"Цена по запросу","url":"https://bartsparts.com/products/timken-ucp211no/"},{"id":"timken-ucp212no","name":"Timken UCP212NO","nameOriginal":"UCP212NO","brand":"Timken","sku":"UCP212NO","category":"tractor","visual":"green","icon":"package","price":0,"sourcePrice":0,"currency":"EUR","stock":"Цена по запросу","url":"https://bartsparts.com/products/timken-ucp212no/"},{"id":"timken-uct204no","name":"Timken UCT204NO","nameOriginal":"UCT204NO","brand":"Timken","sku":"UCT204NO","category":"tractor","visual":"green","icon":"package","price":0,"sourcePrice":0,"currency":"EUR","stock":"Цена по запросу","url":"https://bartsparts.com/products/timken-uct204no/"},{"id":"timken-uct210no","name":"Timken UCT210NO","nameOriginal":"UCT210NO","brand":"Timken","sku":"UCT210NO","category":"tractor","visual":"green","icon":"package","price":0,"sourcePrice":0,"currency":"EUR","stock":"Цена по запросу","url":"https://bartsparts.com/products/timken-uct210no/"},{"id":"timken-uct211no","name":"Timken UCT211NO","nameOriginal":"UCT211NO","brand":"Timken","sku":"UCT211NO","category":"tractor","visual":"green","icon":"package","price":0,"sourcePrice":0,"currency":"EUR","stock":"Цена по запросу","url":"https://bartsparts.com/products/timken-uct211no/"},{"id":"timken-x619066600000tim","name":"Timken X619066600000TIM","nameOriginal":"X619066600000TIM","brand":"Timken","sku":"X619066600000TIM","category":"tractor","visual":"green","icon":"package","price":0,"sourcePrice":0,"currency":"EUR","stock":"Цена по запросу","url":"https://bartsparts.com/products/timken-x619066600000tim/"},{"id":"timken-x623039800000","name":"Timken X623039800000","nameOriginal":"X623039800000","brand":"Timken","sku":"X623039800000","category":"tractor","visual":"green","icon":"package","price":0,"sourcePrice":0,"currency":"EUR","stock":"Цена по запросу","url":"https://bartsparts.com/products/timken-x623039800000/"},{"id":"timken-xc10240cj","name":"Timken XC10240CJ","nameOriginal":"XC10240CJ","brand":"Timken","sku":"XC10240CJ","category":"tractor","visual":"green","icon":"package","price":0,"sourcePrice":0,"currency":"EUR","stock":"Цена по запросу","url":"https://bartsparts.com/products/timken-xc10240cj/"},{"id":"timken-xc10240dh","name":"Timken XC10240DH","nameOriginal":"XC10240DH","brand":"Timken","sku":"XC10240DH","category":"tractor","visual":"green","icon":"package","price":0,"sourcePrice":0,"currency":"EUR","stock":"Цена по запросу","url":"https://bartsparts.com/products/timken-xc10240dh/"},{"id":"timken-xfa30206no","name":"Timken XFA30206NO","nameOriginal":"XFA30206NO","brand":"Timken","sku":"XFA30206NO","category":"tractor","visual":"green","icon":"package","price":0,"sourcePrice":0,"currency":"EUR","stock":"Цена по запросу","url":"https://bartsparts.com/products/timken-xfa30206no/"},{"id":"timken-xpa1250","name":"Timken XPA1250","nameOriginal":"XPA1250","brand":"Timken","sku":"XPA1250","category":"tractor","visual":"green","icon":"package","price":0,"sourcePrice":0,"currency":"EUR","stock":"Цена по запросу","url":"https://bartsparts.com/products/timken-xpa1250/"},{"id":"timken-xpb1650","name":"Timken XPB1650","nameOriginal":"XPB1650","brand":"Timken","sku":"XPB1650","category":"tractor","visual":"green","icon":"package","price":0,"sourcePrice":0,"currency":"EUR","stock":"Цена по запросу","url":"https://bartsparts.com/products/timken-xpb1650/"},{"id":"timken-y32018x","name":"Timken Y32018X","nameOriginal":"Y32018X","brand":"Timken","sku":"Y32018X","category":"tractor","visual":"green","icon":"package","price":0,"sourcePrice":0,"currency":"EUR","stock":"Цена по запросу","url":"https://bartsparts.com/products/timken-y32018x/"},{"id":"timken-yar208","name":"Timken YAR208","nameOriginal":"YAR208","brand":"Timken","sku":"YAR208","category":"tractor","visual":"green","icon":"package","price":0,"sourcePrice":0,"currency":"EUR","stock":"Цена по запросу","url":"https://bartsparts.com/products/timken-yar208/"}]}
