{"metadata":{"brand":"Lely","brandSlug":"lely","page":4,"pages":4,"count":3017,"chunkSize":1000,"currency":"EUR","priceMarkupPercent":20},"products":[{"id":"lely-vsa1900","name":"Lely VSA1900","nameOriginal":"VSA1900","brand":"Lely","sku":"VSA1900","category":"tractor","visual":"blue","icon":"package","price":0,"sourcePrice":0,"currency":"EUR","stock":"Цена по запросу","url":"https://bartsparts.com/products/lely-vsa1900/"},{"id":"lely-vsa1903","name":"Lely VSA1903","nameOriginal":"VSA1903","brand":"Lely","sku":"VSA1903","category":"tractor","visual":"blue","icon":"package","price":0,"sourcePrice":0,"currency":"EUR","stock":"Цена по запросу","url":"https://bartsparts.com/products/lely-vsa1903/"},{"id":"lely-vsa1905","name":"Lely VSA1905","nameOriginal":"VSA1905","brand":"Lely","sku":"VSA1905","category":"tractor","visual":"blue","icon":"package","price":0,"sourcePrice":0,"currency":"EUR","stock":"Цена по запросу","url":"https://bartsparts.com/products/lely-vsa1905/"},{"id":"lely-vsh2671","name":"Lely VSH2671","nameOriginal":"VSH2671","brand":"Lely","sku":"VSH2671","category":"tractor","visual":"blue","icon":"package","price":0,"sourcePrice":0,"currency":"EUR","stock":"Цена по запросу","url":"https://bartsparts.com/products/lely-vsh2671/"},{"id":"lely-vuf3263","name":"Lely VUF3263","nameOriginal":"VUF3263","brand":"Lely","sku":"VUF3263","category":"tractor","visual":"blue","icon":"package","price":0,"sourcePrice":0,"currency":"EUR","stock":"Цена по запросу","url":"https://bartsparts.com/products/lely-vuf3263/"},{"id":"lely-vuf3273","name":"Lely VUF3273","nameOriginal":"VUF3273","brand":"Lely","sku":"VUF3273","category":"tractor","visual":"blue","icon":"package","price":0,"sourcePrice":0,"currency":"EUR","stock":"Цена по запросу","url":"https://bartsparts.com/products/lely-vuf3273/"},{"id":"lely-vuf4176","name":"Lely VUF4176","nameOriginal":"VUF4176","brand":"Lely","sku":"VUF4176","category":"tractor","visual":"blue","icon":"package","price":0,"sourcePrice":0,"currency":"EUR","stock":"Цена по запросу","url":"https://bartsparts.com/products/lely-vuf4176/"},{"id":"lely-vuf4205","name":"Lely VUF4205","nameOriginal":"VUF4205","brand":"Lely","sku":"VUF4205","category":"tractor","visual":"blue","icon":"package","price":0,"sourcePrice":0,"currency":"EUR","stock":"Цена по запросу","url":"https://bartsparts.com/products/lely-vuf4205/"},{"id":"lely-vuf4267","name":"Lely VUF4267","nameOriginal":"VUF4267","brand":"Lely","sku":"VUF4267","category":"tractor","visual":"blue","icon":"package","price":0,"sourcePrice":0,"currency":"EUR","stock":"Цена по запросу","url":"https://bartsparts.com/products/lely-vuf4267/"},{"id":"lely-vuf4279","name":"Lely VUF4279","nameOriginal":"VUF4279","brand":"Lely","sku":"VUF4279","category":"tractor","visual":"blue","icon":"package","price":0,"sourcePrice":0,"currency":"EUR","stock":"Цена по запросу","url":"https://bartsparts.com/products/lely-vuf4279/"},{"id":"lely-vuf4281","name":"Lely VUF4281","nameOriginal":"VUF4281","brand":"Lely","sku":"VUF4281","category":"tractor","visual":"blue","icon":"package","price":0,"sourcePrice":0,"currency":"EUR","stock":"Цена по запросу","url":"https://bartsparts.com/products/lely-vuf4281/"},{"id":"lely-vuf4288","name":"Lely VUF4288","nameOriginal":"VUF4288","brand":"Lely","sku":"VUF4288","category":"tractor","visual":"blue","icon":"package","price":0,"sourcePrice":0,"currency":"EUR","stock":"Цена по запросу","url":"https://bartsparts.com/products/lely-vuf4288/"},{"id":"lely-vuf4325","name":"Lely VUF4325","nameOriginal":"VUF4325","brand":"Lely","sku":"VUF4325","category":"tractor","visual":"blue","icon":"package","price":0,"sourcePrice":0,"currency":"EUR","stock":"Цена по запросу","url":"https://bartsparts.com/products/lely-vuf4325/"},{"id":"lely-vuf4329","name":"Lely VUF4329","nameOriginal":"VUF4329","brand":"Lely","sku":"VUF4329","category":"tractor","visual":"blue","icon":"package","price":0,"sourcePrice":0,"currency":"EUR","stock":"Цена по запросу","url":"https://bartsparts.com/products/lely-vuf4329/"},{"id":"lely-vuf4331","name":"Lely VUF4331","nameOriginal":"VUF4331","brand":"Lely","sku":"VUF4331","category":"tractor","visual":"blue","icon":"package","price":0,"sourcePrice":0,"currency":"EUR","stock":"Цена по запросу","url":"https://bartsparts.com/products/lely-vuf4331/"},{"id":"lely-vyt1051","name":"Lely VYT1051","nameOriginal":"VYT1051","brand":"Lely","sku":"VYT1051","category":"tractor","visual":"blue","icon":"package","price":0,"sourcePrice":0,"currency":"EUR","stock":"Цена по запросу","url":"https://bartsparts.com/products/lely-vyt1051/"},{"id":"lely-vyt2085","name":"Lely VYT2085","nameOriginal":"VYT2085","brand":"Lely","sku":"VYT2085","category":"tractor","visual":"blue","icon":"package","price":0,"sourcePrice":0,"currency":"EUR","stock":"Цена по запросу","url":"https://bartsparts.com/products/lely-vyt2085/"}]}
