{"metadata":{"brand":"HIFI FILTER","brandSlug":"hifi-filter","page":4,"pages":4,"count":3053,"chunkSize":1000,"currency":"EUR","priceMarkupPercent":20},"products":[{"id":"hifi-filter-so941","name":"HIFI FILTER SO941","nameOriginal":"SO941","brand":"HIFI FILTER","sku":"SO941","category":"tractor","visual":"danger","icon":"package","price":0,"sourcePrice":0,"currency":"EUR","stock":"Цена по запросу","url":"https://bartsparts.com/products/hifi-filter-so941/"},{"id":"hifi-filter-so952","name":"HIFI FILTER SO952","nameOriginal":"SO952","brand":"HIFI FILTER","sku":"SO952","category":"tractor","visual":"danger","icon":"package","price":0,"sourcePrice":0,"currency":"EUR","stock":"Цена по запросу","url":"https://bartsparts.com/products/hifi-filter-so952/"},{"id":"hifi-filter-swimersn80527","name":"HIFI FILTER SWIMERSN80527","nameOriginal":"SWIMERSN80527","brand":"HIFI FILTER","sku":"SWIMERSN80527","category":"tractor","visual":"danger","icon":"package","price":0,"sourcePrice":0,"currency":"EUR","stock":"Цена по запросу","url":"https://bartsparts.com/products/hifi-filter-swimersn80527/"},{"id":"hifi-filter-t1623","name":"HIFI FILTER T1623","nameOriginal":"T1623","brand":"HIFI FILTER","sku":"T1623","category":"tractor","visual":"danger","icon":"package","price":0,"sourcePrice":0,"currency":"EUR","stock":"Цена по запросу","url":"https://bartsparts.com/products/hifi-filter-t1623/"},{"id":"hifi-filter-t1624","name":"HIFI FILTER T1624","nameOriginal":"T1624","brand":"HIFI FILTER","sku":"T1624","category":"tractor","visual":"danger","icon":"package","price":0,"sourcePrice":0,"currency":"EUR","stock":"Цена по запросу","url":"https://bartsparts.com/products/hifi-filter-t1624/"},{"id":"hifi-filter-t1636","name":"HIFI FILTER T1636","nameOriginal":"T1636","brand":"HIFI FILTER","sku":"T1636","category":"tractor","visual":"danger","icon":"package","price":0,"sourcePrice":0,"currency":"EUR","stock":"Цена по запросу","url":"https://bartsparts.com/products/hifi-filter-t1636/"},{"id":"hifi-filter-t1637","name":"HIFI FILTER T1637","nameOriginal":"T1637","brand":"HIFI FILTER","sku":"T1637","category":"tractor","visual":"danger","icon":"package","price":0,"sourcePrice":0,"currency":"EUR","stock":"Цена по запросу","url":"https://bartsparts.com/products/hifi-filter-t1637/"},{"id":"hifi-filter-t1639","name":"HIFI FILTER T1639","nameOriginal":"T1639","brand":"HIFI FILTER","sku":"T1639","category":"tractor","visual":"danger","icon":"package","price":0,"sourcePrice":0,"currency":"EUR","stock":"Цена по запросу","url":"https://bartsparts.com/products/hifi-filter-t1639/"},{"id":"hifi-filter-t1640","name":"HIFI FILTER T1640","nameOriginal":"T1640","brand":"HIFI FILTER","sku":"T1640","category":"tractor","visual":"danger","icon":"package","price":0,"sourcePrice":0,"currency":"EUR","stock":"Цена по запросу","url":"https://bartsparts.com/products/hifi-filter-t1640/"},{"id":"hifi-filter-t3147","name":"HIFI FILTER T3147","nameOriginal":"T3147","brand":"HIFI FILTER","sku":"T3147","category":"tractor","visual":"danger","icon":"package","price":0,"sourcePrice":0,"currency":"EUR","stock":"Цена по запросу","url":"https://bartsparts.com/products/hifi-filter-t3147/"},{"id":"hifi-filter-t3150","name":"HIFI FILTER T3150","nameOriginal":"T3150","brand":"HIFI FILTER","sku":"T3150","category":"tractor","visual":"danger","icon":"package","price":0,"sourcePrice":0,"currency":"EUR","stock":"Цена по запросу","url":"https://bartsparts.com/products/hifi-filter-t3150/"},{"id":"hifi-filter-t3152","name":"HIFI FILTER T3152","nameOriginal":"T3152","brand":"HIFI FILTER","sku":"T3152","category":"tractor","visual":"danger","icon":"package","price":0,"sourcePrice":0,"currency":"EUR","stock":"Цена по запросу","url":"https://bartsparts.com/products/hifi-filter-t3152/"},{"id":"hifi-filter-t501","name":"HIFI FILTER T501","nameOriginal":"T501","brand":"HIFI FILTER","sku":"T501","category":"tractor","visual":"danger","icon":"package","price":0,"sourcePrice":0,"currency":"EUR","stock":"Цена по запросу","url":"https://bartsparts.com/products/hifi-filter-t501/"},{"id":"hifi-filter-t59","name":"HIFI FILTER T59","nameOriginal":"T59","brand":"HIFI FILTER","sku":"T59","category":"tractor","visual":"danger","icon":"package","price":0,"sourcePrice":0,"currency":"EUR","stock":"Цена по запросу","url":"https://bartsparts.com/products/hifi-filter-t59/"},{"id":"hifi-filter-t600","name":"HIFI FILTER T600","nameOriginal":"T600","brand":"HIFI FILTER","sku":"T600","category":"tractor","visual":"danger","icon":"package","price":0,"sourcePrice":0,"currency":"EUR","stock":"Цена по запросу","url":"https://bartsparts.com/products/hifi-filter-t600/"},{"id":"hifi-filter-t6720","name":"HIFI FILTER T6720","nameOriginal":"T6720","brand":"HIFI FILTER","sku":"T6720","category":"tractor","visual":"danger","icon":"package","price":0,"sourcePrice":0,"currency":"EUR","stock":"Цена по запросу","url":"https://bartsparts.com/products/hifi-filter-t6720/"},{"id":"hifi-filter-t6726","name":"HIFI FILTER T6726","nameOriginal":"T6726","brand":"HIFI FILTER","sku":"T6726","category":"tractor","visual":"danger","icon":"package","price":0,"sourcePrice":0,"currency":"EUR","stock":"Цена по запросу","url":"https://bartsparts.com/products/hifi-filter-t6726/"},{"id":"hifi-filter-t6730","name":"HIFI FILTER T6730","nameOriginal":"T6730","brand":"HIFI FILTER","sku":"T6730","category":"tractor","visual":"danger","icon":"package","price":0,"sourcePrice":0,"currency":"EUR","stock":"Цена по запросу","url":"https://bartsparts.com/products/hifi-filter-t6730/"},{"id":"hifi-filter-t6737","name":"HIFI FILTER T6737","nameOriginal":"T6737","brand":"HIFI FILTER","sku":"T6737","category":"tractor","visual":"danger","icon":"package","price":0,"sourcePrice":0,"currency":"EUR","stock":"Цена по запросу","url":"https://bartsparts.com/products/hifi-filter-t6737/"},{"id":"hifi-filter-t6739b","name":"HIFI FILTER T6739B","nameOriginal":"T6739B","brand":"HIFI FILTER","sku":"T6739B","category":"tractor","visual":"danger","icon":"package","price":0,"sourcePrice":0,"currency":"EUR","stock":"Цена по запросу","url":"https://bartsparts.com/products/hifi-filter-t6739b/"},{"id":"hifi-filter-t7314","name":"HIFI FILTER T7314","nameOriginal":"T7314","brand":"HIFI FILTER","sku":"T7314","category":"tractor","visual":"danger","icon":"package","price":0,"sourcePrice":0,"currency":"EUR","stock":"Цена по запросу","url":"https://bartsparts.com/products/hifi-filter-t7314/"},{"id":"hifi-filter-t7317","name":"HIFI FILTER T7317","nameOriginal":"T7317","brand":"HIFI FILTER","sku":"T7317","category":"tractor","visual":"danger","icon":"package","price":0,"sourcePrice":0,"currency":"EUR","stock":"Цена по запросу","url":"https://bartsparts.com/products/hifi-filter-t7317/"},{"id":"hifi-filter-t7320","name":"HIFI FILTER T7320","nameOriginal":"T7320","brand":"HIFI FILTER","sku":"T7320","category":"tractor","visual":"danger","icon":"package","price":0,"sourcePrice":0,"currency":"EUR","stock":"Цена по запросу","url":"https://bartsparts.com/products/hifi-filter-t7320/"},{"id":"hifi-filter-t74105061","name":"HIFI FILTER T74105061","nameOriginal":"T74105061","brand":"HIFI FILTER","sku":"T74105061","category":"tractor","visual":"danger","icon":"package","price":0,"sourcePrice":0,"currency":"EUR","stock":"Цена по запросу","url":"https://bartsparts.com/products/hifi-filter-t74105061/"},{"id":"hifi-filter-t8204","name":"HIFI FILTER T8204","nameOriginal":"T8204","brand":"HIFI FILTER","sku":"T8204","category":"tractor","visual":"danger","icon":"package","price":0,"sourcePrice":0,"currency":"EUR","stock":"Цена по запросу","url":"https://bartsparts.com/products/hifi-filter-t8204/"},{"id":"hifi-filter-t8206","name":"HIFI FILTER T8206","nameOriginal":"T8206","brand":"HIFI FILTER","sku":"T8206","category":"tractor","visual":"danger","icon":"package","price":0,"sourcePrice":0,"currency":"EUR","stock":"Цена по запросу","url":"https://bartsparts.com/products/hifi-filter-t8206/"},{"id":"hifi-filter-t8211","name":"HIFI FILTER T8211","nameOriginal":"T8211","brand":"HIFI FILTER","sku":"T8211","category":"tractor","visual":"danger","icon":"package","price":0,"sourcePrice":0,"currency":"EUR","stock":"Цена по запросу","url":"https://bartsparts.com/products/hifi-filter-t8211/"},{"id":"hifi-filter-t8304","name":"HIFI FILTER T8304","nameOriginal":"T8304","brand":"HIFI FILTER","sku":"T8304","category":"tractor","visual":"danger","icon":"package","price":0,"sourcePrice":0,"currency":"EUR","stock":"Цена по запросу","url":"https://bartsparts.com/products/hifi-filter-t8304/"},{"id":"hifi-filter-t8307","name":"HIFI FILTER T8307","nameOriginal":"T8307","brand":"HIFI FILTER","sku":"T8307","category":"tractor","visual":"danger","icon":"package","price":0,"sourcePrice":0,"currency":"EUR","stock":"Цена по запросу","url":"https://bartsparts.com/products/hifi-filter-t8307/"},{"id":"hifi-filter-t9337","name":"HIFI FILTER T9337","nameOriginal":"T9337","brand":"HIFI FILTER","sku":"T9337","category":"tractor","visual":"danger","icon":"package","price":0,"sourcePrice":0,"currency":"EUR","stock":"Цена по запросу","url":"https://bartsparts.com/products/hifi-filter-t9337/"},{"id":"hifi-filter-tb1390","name":"HIFI FILTER TB1390","nameOriginal":"TB1390","brand":"HIFI FILTER","sku":"TB1390","category":"tractor","visual":"danger","icon":"package","price":0,"sourcePrice":0,"currency":"EUR","stock":"Цена по запросу","url":"https://bartsparts.com/products/hifi-filter-tb1390/"},{"id":"hifi-filter-tco499","name":"HIFI FILTER TCO499","nameOriginal":"TCO499","brand":"HIFI FILTER","sku":"TCO499","category":"tractor","visual":"danger","icon":"package","price":0,"sourcePrice":0,"currency":"EUR","stock":"Цена по запросу","url":"https://bartsparts.com/products/hifi-filter-tco499/"},{"id":"hifi-filter-tco510","name":"HIFI FILTER TCO510","nameOriginal":"TCO510","brand":"HIFI FILTER","sku":"TCO510","category":"tractor","visual":"danger","icon":"package","price":0,"sourcePrice":0,"currency":"EUR","stock":"Цена по запросу","url":"https://bartsparts.com/products/hifi-filter-tco510/"},{"id":"hifi-filter-tco703","name":"HIFI FILTER TCO703","nameOriginal":"TCO703","brand":"HIFI FILTER","sku":"TCO703","category":"tractor","visual":"danger","icon":"package","price":0,"sourcePrice":0,"currency":"EUR","stock":"Цена по запросу","url":"https://bartsparts.com/products/hifi-filter-tco703/"},{"id":"hifi-filter-tco732","name":"HIFI FILTER TCO732","nameOriginal":"TCO732","brand":"HIFI FILTER","sku":"TCO732","category":"tractor","visual":"danger","icon":"package","price":0,"sourcePrice":0,"currency":"EUR","stock":"Цена по запросу","url":"https://bartsparts.com/products/hifi-filter-tco732/"},{"id":"hifi-filter-to27016320","name":"HIFI FILTER TO27016320","nameOriginal":"TO27016320","brand":"HIFI FILTER","sku":"TO27016320","category":"tractor","visual":"danger","icon":"package","price":0,"sourcePrice":0,"currency":"EUR","stock":"Цена по запросу","url":"https://bartsparts.com/products/hifi-filter-to27016320/"},{"id":"hifi-filter-tuberond114","name":"HIFI FILTER TUBEROND114","nameOriginal":"TUBEROND114","brand":"HIFI FILTER","sku":"TUBEROND114","category":"tractor","visual":"danger","icon":"package","price":0,"sourcePrice":0,"currency":"EUR","stock":"Цена по запросу","url":"https://bartsparts.com/products/hifi-filter-tuberond114/"},{"id":"hifi-filter-tuberond33","name":"HIFI FILTER TUBEROND33","nameOriginal":"TUBEROND33","brand":"HIFI FILTER","sku":"TUBEROND33","category":"tractor","visual":"danger","icon":"package","price":0,"sourcePrice":0,"currency":"EUR","stock":"Цена по запросу","url":"https://bartsparts.com/products/hifi-filter-tuberond33/"},{"id":"hifi-filter-ufi2739900","name":"HIFI FILTER UFI2739900","nameOriginal":"UFI2739900","brand":"HIFI FILTER","sku":"UFI2739900","category":"tractor","visual":"danger","icon":"package","price":0,"sourcePrice":0,"currency":"EUR","stock":"Цена по запросу","url":"https://bartsparts.com/products/hifi-filter-ufi2739900/"},{"id":"hifi-filter-v836679586hif","name":"HIFI FILTER V836679586HIF","nameOriginal":"V836679586HIF","brand":"HIFI FILTER","sku":"V836679586HIF","category":"tractor","visual":"danger","icon":"package","price":0,"sourcePrice":0,"currency":"EUR","stock":"Цена по запросу","url":"https://bartsparts.com/products/hifi-filter-v836679586hif/"},{"id":"hifi-filter-va128283","name":"HIFI FILTER VA128283","nameOriginal":"VA128283","brand":"HIFI FILTER","sku":"VA128283","category":"tractor","visual":"danger","icon":"package","price":0,"sourcePrice":0,"currency":"EUR","stock":"Цена по запросу","url":"https://bartsparts.com/products/hifi-filter-va128283/"},{"id":"hifi-filter-va262648","name":"HIFI FILTER VA262648","nameOriginal":"VA262648","brand":"HIFI FILTER","sku":"VA262648","category":"tractor","visual":"danger","icon":"package","price":0,"sourcePrice":0,"currency":"EUR","stock":"Цена по запросу","url":"https://bartsparts.com/products/hifi-filter-va262648/"},{"id":"hifi-filter-we2059","name":"HIFI FILTER WE2059","nameOriginal":"WE2059","brand":"HIFI FILTER","sku":"WE2059","category":"tractor","visual":"danger","icon":"package","price":0,"sourcePrice":0,"currency":"EUR","stock":"Цена по запросу","url":"https://bartsparts.com/products/hifi-filter-we2059/"},{"id":"hifi-filter-we2069","name":"HIFI FILTER WE2069","nameOriginal":"WE2069","brand":"HIFI FILTER","sku":"WE2069","category":"tractor","visual":"danger","icon":"package","price":0,"sourcePrice":0,"currency":"EUR","stock":"Цена по запросу","url":"https://bartsparts.com/products/hifi-filter-we2069/"},{"id":"hifi-filter-we2072","name":"HIFI FILTER WE2072","nameOriginal":"WE2072","brand":"HIFI FILTER","sku":"WE2072","category":"tractor","visual":"danger","icon":"package","price":0,"sourcePrice":0,"currency":"EUR","stock":"Цена по запросу","url":"https://bartsparts.com/products/hifi-filter-we2072/"},{"id":"hifi-filter-we2074","name":"HIFI FILTER WE2074","nameOriginal":"WE2074","brand":"HIFI FILTER","sku":"WE2074","category":"tractor","visual":"danger","icon":"package","price":0,"sourcePrice":0,"currency":"EUR","stock":"Цена по запросу","url":"https://bartsparts.com/products/hifi-filter-we2074/"},{"id":"hifi-filter-we2077","name":"HIFI FILTER WE2077","nameOriginal":"WE2077","brand":"HIFI FILTER","sku":"WE2077","category":"tractor","visual":"danger","icon":"package","price":0,"sourcePrice":0,"currency":"EUR","stock":"Цена по запросу","url":"https://bartsparts.com/products/hifi-filter-we2077/"},{"id":"hifi-filter-xp60","name":"HIFI FILTER XP60","nameOriginal":"XP60","brand":"HIFI FILTER","sku":"XP60","category":"tractor","visual":"danger","icon":"package","price":0,"sourcePrice":0,"currency":"EUR","stock":"Цена по запросу","url":"https://bartsparts.com/products/hifi-filter-xp60/"},{"id":"hifi-filter-y230r10","name":"HIFI FILTER Y230R10","nameOriginal":"Y230R10","brand":"HIFI FILTER","sku":"Y230R10","category":"tractor","visual":"danger","icon":"package","price":0,"sourcePrice":0,"currency":"EUR","stock":"Цена по запросу","url":"https://bartsparts.com/products/hifi-filter-y230r10/"},{"id":"hifi-filter-y645r10","name":"HIFI FILTER Y645R10","nameOriginal":"Y645R10","brand":"HIFI FILTER","sku":"Y645R10","category":"tractor","visual":"danger","icon":"package","price":0,"sourcePrice":0,"currency":"EUR","stock":"Цена по запросу","url":"https://bartsparts.com/products/hifi-filter-y645r10/"},{"id":"hifi-filter-y645r2","name":"HIFI FILTER Y645R2","nameOriginal":"Y645R2","brand":"HIFI FILTER","sku":"Y645R2","category":"tractor","visual":"danger","icon":"package","price":0,"sourcePrice":0,"currency":"EUR","stock":"Цена по запросу","url":"https://bartsparts.com/products/hifi-filter-y645r2/"},{"id":"hifi-filter-y660r2","name":"HIFI FILTER Y660R2","nameOriginal":"Y660R2","brand":"HIFI FILTER","sku":"Y660R2","category":"tractor","visual":"danger","icon":"package","price":0,"sourcePrice":0,"currency":"EUR","stock":"Цена по запросу","url":"https://bartsparts.com/products/hifi-filter-y660r2/"},{"id":"hifi-filter-ys3209p","name":"HIFI FILTER YS3209P","nameOriginal":"YS3209P","brand":"HIFI FILTER","sku":"YS3209P","category":"tractor","visual":"danger","icon":"package","price":0,"sourcePrice":0,"currency":"EUR","stock":"Цена по запросу","url":"https://bartsparts.com/products/hifi-filter-ys3209p/"}]}
