{"metadata":{"brand":"AMAZONE","brandSlug":"amazone","page":14,"pages":14,"count":13056,"chunkSize":1000,"currency":"EUR","priceMarkupPercent":20},"products":[{"id":"amazone-zf956","name":"AMAZONE ZF956","nameOriginal":"ZF956","brand":"AMAZONE","sku":"ZF956","category":"tractor","visual":"blue","icon":"package","price":0,"sourcePrice":0,"oldPrice":0,"oldSourcePrice":0,"currency":"EUR","stock":"Цена по запросу","image":"","availability":"","priceUpdatedAt":"","lastFetchedAt":"","url":"https://bartsparts.com/products/amazone-zf956/"},{"id":"amazone-zf957","name":"AMAZONE ZF957","nameOriginal":"ZF957","brand":"AMAZONE","sku":"ZF957","category":"tractor","visual":"blue","icon":"package","price":0,"sourcePrice":0,"oldPrice":0,"oldSourcePrice":0,"currency":"EUR","stock":"Цена по запросу","image":"","availability":"","priceUpdatedAt":"","lastFetchedAt":"","url":"https://bartsparts.com/products/amazone-zf957/"},{"id":"amazone-zf959","name":"AMAZONE ZF959","nameOriginal":"ZF959","brand":"AMAZONE","sku":"ZF959","category":"tractor","visual":"blue","icon":"package","price":0,"sourcePrice":0,"oldPrice":0,"oldSourcePrice":0,"currency":"EUR","stock":"Цена по запросу","image":"","availability":"","priceUpdatedAt":"","lastFetchedAt":"","url":"https://bartsparts.com/products/amazone-zf959/"},{"id":"amazone-zf960","name":"AMAZONE ZF960","nameOriginal":"ZF960","brand":"AMAZONE","sku":"ZF960","category":"tractor","visual":"blue","icon":"package","price":0,"sourcePrice":0,"oldPrice":0,"oldSourcePrice":0,"currency":"EUR","stock":"Цена по запросу","image":"","availability":"","priceUpdatedAt":"","lastFetchedAt":"","url":"https://bartsparts.com/products/amazone-zf960/"},{"id":"amazone-zf961","name":"AMAZONE ZF961","nameOriginal":"ZF961","brand":"AMAZONE","sku":"ZF961","category":"tractor","visual":"blue","icon":"package","price":0,"sourcePrice":0,"oldPrice":0,"oldSourcePrice":0,"currency":"EUR","stock":"Цена по запросу","image":"","availability":"","priceUpdatedAt":"","lastFetchedAt":"","url":"https://bartsparts.com/products/amazone-zf961/"},{"id":"amazone-zf962","name":"AMAZONE ZF962","nameOriginal":"ZF962","brand":"AMAZONE","sku":"ZF962","category":"tractor","visual":"blue","icon":"package","price":0,"sourcePrice":0,"oldPrice":0,"oldSourcePrice":0,"currency":"EUR","stock":"Цена по запросу","image":"","availability":"","priceUpdatedAt":"","lastFetchedAt":"","url":"https://bartsparts.com/products/amazone-zf962/"},{"id":"amazone-zf963","name":"AMAZONE ZF963","nameOriginal":"ZF963","brand":"AMAZONE","sku":"ZF963","category":"tractor","visual":"blue","icon":"package","price":0,"sourcePrice":0,"oldPrice":0,"oldSourcePrice":0,"currency":"EUR","stock":"Цена по запросу","image":"","availability":"","priceUpdatedAt":"","lastFetchedAt":"","url":"https://bartsparts.com/products/amazone-zf963/"},{"id":"amazone-zf972","name":"AMAZONE ZF972","nameOriginal":"ZF972","brand":"AMAZONE","sku":"ZF972","category":"tractor","visual":"blue","icon":"package","price":0,"sourcePrice":0,"oldPrice":0,"oldSourcePrice":0,"currency":"EUR","stock":"Цена по запросу","image":"","availability":"","priceUpdatedAt":"","lastFetchedAt":"","url":"https://bartsparts.com/products/amazone-zf972/"},{"id":"amazone-zf973","name":"AMAZONE ZF973","nameOriginal":"ZF973","brand":"AMAZONE","sku":"ZF973","category":"tractor","visual":"blue","icon":"package","price":0,"sourcePrice":0,"oldPrice":0,"oldSourcePrice":0,"currency":"EUR","stock":"Цена по запросу","image":"","availability":"","priceUpdatedAt":"","lastFetchedAt":"","url":"https://bartsparts.com/products/amazone-zf973/"},{"id":"amazone-zf974","name":"AMAZONE ZF974","nameOriginal":"ZF974","brand":"AMAZONE","sku":"ZF974","category":"tractor","visual":"blue","icon":"package","price":0,"sourcePrice":0,"oldPrice":0,"oldSourcePrice":0,"currency":"EUR","stock":"Цена по запросу","image":"","availability":"","priceUpdatedAt":"","lastFetchedAt":"","url":"https://bartsparts.com/products/amazone-zf974/"},{"id":"amazone-zf981","name":"AMAZONE ZF981","nameOriginal":"ZF981","brand":"AMAZONE","sku":"ZF981","category":"tractor","visual":"blue","icon":"package","price":0,"sourcePrice":0,"oldPrice":0,"oldSourcePrice":0,"currency":"EUR","stock":"Цена по запросу","image":"","availability":"","priceUpdatedAt":"","lastFetchedAt":"","url":"https://bartsparts.com/products/amazone-zf981/"},{"id":"amazone-zf996","name":"AMAZONE ZF996","nameOriginal":"ZF996","brand":"AMAZONE","sku":"ZF996","category":"tractor","visual":"blue","icon":"package","price":0,"sourcePrice":0,"oldPrice":0,"oldSourcePrice":0,"currency":"EUR","stock":"Цена по запросу","image":"","availability":"","priceUpdatedAt":"","lastFetchedAt":"","url":"https://bartsparts.com/products/amazone-zf996/"},{"id":"amazone-zf997","name":"AMAZONE ZF997","nameOriginal":"ZF997","brand":"AMAZONE","sku":"ZF997","category":"tractor","visual":"blue","icon":"package","price":0,"sourcePrice":0,"oldPrice":0,"oldSourcePrice":0,"currency":"EUR","stock":"Цена по запросу","image":"","availability":"","priceUpdatedAt":"","lastFetchedAt":"","url":"https://bartsparts.com/products/amazone-zf997/"},{"id":"amazone-zf999","name":"AMAZONE ZF999","nameOriginal":"ZF999","brand":"AMAZONE","sku":"ZF999","category":"tractor","visual":"blue","icon":"package","price":0,"sourcePrice":0,"oldPrice":0,"oldSourcePrice":0,"currency":"EUR","stock":"Цена по запросу","image":"","availability":"","priceUpdatedAt":"","lastFetchedAt":"","url":"https://bartsparts.com/products/amazone-zf999/"},{"id":"amazone-zfr251235","name":"AMAZONE ZFR251235","nameOriginal":"ZFR251235","brand":"AMAZONE","sku":"ZFR251235","category":"tractor","visual":"blue","icon":"package","price":0,"sourcePrice":0,"oldPrice":0,"oldSourcePrice":0,"currency":"EUR","stock":"Цена по запросу","image":"","availability":"","priceUpdatedAt":"","lastFetchedAt":"","url":"https://bartsparts.com/products/amazone-zfr251235/"},{"id":"amazone-zfr251236","name":"AMAZONE ZFR251236","nameOriginal":"ZFR251236","brand":"AMAZONE","sku":"ZFR251236","category":"tractor","visual":"blue","icon":"package","price":0,"sourcePrice":0,"oldPrice":0,"oldSourcePrice":0,"currency":"EUR","stock":"Цена по запросу","image":"","availability":"","priceUpdatedAt":"","lastFetchedAt":"","url":"https://bartsparts.com/products/amazone-zfr251236/"},{"id":"amazone-zfr251237","name":"AMAZONE ZFR251237","nameOriginal":"ZFR251237","brand":"AMAZONE","sku":"ZFR251237","category":"tractor","visual":"blue","icon":"package","price":0,"sourcePrice":0,"oldPrice":0,"oldSourcePrice":0,"currency":"EUR","stock":"Цена по запросу","image":"","availability":"","priceUpdatedAt":"","lastFetchedAt":"","url":"https://bartsparts.com/products/amazone-zfr251237/"},{"id":"amazone-zfr251241","name":"AMAZONE ZFR251241","nameOriginal":"ZFR251241","brand":"AMAZONE","sku":"ZFR251241","category":"tractor","visual":"blue","icon":"package","price":0,"sourcePrice":0,"oldPrice":0,"oldSourcePrice":0,"currency":"EUR","stock":"Цена по запросу","image":"","availability":"","priceUpdatedAt":"","lastFetchedAt":"","url":"https://bartsparts.com/products/amazone-zfr251241/"},{"id":"amazone-zfr967495hd","name":"AMAZONE ZFR967495HD","nameOriginal":"ZFR967495HD","brand":"AMAZONE","sku":"ZFR967495HD","category":"tractor","visual":"blue","icon":"package","price":0,"sourcePrice":0,"oldPrice":0,"oldSourcePrice":0,"currency":"EUR","stock":"Цена по запросу","image":"","availability":"","priceUpdatedAt":"","lastFetchedAt":"","url":"https://bartsparts.com/products/amazone-zfr967495hd/"},{"id":"amazone-zl008","name":"AMAZONE ZL008","nameOriginal":"ZL008","brand":"AMAZONE","sku":"ZL008","category":"tractor","visual":"blue","icon":"package","price":0,"sourcePrice":0,"oldPrice":0,"oldSourcePrice":0,"currency":"EUR","stock":"Цена по запросу","image":"","availability":"","priceUpdatedAt":"","lastFetchedAt":"","url":"https://bartsparts.com/products/amazone-zl008/"},{"id":"amazone-zl010","name":"AMAZONE ZL010","nameOriginal":"ZL010","brand":"AMAZONE","sku":"ZL010","category":"tractor","visual":"blue","icon":"package","price":0,"sourcePrice":0,"oldPrice":0,"oldSourcePrice":0,"currency":"EUR","stock":"Цена по запросу","image":"","availability":"","priceUpdatedAt":"","lastFetchedAt":"","url":"https://bartsparts.com/products/amazone-zl010/"},{"id":"amazone-zn401","name":"AMAZONE ZN401","nameOriginal":"ZN401","brand":"AMAZONE","sku":"ZN401","category":"tractor","visual":"blue","icon":"package","price":0,"sourcePrice":0,"oldPrice":0,"oldSourcePrice":0,"currency":"EUR","stock":"Цена по запросу","image":"","availability":"","priceUpdatedAt":"","lastFetchedAt":"","url":"https://bartsparts.com/products/amazone-zn401/"},{"id":"amazone-zn407","name":"AMAZONE ZN407","nameOriginal":"ZN407","brand":"AMAZONE","sku":"ZN407","category":"tractor","visual":"blue","icon":"package","price":0,"sourcePrice":0,"oldPrice":0,"oldSourcePrice":0,"currency":"EUR","stock":"Цена по запросу","image":"","availability":"","priceUpdatedAt":"","lastFetchedAt":"","url":"https://bartsparts.com/products/amazone-zn407/"},{"id":"amazone-zn408","name":"AMAZONE ZN408","nameOriginal":"ZN408","brand":"AMAZONE","sku":"ZN408","category":"tractor","visual":"blue","icon":"package","price":0,"sourcePrice":0,"oldPrice":0,"oldSourcePrice":0,"currency":"EUR","stock":"Цена по запросу","image":"","availability":"","priceUpdatedAt":"","lastFetchedAt":"","url":"https://bartsparts.com/products/amazone-zn408/"},{"id":"amazone-zn410","name":"AMAZONE ZN410","nameOriginal":"ZN410","brand":"AMAZONE","sku":"ZN410","category":"tractor","visual":"blue","icon":"package","price":0,"sourcePrice":0,"oldPrice":0,"oldSourcePrice":0,"currency":"EUR","stock":"Цена по запросу","image":"","availability":"","priceUpdatedAt":"","lastFetchedAt":"","url":"https://bartsparts.com/products/amazone-zn410/"},{"id":"amazone-zs307","name":"AMAZONE ZS307","nameOriginal":"ZS307","brand":"AMAZONE","sku":"ZS307","category":"tractor","visual":"blue","icon":"package","price":0,"sourcePrice":0,"oldPrice":0,"oldSourcePrice":0,"currency":"EUR","stock":"Цена по запросу","image":"","availability":"","priceUpdatedAt":"","lastFetchedAt":"","url":"https://bartsparts.com/products/amazone-zs307/"},{"id":"amazone-zs321","name":"AMAZONE ZS321","nameOriginal":"ZS321","brand":"AMAZONE","sku":"ZS321","category":"tractor","visual":"blue","icon":"package","price":0,"sourcePrice":0,"oldPrice":0,"oldSourcePrice":0,"currency":"EUR","stock":"Цена по запросу","image":"","availability":"","priceUpdatedAt":"","lastFetchedAt":"","url":"https://bartsparts.com/products/amazone-zs321/"},{"id":"amazone-zs347","name":"AMAZONE ZS347","nameOriginal":"ZS347","brand":"AMAZONE","sku":"ZS347","category":"tractor","visual":"blue","icon":"package","price":0,"sourcePrice":0,"oldPrice":0,"oldSourcePrice":0,"currency":"EUR","stock":"Цена по запросу","image":"","availability":"","priceUpdatedAt":"","lastFetchedAt":"","url":"https://bartsparts.com/products/amazone-zs347/"},{"id":"amazone-zs352","name":"AMAZONE ZS352","nameOriginal":"ZS352","brand":"AMAZONE","sku":"ZS352","category":"tractor","visual":"blue","icon":"package","price":0,"sourcePrice":0,"oldPrice":0,"oldSourcePrice":0,"currency":"EUR","stock":"Цена по запросу","image":"","availability":"","priceUpdatedAt":"","lastFetchedAt":"","url":"https://bartsparts.com/products/amazone-zs352/"},{"id":"amazone-zu042","name":"AMAZONE ZU042","nameOriginal":"ZU042","brand":"AMAZONE","sku":"ZU042","category":"tractor","visual":"blue","icon":"package","price":0,"sourcePrice":0,"oldPrice":0,"oldSourcePrice":0,"currency":"EUR","stock":"Цена по запросу","image":"","availability":"","priceUpdatedAt":"","lastFetchedAt":"","url":"https://bartsparts.com/products/amazone-zu042/"},{"id":"amazone-zu059","name":"AMAZONE ZU059","nameOriginal":"ZU059","brand":"AMAZONE","sku":"ZU059","category":"tractor","visual":"blue","icon":"package","price":0,"sourcePrice":0,"oldPrice":0,"oldSourcePrice":0,"currency":"EUR","stock":"Цена по запросу","image":"","availability":"","priceUpdatedAt":"","lastFetchedAt":"","url":"https://bartsparts.com/products/amazone-zu059/"},{"id":"amazone-zu060","name":"AMAZONE ZU060","nameOriginal":"ZU060","brand":"AMAZONE","sku":"ZU060","category":"tractor","visual":"blue","icon":"package","price":0,"sourcePrice":0,"oldPrice":0,"oldSourcePrice":0,"currency":"EUR","stock":"Цена по запросу","image":"","availability":"","priceUpdatedAt":"","lastFetchedAt":"","url":"https://bartsparts.com/products/amazone-zu060/"},{"id":"amazone-zu064","name":"AMAZONE ZU064","nameOriginal":"ZU064","brand":"AMAZONE","sku":"ZU064","category":"tractor","visual":"blue","icon":"package","price":0,"sourcePrice":0,"oldPrice":0,"oldSourcePrice":0,"currency":"EUR","stock":"Цена по запросу","image":"","availability":"","priceUpdatedAt":"","lastFetchedAt":"","url":"https://bartsparts.com/products/amazone-zu064/"},{"id":"amazone-zu078","name":"AMAZONE ZU078","nameOriginal":"ZU078","brand":"AMAZONE","sku":"ZU078","category":"tractor","visual":"blue","icon":"package","price":0,"sourcePrice":0,"oldPrice":0,"oldSourcePrice":0,"currency":"EUR","stock":"Цена по запросу","image":"","availability":"","priceUpdatedAt":"","lastFetchedAt":"","url":"https://bartsparts.com/products/amazone-zu078/"},{"id":"amazone-zu094","name":"AMAZONE ZU094","nameOriginal":"ZU094","brand":"AMAZONE","sku":"ZU094","category":"tractor","visual":"blue","icon":"package","price":0,"sourcePrice":0,"oldPrice":0,"oldSourcePrice":0,"currency":"EUR","stock":"Цена по запросу","image":"","availability":"","priceUpdatedAt":"","lastFetchedAt":"","url":"https://bartsparts.com/products/amazone-zu094/"},{"id":"amazone-zu095","name":"AMAZONE ZU095","nameOriginal":"ZU095","brand":"AMAZONE","sku":"ZU095","category":"tractor","visual":"blue","icon":"package","price":0,"sourcePrice":0,"oldPrice":0,"oldSourcePrice":0,"currency":"EUR","stock":"Цена по запросу","image":"","availability":"","priceUpdatedAt":"","lastFetchedAt":"","url":"https://bartsparts.com/products/amazone-zu095/"},{"id":"amazone-zu098","name":"AMAZONE ZU098","nameOriginal":"ZU098","brand":"AMAZONE","sku":"ZU098","category":"tractor","visual":"blue","icon":"package","price":0,"sourcePrice":0,"oldPrice":0,"oldSourcePrice":0,"currency":"EUR","stock":"Цена по запросу","image":"","availability":"","priceUpdatedAt":"","lastFetchedAt":"","url":"https://bartsparts.com/products/amazone-zu098/"},{"id":"amazone-zu099","name":"AMAZONE ZU099","nameOriginal":"ZU099","brand":"AMAZONE","sku":"ZU099","category":"tractor","visual":"blue","icon":"package","price":0,"sourcePrice":0,"oldPrice":0,"oldSourcePrice":0,"currency":"EUR","stock":"Цена по запросу","image":"","availability":"","priceUpdatedAt":"","lastFetchedAt":"","url":"https://bartsparts.com/products/amazone-zu099/"},{"id":"amazone-zu109","name":"AMAZONE ZU109","nameOriginal":"ZU109","brand":"AMAZONE","sku":"ZU109","category":"tractor","visual":"blue","icon":"package","price":0,"sourcePrice":0,"oldPrice":0,"oldSourcePrice":0,"currency":"EUR","stock":"Цена по запросу","image":"","availability":"","priceUpdatedAt":"","lastFetchedAt":"","url":"https://bartsparts.com/products/amazone-zu109/"},{"id":"amazone-zu110","name":"AMAZONE ZU110","nameOriginal":"ZU110","brand":"AMAZONE","sku":"ZU110","category":"tractor","visual":"blue","icon":"package","price":0,"sourcePrice":0,"oldPrice":0,"oldSourcePrice":0,"currency":"EUR","stock":"Цена по запросу","image":"","availability":"","priceUpdatedAt":"","lastFetchedAt":"","url":"https://bartsparts.com/products/amazone-zu110/"},{"id":"amazone-zu123","name":"AMAZONE ZU123","nameOriginal":"ZU123","brand":"AMAZONE","sku":"ZU123","category":"tractor","visual":"blue","icon":"package","price":0,"sourcePrice":0,"oldPrice":0,"oldSourcePrice":0,"currency":"EUR","stock":"Цена по запросу","image":"","availability":"","priceUpdatedAt":"","lastFetchedAt":"","url":"https://bartsparts.com/products/amazone-zu123/"},{"id":"amazone-zu137","name":"AMAZONE ZU137","nameOriginal":"ZU137","brand":"AMAZONE","sku":"ZU137","category":"tractor","visual":"blue","icon":"package","price":0,"sourcePrice":0,"oldPrice":0,"oldSourcePrice":0,"currency":"EUR","stock":"Цена по запросу","image":"","availability":"","priceUpdatedAt":"","lastFetchedAt":"","url":"https://bartsparts.com/products/amazone-zu137/"},{"id":"amazone-zu140","name":"AMAZONE ZU140","nameOriginal":"ZU140","brand":"AMAZONE","sku":"ZU140","category":"tractor","visual":"blue","icon":"package","price":0,"sourcePrice":0,"oldPrice":0,"oldSourcePrice":0,"currency":"EUR","stock":"Цена по запросу","image":"","availability":"","priceUpdatedAt":"","lastFetchedAt":"","url":"https://bartsparts.com/products/amazone-zu140/"},{"id":"amazone-zu150","name":"AMAZONE ZU150","nameOriginal":"ZU150","brand":"AMAZONE","sku":"ZU150","category":"tractor","visual":"blue","icon":"package","price":0,"sourcePrice":0,"oldPrice":0,"oldSourcePrice":0,"currency":"EUR","stock":"Цена по запросу","image":"","availability":"","priceUpdatedAt":"","lastFetchedAt":"","url":"https://bartsparts.com/products/amazone-zu150/"},{"id":"amazone-zu157","name":"AMAZONE ZU157","nameOriginal":"ZU157","brand":"AMAZONE","sku":"ZU157","category":"tractor","visual":"blue","icon":"package","price":0,"sourcePrice":0,"oldPrice":0,"oldSourcePrice":0,"currency":"EUR","stock":"Цена по запросу","image":"","availability":"","priceUpdatedAt":"","lastFetchedAt":"","url":"https://bartsparts.com/products/amazone-zu157/"},{"id":"amazone-zu160","name":"AMAZONE ZU160","nameOriginal":"ZU160","brand":"AMAZONE","sku":"ZU160","category":"tractor","visual":"blue","icon":"package","price":0,"sourcePrice":0,"oldPrice":0,"oldSourcePrice":0,"currency":"EUR","stock":"Цена по запросу","image":"","availability":"","priceUpdatedAt":"","lastFetchedAt":"","url":"https://bartsparts.com/products/amazone-zu160/"},{"id":"amazone-zu161","name":"AMAZONE ZU161","nameOriginal":"ZU161","brand":"AMAZONE","sku":"ZU161","category":"tractor","visual":"blue","icon":"package","price":0,"sourcePrice":0,"oldPrice":0,"oldSourcePrice":0,"currency":"EUR","stock":"Цена по запросу","image":"","availability":"","priceUpdatedAt":"","lastFetchedAt":"","url":"https://bartsparts.com/products/amazone-zu161/"},{"id":"amazone-zu162","name":"AMAZONE ZU162","nameOriginal":"ZU162","brand":"AMAZONE","sku":"ZU162","category":"tractor","visual":"blue","icon":"package","price":0,"sourcePrice":0,"oldPrice":0,"oldSourcePrice":0,"currency":"EUR","stock":"Цена по запросу","image":"","availability":"","priceUpdatedAt":"","lastFetchedAt":"","url":"https://bartsparts.com/products/amazone-zu162/"},{"id":"amazone-zu163","name":"AMAZONE ZU163","nameOriginal":"ZU163","brand":"AMAZONE","sku":"ZU163","category":"tractor","visual":"blue","icon":"package","price":0,"sourcePrice":0,"oldPrice":0,"oldSourcePrice":0,"currency":"EUR","stock":"Цена по запросу","image":"","availability":"","priceUpdatedAt":"","lastFetchedAt":"","url":"https://bartsparts.com/products/amazone-zu163/"},{"id":"amazone-zu164","name":"AMAZONE ZU164","nameOriginal":"ZU164","brand":"AMAZONE","sku":"ZU164","category":"tractor","visual":"blue","icon":"package","price":0,"sourcePrice":0,"oldPrice":0,"oldSourcePrice":0,"currency":"EUR","stock":"Цена по запросу","image":"","availability":"","priceUpdatedAt":"","lastFetchedAt":"","url":"https://bartsparts.com/products/amazone-zu164/"},{"id":"amazone-zu213","name":"AMAZONE ZU213","nameOriginal":"ZU213","brand":"AMAZONE","sku":"ZU213","category":"tractor","visual":"blue","icon":"package","price":0,"sourcePrice":0,"oldPrice":0,"oldSourcePrice":0,"currency":"EUR","stock":"Цена по запросу","image":"","availability":"","priceUpdatedAt":"","lastFetchedAt":"","url":"https://bartsparts.com/products/amazone-zu213/"},{"id":"amazone-zu215","name":"AMAZONE ZU215","nameOriginal":"ZU215","brand":"AMAZONE","sku":"ZU215","category":"tractor","visual":"blue","icon":"package","price":0,"sourcePrice":0,"oldPrice":0,"oldSourcePrice":0,"currency":"EUR","stock":"Цена по запросу","image":"","availability":"","priceUpdatedAt":"","lastFetchedAt":"","url":"https://bartsparts.com/products/amazone-zu215/"},{"id":"amazone-zu217","name":"AMAZONE ZU217","nameOriginal":"ZU217","brand":"AMAZONE","sku":"ZU217","category":"tractor","visual":"blue","icon":"package","price":0,"sourcePrice":0,"oldPrice":0,"oldSourcePrice":0,"currency":"EUR","stock":"Цена по запросу","image":"","availability":"","priceUpdatedAt":"","lastFetchedAt":"","url":"https://bartsparts.com/products/amazone-zu217/"},{"id":"amazone-zu308","name":"AMAZONE ZU308","nameOriginal":"ZU308","brand":"AMAZONE","sku":"ZU308","category":"tractor","visual":"blue","icon":"package","price":0,"sourcePrice":0,"oldPrice":0,"oldSourcePrice":0,"currency":"EUR","stock":"Цена по запросу","image":"","availability":"","priceUpdatedAt":"","lastFetchedAt":"","url":"https://bartsparts.com/products/amazone-zu308/"},{"id":"amazone-zu309","name":"AMAZONE ZU309","nameOriginal":"ZU309","brand":"AMAZONE","sku":"ZU309","category":"tractor","visual":"blue","icon":"package","price":0,"sourcePrice":0,"oldPrice":0,"oldSourcePrice":0,"currency":"EUR","stock":"Цена по запросу","image":"","availability":"","priceUpdatedAt":"","lastFetchedAt":"","url":"https://bartsparts.com/products/amazone-zu309/"},{"id":"amazone-zu310","name":"AMAZONE ZU310","nameOriginal":"ZU310","brand":"AMAZONE","sku":"ZU310","category":"tractor","visual":"blue","icon":"package","price":0,"sourcePrice":0,"oldPrice":0,"oldSourcePrice":0,"currency":"EUR","stock":"Цена по запросу","image":"","availability":"","priceUpdatedAt":"","lastFetchedAt":"","url":"https://bartsparts.com/products/amazone-zu310/"}]}
