{"metadata":{"brand":"Walterscheid","brandSlug":"walterscheid","page":7,"pages":7,"count":6008,"chunkSize":1000,"currency":"EUR","priceMarkupPercent":20},"products":[{"id":"walterscheid-zsb879","name":"Walterscheid ZSB879","nameOriginal":"ZSB879","brand":"Walterscheid","sku":"ZSB879","category":"tractor","visual":"red","icon":"package","price":0,"sourcePrice":0,"currency":"EUR","stock":"Цена по запросу","url":"https://bartsparts.com/products/walterscheid-zsb879/"},{"id":"walterscheid-zwl303l","name":"Walterscheid ZWL303L","nameOriginal":"ZWL303L","brand":"Walterscheid","sku":"ZWL303L","category":"tractor","visual":"red","icon":"package","price":0,"sourcePrice":0,"currency":"EUR","stock":"Цена по запросу","url":"https://bartsparts.com/products/walterscheid-zwl303l/"},{"id":"walterscheid-zwl303m","name":"Walterscheid ZWL303M","nameOriginal":"ZWL303M","brand":"Walterscheid","sku":"ZWL303M","category":"tractor","visual":"red","icon":"package","price":0,"sourcePrice":0,"currency":"EUR","stock":"Цена по запросу","url":"https://bartsparts.com/products/walterscheid-zwl303m/"},{"id":"walterscheid-zwl30w15k","name":"Walterscheid ZWL30W15K","nameOriginal":"ZWL30W15K","brand":"Walterscheid","sku":"ZWL30W15K","category":"tractor","visual":"red","icon":"package","price":0,"sourcePrice":0,"currency":"EUR","stock":"Цена по запросу","url":"https://bartsparts.com/products/walterscheid-zwl30w15k/"},{"id":"walterscheid-zwl50kbm20","name":"Walterscheid ZWL50KBM20","nameOriginal":"ZWL50KBM20","brand":"Walterscheid","sku":"ZWL50KBM20","category":"tractor","visual":"red","icon":"package","price":0,"sourcePrice":0,"currency":"EUR","stock":"Цена по запросу","url":"https://bartsparts.com/products/walterscheid-zwl50kbm20/"},{"id":"walterscheid-zwl50kun","name":"Walterscheid ZWL50KUN","nameOriginal":"ZWL50KUN","brand":"Walterscheid","sku":"ZWL50KUN","category":"tractor","visual":"red","icon":"package","price":0,"sourcePrice":0,"currency":"EUR","stock":"Цена по запросу","url":"https://bartsparts.com/products/walterscheid-zwl50kun/"},{"id":"walterscheid-zwl50w15kukbaas","name":"Walterscheid ZWL50W15KUKBAAS","nameOriginal":"ZWL50W15KUKBAAS","brand":"Walterscheid","sku":"ZWL50W15KUKBAAS","category":"tractor","visual":"red","icon":"package","price":0,"sourcePrice":0,"currency":"EUR","stock":"Цена по запросу","url":"https://bartsparts.com/products/walterscheid-zwl50w15kukbaas/"},{"id":"walterscheid-zwlkbaku","name":"Walterscheid ZWLKBAKU","nameOriginal":"ZWLKBAKU","brand":"Walterscheid","sku":"ZWLKBAKU","category":"tractor","visual":"red","icon":"package","price":0,"sourcePrice":0,"currency":"EUR","stock":"Цена по запросу","url":"https://bartsparts.com/products/walterscheid-zwlkbaku/"}]}
