{"metadata":{"brand":"IRRIFRANCE","brandSlug":"irrifrance","page":2,"pages":2,"count":1019,"chunkSize":1000,"currency":"EUR","priceMarkupPercent":20},"products":[{"id":"irrifrance-z45677","name":"IRRIFRANCE Z45677","nameOriginal":"Z45677","brand":"IRRIFRANCE","sku":"Z45677","category":"tractor","visual":"steel","icon":"package","price":0,"sourcePrice":0,"oldPrice":0,"oldSourcePrice":0,"currency":"EUR","stock":"Цена по запросу","image":"","availability":"","priceUpdatedAt":"","lastFetchedAt":"","url":"https://bartsparts.com/products/irrifrance-z45677/"},{"id":"irrifrance-z49127","name":"IRRIFRANCE Z49127","nameOriginal":"Z49127","brand":"IRRIFRANCE","sku":"Z49127","category":"tractor","visual":"steel","icon":"package","price":0,"sourcePrice":0,"oldPrice":0,"oldSourcePrice":0,"currency":"EUR","stock":"Цена по запросу","image":"","availability":"","priceUpdatedAt":"","lastFetchedAt":"","url":"https://bartsparts.com/products/irrifrance-z49127/"},{"id":"irrifrance-z50185","name":"IRRIFRANCE Z50185","nameOriginal":"Z50185","brand":"IRRIFRANCE","sku":"Z50185","category":"tractor","visual":"steel","icon":"package","price":0,"sourcePrice":0,"oldPrice":0,"oldSourcePrice":0,"currency":"EUR","stock":"Цена по запросу","image":"","availability":"","priceUpdatedAt":"","lastFetchedAt":"","url":"https://bartsparts.com/products/irrifrance-z50185/"},{"id":"irrifrance-z51082","name":"IRRIFRANCE Z51082","nameOriginal":"Z51082","brand":"IRRIFRANCE","sku":"Z51082","category":"tractor","visual":"steel","icon":"package","price":0,"sourcePrice":0,"oldPrice":0,"oldSourcePrice":0,"currency":"EUR","stock":"Цена по запросу","image":"","availability":"","priceUpdatedAt":"","lastFetchedAt":"","url":"https://bartsparts.com/products/irrifrance-z51082/"},{"id":"irrifrance-z54601","name":"IRRIFRANCE Z54601","nameOriginal":"Z54601","brand":"IRRIFRANCE","sku":"Z54601","category":"tractor","visual":"steel","icon":"package","price":0,"sourcePrice":0,"oldPrice":0,"oldSourcePrice":0,"currency":"EUR","stock":"Цена по запросу","image":"","availability":"","priceUpdatedAt":"","lastFetchedAt":"","url":"https://bartsparts.com/products/irrifrance-z54601/"},{"id":"irrifrance-z56694","name":"IRRIFRANCE Z56694","nameOriginal":"Z56694","brand":"IRRIFRANCE","sku":"Z56694","category":"tractor","visual":"steel","icon":"package","price":0,"sourcePrice":0,"oldPrice":0,"oldSourcePrice":0,"currency":"EUR","stock":"Цена по запросу","image":"","availability":"","priceUpdatedAt":"","lastFetchedAt":"","url":"https://bartsparts.com/products/irrifrance-z56694/"},{"id":"irrifrance-z59040","name":"IRRIFRANCE Z59040","nameOriginal":"Z59040","brand":"IRRIFRANCE","sku":"Z59040","category":"tractor","visual":"steel","icon":"package","price":0,"sourcePrice":0,"oldPrice":0,"oldSourcePrice":0,"currency":"EUR","stock":"Цена по запросу","image":"","availability":"","priceUpdatedAt":"","lastFetchedAt":"","url":"https://bartsparts.com/products/irrifrance-z59040/"},{"id":"irrifrance-z76543","name":"IRRIFRANCE Z76543","nameOriginal":"Z76543","brand":"IRRIFRANCE","sku":"Z76543","category":"tractor","visual":"steel","icon":"package","price":0,"sourcePrice":0,"oldPrice":0,"oldSourcePrice":0,"currency":"EUR","stock":"Цена по запросу","image":"","availability":"","priceUpdatedAt":"","lastFetchedAt":"","url":"https://bartsparts.com/products/irrifrance-z76543/"},{"id":"irrifrance-z76773","name":"IRRIFRANCE Z76773","nameOriginal":"Z76773","brand":"IRRIFRANCE","sku":"Z76773","category":"tractor","visual":"steel","icon":"package","price":0,"sourcePrice":0,"oldPrice":0,"oldSourcePrice":0,"currency":"EUR","stock":"Цена по запросу","image":"","availability":"","priceUpdatedAt":"","lastFetchedAt":"","url":"https://bartsparts.com/products/irrifrance-z76773/"},{"id":"irrifrance-z80522","name":"IRRIFRANCE Z80522","nameOriginal":"Z80522","brand":"IRRIFRANCE","sku":"Z80522","category":"tractor","visual":"steel","icon":"package","price":0,"sourcePrice":0,"oldPrice":0,"oldSourcePrice":0,"currency":"EUR","stock":"Цена по запросу","image":"","availability":"","priceUpdatedAt":"","lastFetchedAt":"","url":"https://bartsparts.com/products/irrifrance-z80522/"},{"id":"irrifrance-z80913","name":"IRRIFRANCE Z80913","nameOriginal":"Z80913","brand":"IRRIFRANCE","sku":"Z80913","category":"tractor","visual":"steel","icon":"package","price":0,"sourcePrice":0,"oldPrice":0,"oldSourcePrice":0,"currency":"EUR","stock":"Цена по запросу","image":"","availability":"","priceUpdatedAt":"","lastFetchedAt":"","url":"https://bartsparts.com/products/irrifrance-z80913/"},{"id":"irrifrance-z88296","name":"IRRIFRANCE Z88296","nameOriginal":"Z88296","brand":"IRRIFRANCE","sku":"Z88296","category":"tractor","visual":"steel","icon":"package","price":0,"sourcePrice":0,"oldPrice":0,"oldSourcePrice":0,"currency":"EUR","stock":"Цена по запросу","image":"","availability":"","priceUpdatedAt":"","lastFetchedAt":"","url":"https://bartsparts.com/products/irrifrance-z88296/"},{"id":"irrifrance-z88365","name":"IRRIFRANCE Z88365","nameOriginal":"Z88365","brand":"IRRIFRANCE","sku":"Z88365","category":"tractor","visual":"steel","icon":"package","price":0,"sourcePrice":0,"oldPrice":0,"oldSourcePrice":0,"currency":"EUR","stock":"Цена по запросу","image":"","availability":"","priceUpdatedAt":"","lastFetchedAt":"","url":"https://bartsparts.com/products/irrifrance-z88365/"},{"id":"irrifrance-z91470","name":"IRRIFRANCE Z91470","nameOriginal":"Z91470","brand":"IRRIFRANCE","sku":"Z91470","category":"tractor","visual":"steel","icon":"package","price":0,"sourcePrice":0,"oldPrice":0,"oldSourcePrice":0,"currency":"EUR","stock":"Цена по запросу","image":"","availability":"","priceUpdatedAt":"","lastFetchedAt":"","url":"https://bartsparts.com/products/irrifrance-z91470/"},{"id":"irrifrance-z96898","name":"IRRIFRANCE Z96898","nameOriginal":"Z96898","brand":"IRRIFRANCE","sku":"Z96898","category":"tractor","visual":"steel","icon":"package","price":0,"sourcePrice":0,"oldPrice":0,"oldSourcePrice":0,"currency":"EUR","stock":"Цена по запросу","image":"","availability":"","priceUpdatedAt":"","lastFetchedAt":"","url":"https://bartsparts.com/products/irrifrance-z96898/"},{"id":"irrifrance-z96944","name":"IRRIFRANCE Z96944","nameOriginal":"Z96944","brand":"IRRIFRANCE","sku":"Z96944","category":"tractor","visual":"steel","icon":"package","price":0,"sourcePrice":0,"oldPrice":0,"oldSourcePrice":0,"currency":"EUR","stock":"Цена по запросу","image":"","availability":"","priceUpdatedAt":"","lastFetchedAt":"","url":"https://bartsparts.com/products/irrifrance-z96944/"},{"id":"irrifrance-z97473","name":"IRRIFRANCE Z97473","nameOriginal":"Z97473","brand":"IRRIFRANCE","sku":"Z97473","category":"tractor","visual":"steel","icon":"package","price":0,"sourcePrice":0,"oldPrice":0,"oldSourcePrice":0,"currency":"EUR","stock":"Цена по запросу","image":"","availability":"","priceUpdatedAt":"","lastFetchedAt":"","url":"https://bartsparts.com/products/irrifrance-z97473/"},{"id":"irrifrance-z99497","name":"IRRIFRANCE Z99497","nameOriginal":"Z99497","brand":"IRRIFRANCE","sku":"Z99497","category":"tractor","visual":"steel","icon":"package","price":0,"sourcePrice":0,"oldPrice":0,"oldSourcePrice":0,"currency":"EUR","stock":"Цена по запросу","image":"","availability":"","priceUpdatedAt":"","lastFetchedAt":"","url":"https://bartsparts.com/products/irrifrance-z99497/"},{"id":"irrifrance-zeef942","name":"IRRIFRANCE ZEEF942","nameOriginal":"ZEEF942","brand":"IRRIFRANCE","sku":"ZEEF942","category":"tractor","visual":"steel","icon":"package","price":0,"sourcePrice":0,"oldPrice":0,"oldSourcePrice":0,"currency":"EUR","stock":"Цена по запросу","image":"","availability":"","priceUpdatedAt":"","lastFetchedAt":"","url":"https://bartsparts.com/products/irrifrance-zeef942/"}]}
