{"metadata":{"brand":"Maschio Gaspardo","brandSlug":"maschio-gaspardo","page":6,"pages":6,"count":5034,"chunkSize":1000,"currency":"EUR","priceMarkupPercent":20},"products":[{"id":"maschio-gaspardo-ua7000309r","name":"Maschio Gaspardo UA7000309R","nameOriginal":"UA7000309R","brand":"Maschio Gaspardo","sku":"UA7000309R","category":"tractor","visual":"blue","icon":"package","price":0,"sourcePrice":0,"oldPrice":0,"oldSourcePrice":0,"currency":"EUR","stock":"Цена по запросу","image":"","availability":"","priceUpdatedAt":"","lastFetchedAt":"","url":"https://bartsparts.com/products/maschio-gaspardo-ua7000309r/"},{"id":"maschio-gaspardo-ua7000312r","name":"Maschio Gaspardo UA7000312R","nameOriginal":"UA7000312R","brand":"Maschio Gaspardo","sku":"UA7000312R","category":"tractor","visual":"blue","icon":"package","price":0,"sourcePrice":0,"oldPrice":0,"oldSourcePrice":0,"currency":"EUR","stock":"Цена по запросу","image":"","availability":"","priceUpdatedAt":"","lastFetchedAt":"","url":"https://bartsparts.com/products/maschio-gaspardo-ua7000312r/"},{"id":"maschio-gaspardo-ua7000323r","name":"Maschio Gaspardo UA7000323R","nameOriginal":"UA7000323R","brand":"Maschio Gaspardo","sku":"UA7000323R","category":"tractor","visual":"blue","icon":"package","price":0,"sourcePrice":0,"oldPrice":0,"oldSourcePrice":0,"currency":"EUR","stock":"Цена по запросу","image":"","availability":"","priceUpdatedAt":"","lastFetchedAt":"","url":"https://bartsparts.com/products/maschio-gaspardo-ua7000323r/"},{"id":"maschio-gaspardo-ua7000366r","name":"Maschio Gaspardo UA7000366R","nameOriginal":"UA7000366R","brand":"Maschio Gaspardo","sku":"UA7000366R","category":"tractor","visual":"blue","icon":"package","price":0,"sourcePrice":0,"oldPrice":0,"oldSourcePrice":0,"currency":"EUR","stock":"Цена по запросу","image":"","availability":"","priceUpdatedAt":"","lastFetchedAt":"","url":"https://bartsparts.com/products/maschio-gaspardo-ua7000366r/"},{"id":"maschio-gaspardo-ua7000376r","name":"Maschio Gaspardo UA7000376R","nameOriginal":"UA7000376R","brand":"Maschio Gaspardo","sku":"UA7000376R","category":"tractor","visual":"blue","icon":"package","price":0,"sourcePrice":0,"oldPrice":0,"oldSourcePrice":0,"currency":"EUR","stock":"Цена по запросу","image":"","availability":"","priceUpdatedAt":"","lastFetchedAt":"","url":"https://bartsparts.com/products/maschio-gaspardo-ua7000376r/"},{"id":"maschio-gaspardo-ua7000377r","name":"Maschio Gaspardo UA7000377R","nameOriginal":"UA7000377R","brand":"Maschio Gaspardo","sku":"UA7000377R","category":"tractor","visual":"blue","icon":"package","price":0,"sourcePrice":0,"oldPrice":0,"oldSourcePrice":0,"currency":"EUR","stock":"Цена по запросу","image":"","availability":"","priceUpdatedAt":"","lastFetchedAt":"","url":"https://bartsparts.com/products/maschio-gaspardo-ua7000377r/"},{"id":"maschio-gaspardo-ua7000382r","name":"Maschio Gaspardo UA7000382R","nameOriginal":"UA7000382R","brand":"Maschio Gaspardo","sku":"UA7000382R","category":"tractor","visual":"blue","icon":"package","price":0,"sourcePrice":0,"oldPrice":0,"oldSourcePrice":0,"currency":"EUR","stock":"Цена по запросу","image":"","availability":"","priceUpdatedAt":"","lastFetchedAt":"","url":"https://bartsparts.com/products/maschio-gaspardo-ua7000382r/"},{"id":"maschio-gaspardo-ua7000441r","name":"Maschio Gaspardo UA7000441R","nameOriginal":"UA7000441R","brand":"Maschio Gaspardo","sku":"UA7000441R","category":"tractor","visual":"blue","icon":"package","price":0,"sourcePrice":0,"oldPrice":0,"oldSourcePrice":0,"currency":"EUR","stock":"Цена по запросу","image":"","availability":"","priceUpdatedAt":"","lastFetchedAt":"","url":"https://bartsparts.com/products/maschio-gaspardo-ua7000441r/"},{"id":"maschio-gaspardo-ua7000624r","name":"Maschio Gaspardo UA7000624R","nameOriginal":"UA7000624R","brand":"Maschio Gaspardo","sku":"UA7000624R","category":"tractor","visual":"blue","icon":"package","price":0,"sourcePrice":0,"oldPrice":0,"oldSourcePrice":0,"currency":"EUR","stock":"Цена по запросу","image":"","availability":"","priceUpdatedAt":"","lastFetchedAt":"","url":"https://bartsparts.com/products/maschio-gaspardo-ua7000624r/"},{"id":"maschio-gaspardo-ua7000690r","name":"Maschio Gaspardo UA7000690R","nameOriginal":"UA7000690R","brand":"Maschio Gaspardo","sku":"UA7000690R","category":"tractor","visual":"blue","icon":"package","price":0,"sourcePrice":0,"oldPrice":0,"oldSourcePrice":0,"currency":"EUR","stock":"Цена по запросу","image":"","availability":"","priceUpdatedAt":"","lastFetchedAt":"","url":"https://bartsparts.com/products/maschio-gaspardo-ua7000690r/"},{"id":"maschio-gaspardo-ur00000000037","name":"Maschio Gaspardo UR00000000037","nameOriginal":"UR00000000037","brand":"Maschio Gaspardo","sku":"UR00000000037","category":"tractor","visual":"blue","icon":"package","price":0,"sourcePrice":0,"oldPrice":0,"oldSourcePrice":0,"currency":"EUR","stock":"Цена по запросу","image":"","availability":"","priceUpdatedAt":"","lastFetchedAt":"","url":"https://bartsparts.com/products/maschio-gaspardo-ur00000000037/"},{"id":"maschio-gaspardo-ur00000000087","name":"Maschio Gaspardo UR00000000087","nameOriginal":"UR00000000087","brand":"Maschio Gaspardo","sku":"UR00000000087","category":"tractor","visual":"blue","icon":"package","price":0,"sourcePrice":0,"oldPrice":0,"oldSourcePrice":0,"currency":"EUR","stock":"Цена по запросу","image":"","availability":"","priceUpdatedAt":"","lastFetchedAt":"","url":"https://bartsparts.com/products/maschio-gaspardo-ur00000000087/"},{"id":"maschio-gaspardo-usp000015r","name":"Maschio Gaspardo USP000015R","nameOriginal":"USP000015R","brand":"Maschio Gaspardo","sku":"USP000015R","category":"tractor","visual":"blue","icon":"package","price":0,"sourcePrice":0,"oldPrice":0,"oldSourcePrice":0,"currency":"EUR","stock":"Цена по запросу","image":"","availability":"","priceUpdatedAt":"","lastFetchedAt":"","url":"https://bartsparts.com/products/maschio-gaspardo-usp000015r/"},{"id":"maschio-gaspardo-usp000276r","name":"Maschio Gaspardo USP000276R","nameOriginal":"USP000276R","brand":"Maschio Gaspardo","sku":"USP000276R","category":"tractor","visual":"blue","icon":"package","price":0,"sourcePrice":0,"oldPrice":0,"oldSourcePrice":0,"currency":"EUR","stock":"Цена по запросу","image":"","availability":"","priceUpdatedAt":"","lastFetchedAt":"","url":"https://bartsparts.com/products/maschio-gaspardo-usp000276r/"},{"id":"maschio-gaspardo-usp000281r","name":"Maschio Gaspardo USP000281R","nameOriginal":"USP000281R","brand":"Maschio Gaspardo","sku":"USP000281R","category":"tractor","visual":"blue","icon":"package","price":0,"sourcePrice":0,"oldPrice":0,"oldSourcePrice":0,"currency":"EUR","stock":"Цена по запросу","image":"","availability":"","priceUpdatedAt":"","lastFetchedAt":"","url":"https://bartsparts.com/products/maschio-gaspardo-usp000281r/"},{"id":"maschio-gaspardo-usp000312","name":"Maschio Gaspardo USP000312","nameOriginal":"USP000312","brand":"Maschio Gaspardo","sku":"USP000312","category":"tractor","visual":"blue","icon":"package","price":0,"sourcePrice":0,"oldPrice":0,"oldSourcePrice":0,"currency":"EUR","stock":"Цена по запросу","image":"","availability":"","priceUpdatedAt":"","lastFetchedAt":"","url":"https://bartsparts.com/products/maschio-gaspardo-usp000312/"},{"id":"maschio-gaspardo-usp000356r","name":"Maschio Gaspardo USP000356R","nameOriginal":"USP000356R","brand":"Maschio Gaspardo","sku":"USP000356R","category":"tractor","visual":"blue","icon":"package","price":0,"sourcePrice":0,"oldPrice":0,"oldSourcePrice":0,"currency":"EUR","stock":"Цена по запросу","image":"","availability":"","priceUpdatedAt":"","lastFetchedAt":"","url":"https://bartsparts.com/products/maschio-gaspardo-usp000356r/"},{"id":"maschio-gaspardo-usp000532r","name":"Maschio Gaspardo USP000532R","nameOriginal":"USP000532R","brand":"Maschio Gaspardo","sku":"USP000532R","category":"tractor","visual":"blue","icon":"package","price":0,"sourcePrice":0,"oldPrice":0,"oldSourcePrice":0,"currency":"EUR","stock":"Цена по запросу","image":"","availability":"","priceUpdatedAt":"","lastFetchedAt":"","url":"https://bartsparts.com/products/maschio-gaspardo-usp000532r/"},{"id":"maschio-gaspardo-usp000537r","name":"Maschio Gaspardo USP000537R","nameOriginal":"USP000537R","brand":"Maschio Gaspardo","sku":"USP000537R","category":"tractor","visual":"blue","icon":"package","price":0,"sourcePrice":0,"oldPrice":0,"oldSourcePrice":0,"currency":"EUR","stock":"Цена по запросу","image":"","availability":"","priceUpdatedAt":"","lastFetchedAt":"","url":"https://bartsparts.com/products/maschio-gaspardo-usp000537r/"},{"id":"maschio-gaspardo-usp000567r","name":"Maschio Gaspardo USP000567R","nameOriginal":"USP000567R","brand":"Maschio Gaspardo","sku":"USP000567R","category":"tractor","visual":"blue","icon":"package","price":0,"sourcePrice":0,"oldPrice":0,"oldSourcePrice":0,"currency":"EUR","stock":"Цена по запросу","image":"","availability":"","priceUpdatedAt":"","lastFetchedAt":"","url":"https://bartsparts.com/products/maschio-gaspardo-usp000567r/"},{"id":"maschio-gaspardo-usp000822r","name":"Maschio Gaspardo USP000822R","nameOriginal":"USP000822R","brand":"Maschio Gaspardo","sku":"USP000822R","category":"tractor","visual":"blue","icon":"package","price":0,"sourcePrice":0,"oldPrice":0,"oldSourcePrice":0,"currency":"EUR","stock":"Цена по запросу","image":"","availability":"","priceUpdatedAt":"","lastFetchedAt":"","url":"https://bartsparts.com/products/maschio-gaspardo-usp000822r/"},{"id":"maschio-gaspardo-usp000875","name":"Maschio Gaspardo USP000875","nameOriginal":"USP000875","brand":"Maschio Gaspardo","sku":"USP000875","category":"tractor","visual":"blue","icon":"package","price":0,"sourcePrice":0,"oldPrice":0,"oldSourcePrice":0,"currency":"EUR","stock":"Цена по запросу","image":"","availability":"","priceUpdatedAt":"","lastFetchedAt":"","url":"https://bartsparts.com/products/maschio-gaspardo-usp000875/"},{"id":"maschio-gaspardo-usp001559r","name":"Maschio Gaspardo USP001559R","nameOriginal":"USP001559R","brand":"Maschio Gaspardo","sku":"USP001559R","category":"tractor","visual":"blue","icon":"package","price":0,"sourcePrice":0,"oldPrice":0,"oldSourcePrice":0,"currency":"EUR","stock":"Цена по запросу","image":"","availability":"","priceUpdatedAt":"","lastFetchedAt":"","url":"https://bartsparts.com/products/maschio-gaspardo-usp001559r/"},{"id":"maschio-gaspardo-vb172360","name":"Maschio Gaspardo VB172360","nameOriginal":"VB172360","brand":"Maschio Gaspardo","sku":"VB172360","category":"tractor","visual":"blue","icon":"package","price":0,"sourcePrice":0,"oldPrice":0,"oldSourcePrice":0,"currency":"EUR","stock":"Цена по запросу","image":"","availability":"","priceUpdatedAt":"","lastFetchedAt":"","url":"https://bartsparts.com/products/maschio-gaspardo-vb172360/"},{"id":"maschio-gaspardo-w00000019r","name":"Maschio Gaspardo W00000019R","nameOriginal":"W00000019R","brand":"Maschio Gaspardo","sku":"W00000019R","category":"tractor","visual":"blue","icon":"package","price":0,"sourcePrice":0,"oldPrice":0,"oldSourcePrice":0,"currency":"EUR","stock":"Цена по запросу","image":"","availability":"","priceUpdatedAt":"","lastFetchedAt":"","url":"https://bartsparts.com/products/maschio-gaspardo-w00000019r/"},{"id":"maschio-gaspardo-w00000020r","name":"Maschio Gaspardo W00000020R","nameOriginal":"W00000020R","brand":"Maschio Gaspardo","sku":"W00000020R","category":"tractor","visual":"blue","icon":"package","price":0,"sourcePrice":0,"oldPrice":0,"oldSourcePrice":0,"currency":"EUR","stock":"Цена по запросу","image":"","availability":"","priceUpdatedAt":"","lastFetchedAt":"","url":"https://bartsparts.com/products/maschio-gaspardo-w00000020r/"},{"id":"maschio-gaspardo-w00000021r","name":"Maschio Gaspardo W00000021R","nameOriginal":"W00000021R","brand":"Maschio Gaspardo","sku":"W00000021R","category":"tractor","visual":"blue","icon":"package","price":0,"sourcePrice":0,"oldPrice":0,"oldSourcePrice":0,"currency":"EUR","stock":"Цена по запросу","image":"","availability":"","priceUpdatedAt":"","lastFetchedAt":"","url":"https://bartsparts.com/products/maschio-gaspardo-w00000021r/"},{"id":"maschio-gaspardo-w00000049r","name":"Maschio Gaspardo W00000049R","nameOriginal":"W00000049R","brand":"Maschio Gaspardo","sku":"W00000049R","category":"tractor","visual":"blue","icon":"package","price":0,"sourcePrice":0,"oldPrice":0,"oldSourcePrice":0,"currency":"EUR","stock":"Цена по запросу","image":"","availability":"","priceUpdatedAt":"","lastFetchedAt":"","url":"https://bartsparts.com/products/maschio-gaspardo-w00000049r/"},{"id":"maschio-gaspardo-w00000141r","name":"Maschio Gaspardo W00000141R","nameOriginal":"W00000141R","brand":"Maschio Gaspardo","sku":"W00000141R","category":"tractor","visual":"blue","icon":"package","price":0,"sourcePrice":0,"oldPrice":0,"oldSourcePrice":0,"currency":"EUR","stock":"Цена по запросу","image":"","availability":"","priceUpdatedAt":"","lastFetchedAt":"","url":"https://bartsparts.com/products/maschio-gaspardo-w00000141r/"},{"id":"maschio-gaspardo-w00000167r","name":"Maschio Gaspardo W00000167R","nameOriginal":"W00000167R","brand":"Maschio Gaspardo","sku":"W00000167R","category":"tractor","visual":"blue","icon":"package","price":0,"sourcePrice":0,"oldPrice":0,"oldSourcePrice":0,"currency":"EUR","stock":"Цена по запросу","image":"","availability":"","priceUpdatedAt":"","lastFetchedAt":"","url":"https://bartsparts.com/products/maschio-gaspardo-w00000167r/"},{"id":"maschio-gaspardo-w70300283r","name":"Maschio Gaspardo W70300283R","nameOriginal":"W70300283R","brand":"Maschio Gaspardo","sku":"W70300283R","category":"tractor","visual":"blue","icon":"package","price":0,"sourcePrice":0,"oldPrice":0,"oldSourcePrice":0,"currency":"EUR","stock":"Цена по запросу","image":"","availability":"","priceUpdatedAt":"","lastFetchedAt":"","url":"https://bartsparts.com/products/maschio-gaspardo-w70300283r/"},{"id":"maschio-gaspardo-w73430309r","name":"Maschio Gaspardo W73430309R","nameOriginal":"W73430309R","brand":"Maschio Gaspardo","sku":"W73430309R","category":"tractor","visual":"blue","icon":"package","price":0,"sourcePrice":0,"oldPrice":0,"oldSourcePrice":0,"currency":"EUR","stock":"Цена по запросу","image":"","availability":"","priceUpdatedAt":"","lastFetchedAt":"","url":"https://bartsparts.com/products/maschio-gaspardo-w73430309r/"},{"id":"maschio-gaspardo-z17820681","name":"Maschio Gaspardo Z17820681","nameOriginal":"Z17820681","brand":"Maschio Gaspardo","sku":"Z17820681","category":"tractor","visual":"blue","icon":"package","price":0,"sourcePrice":0,"oldPrice":0,"oldSourcePrice":0,"currency":"EUR","stock":"Цена по запросу","image":"","availability":"","priceUpdatedAt":"","lastFetchedAt":"","url":"https://bartsparts.com/products/maschio-gaspardo-z17820681/"},{"id":"maschio-gaspardo-zr17622341r","name":"Maschio Gaspardo ZR17622341R","nameOriginal":"ZR17622341R","brand":"Maschio Gaspardo","sku":"ZR17622341R","category":"tractor","visual":"blue","icon":"package","price":0,"sourcePrice":0,"oldPrice":0,"oldSourcePrice":0,"currency":"EUR","stock":"Цена по запросу","image":"","availability":"","priceUpdatedAt":"","lastFetchedAt":"","url":"https://bartsparts.com/products/maschio-gaspardo-zr17622341r/"}]}
