{"metadata":{"brand":"Case IH","brandSlug":"case-ih","page":111,"pages":111,"count":110004,"chunkSize":1000,"currency":"EUR","priceMarkupPercent":20},"products":[{"id":"case-ih-ztntc80010000","name":"SPRZĘGŁO PNEUMATYCZNE","nameOriginal":"SPRZĘGŁO PNEUMATYCZNE","brand":"Case IH","sku":"ZTNTC80010000","category":"tractor","visual":"red","icon":"package","price":497.39,"sourcePrice":414.49,"oldPrice":0,"oldSourcePrice":0,"currency":"EUR","stock":"Цена обновлена","image":"https://store-77uyis7lbs.mybigcommerce.com/content/images/brands/case-ih.png","availability":"in_stock","priceUpdatedAt":"2026-05-19T06:11:30.359Z","lastFetchedAt":"2026-05-19T06:11:30.359Z","url":"https://bartsparts.com/products/case-ih-ztntc80010000/"},{"id":"case-ih-zw16h12000","name":"Washer","nameOriginal":"Washer","brand":"Case IH","sku":"ZW16H12000","category":"tractor","visual":"red","icon":"package","price":3,"sourcePrice":2.5,"oldPrice":0,"oldSourcePrice":0,"currency":"EUR","stock":"Цена обновлена","image":"https://store-77uyis7lbs.mybigcommerce.com/content/images/brands/case-ih.png","availability":"in_stock","priceUpdatedAt":"2026-05-19T06:11:30.359Z","lastFetchedAt":"2026-05-19T06:11:30.359Z","url":"https://bartsparts.com/products/case-ih-zw16h12000/"},{"id":"case-ih-zx56n08084","name":"TUBO FLESSIBILE","nameOriginal":"TUBO FLESSIBILE","brand":"Case IH","sku":"ZX56N08084","category":"tractor","visual":"red","icon":"package","price":109.81,"sourcePrice":91.51,"oldPrice":0,"oldSourcePrice":0,"currency":"EUR","stock":"Цена обновлена","image":"https://store-77uyis7lbs.mybigcommerce.com/content/images/brands/case-ih.png","availability":"in_stock","priceUpdatedAt":"2026-05-19T06:11:30.359Z","lastFetchedAt":"2026-05-19T06:11:30.359Z","url":"https://bartsparts.com/products/case-ih-zx56n08084/"},{"id":"case-ih-10329","name":"Case IH Α10329","nameOriginal":"Α10329","brand":"Case IH","sku":"Α10329","category":"tractor","visual":"red","icon":"package","price":0,"sourcePrice":0,"oldPrice":0,"oldSourcePrice":0,"currency":"EUR","stock":"Цена по запросу","image":"","availability":"","priceUpdatedAt":"2026-05-19T06:11:30.359Z","lastFetchedAt":"2026-05-19T06:11:30.359Z","url":"https://bartsparts.com/products/case-ih-%CE%B110329/"}]}
