{"metadata":{"brand":"Mustang","brandSlug":"mustang","page":2,"pages":2,"count":1061,"chunkSize":1000,"currency":"EUR","priceMarkupPercent":20},"products":[{"id":"mustang-l99932","name":"Mustang L99932","nameOriginal":"L99932","brand":"Mustang","sku":"L99932","category":"tractor","visual":"amber","icon":"package","price":0,"sourcePrice":0,"oldPrice":0,"oldSourcePrice":0,"currency":"EUR","stock":"Цена по запросу","image":"","availability":"","priceUpdatedAt":"","lastFetchedAt":"","url":"https://bartsparts.com/products/mustang-l99932/"},{"id":"mustang-lm1k06c10920","name":"Mustang LM1K06C10920","nameOriginal":"LM1K06C10920","brand":"Mustang","sku":"LM1K06C10920","category":"tractor","visual":"amber","icon":"package","price":0,"sourcePrice":0,"oldPrice":0,"oldSourcePrice":0,"currency":"EUR","stock":"Цена по запросу","image":"","availability":"","priceUpdatedAt":"","lastFetchedAt":"","url":"https://bartsparts.com/products/mustang-lm1k06c10920/"},{"id":"mustang-lm1k06w10920","name":"Mustang LM1K06W10920","nameOriginal":"LM1K06W10920","brand":"Mustang","sku":"LM1K06W10920","category":"tractor","visual":"amber","icon":"package","price":0,"sourcePrice":0,"oldPrice":0,"oldSourcePrice":0,"currency":"EUR","stock":"Цена по запросу","image":"","availability":"","priceUpdatedAt":"","lastFetchedAt":"","url":"https://bartsparts.com/products/mustang-lm1k06w10920/"},{"id":"mustang-lm1l06c21500","name":"Mustang LM1L06C21500","nameOriginal":"LM1L06C21500","brand":"Mustang","sku":"LM1L06C21500","category":"tractor","visual":"amber","icon":"package","price":0,"sourcePrice":0,"oldPrice":0,"oldSourcePrice":0,"currency":"EUR","stock":"Цена по запросу","image":"","availability":"","priceUpdatedAt":"","lastFetchedAt":"","url":"https://bartsparts.com/products/mustang-lm1l06c21500/"},{"id":"mustang-mos35x58x75sc","name":"Mustang MOS35X58X75SC","nameOriginal":"MOS35X58X75SC","brand":"Mustang","sku":"MOS35X58X75SC","category":"tractor","visual":"amber","icon":"package","price":0,"sourcePrice":0,"oldPrice":0,"oldSourcePrice":0,"currency":"EUR","stock":"Цена по запросу","image":"","availability":"","priceUpdatedAt":"","lastFetchedAt":"","url":"https://bartsparts.com/products/mustang-mos35x58x75sc/"},{"id":"mustang-mustanggehlgeel","name":"Mustang MUSTANGGEHLGEEL","nameOriginal":"MUSTANGGEHLGEEL","brand":"Mustang","sku":"MUSTANGGEHLGEEL","category":"tractor","visual":"amber","icon":"package","price":0,"sourcePrice":0,"oldPrice":0,"oldSourcePrice":0,"currency":"EUR","stock":"Цена по запросу","image":"","availability":"","priceUpdatedAt":"","lastFetchedAt":"","url":"https://bartsparts.com/products/mustang-mustanggehlgeel/"},{"id":"mustang-n01032387","name":"Mustang N01032387","nameOriginal":"N01032387","brand":"Mustang","sku":"N01032387","category":"tractor","visual":"amber","icon":"package","price":0,"sourcePrice":0,"oldPrice":0,"oldSourcePrice":0,"currency":"EUR","stock":"Цена по запросу","image":"","availability":"","priceUpdatedAt":"","lastFetchedAt":"","url":"https://bartsparts.com/products/mustang-n01032387/"},{"id":"mustang-n01032441","name":"Mustang N01032441","nameOriginal":"N01032441","brand":"Mustang","sku":"N01032441","category":"tractor","visual":"amber","icon":"package","price":0,"sourcePrice":0,"oldPrice":0,"oldSourcePrice":0,"currency":"EUR","stock":"Цена по запросу","image":"","availability":"","priceUpdatedAt":"","lastFetchedAt":"","url":"https://bartsparts.com/products/mustang-n01032441/"},{"id":"mustang-n03031948","name":"Mustang N03031948","nameOriginal":"N03031948","brand":"Mustang","sku":"N03031948","category":"tractor","visual":"amber","icon":"package","price":0,"sourcePrice":0,"oldPrice":0,"oldSourcePrice":0,"currency":"EUR","stock":"Цена по запросу","image":"","availability":"","priceUpdatedAt":"","lastFetchedAt":"","url":"https://bartsparts.com/products/mustang-n03031948/"},{"id":"mustang-n04515773","name":"Mustang N04515773","nameOriginal":"N04515773","brand":"Mustang","sku":"N04515773","category":"tractor","visual":"amber","icon":"package","price":0,"sourcePrice":0,"oldPrice":0,"oldSourcePrice":0,"currency":"EUR","stock":"Цена по запросу","image":"","availability":"","priceUpdatedAt":"","lastFetchedAt":"","url":"https://bartsparts.com/products/mustang-n04515773/"},{"id":"mustang-n04531470","name":"Mustang N04531470","nameOriginal":"N04531470","brand":"Mustang","sku":"N04531470","category":"tractor","visual":"amber","icon":"package","price":0,"sourcePrice":0,"oldPrice":0,"oldSourcePrice":0,"currency":"EUR","stock":"Цена по запросу","image":"","availability":"","priceUpdatedAt":"","lastFetchedAt":"","url":"https://bartsparts.com/products/mustang-n04531470/"},{"id":"mustang-n04531488","name":"Mustang N04531488","nameOriginal":"N04531488","brand":"Mustang","sku":"N04531488","category":"tractor","visual":"amber","icon":"package","price":0,"sourcePrice":0,"oldPrice":0,"oldSourcePrice":0,"currency":"EUR","stock":"Цена по запросу","image":"","availability":"","priceUpdatedAt":"","lastFetchedAt":"","url":"https://bartsparts.com/products/mustang-n04531488/"},{"id":"mustang-n04531497","name":"Mustang N04531497","nameOriginal":"N04531497","brand":"Mustang","sku":"N04531497","category":"tractor","visual":"amber","icon":"package","price":0,"sourcePrice":0,"oldPrice":0,"oldSourcePrice":0,"currency":"EUR","stock":"Цена по запросу","image":"","availability":"","priceUpdatedAt":"","lastFetchedAt":"","url":"https://bartsparts.com/products/mustang-n04531497/"},{"id":"mustang-n055898","name":"Mustang N055898","nameOriginal":"N055898","brand":"Mustang","sku":"N055898","category":"tractor","visual":"amber","icon":"package","price":0,"sourcePrice":0,"oldPrice":0,"oldSourcePrice":0,"currency":"EUR","stock":"Цена по запросу","image":"","availability":"","priceUpdatedAt":"","lastFetchedAt":"","url":"https://bartsparts.com/products/mustang-n055898/"},{"id":"mustang-n09032443","name":"Mustang N09032443","nameOriginal":"N09032443","brand":"Mustang","sku":"N09032443","category":"tractor","visual":"amber","icon":"package","price":0,"sourcePrice":0,"oldPrice":0,"oldSourcePrice":0,"currency":"EUR","stock":"Цена по запросу","image":"","availability":"","priceUpdatedAt":"","lastFetchedAt":"","url":"https://bartsparts.com/products/mustang-n09032443/"},{"id":"mustang-n138763","name":"Mustang N138763","nameOriginal":"N138763","brand":"Mustang","sku":"N138763","category":"tractor","visual":"amber","icon":"package","price":0,"sourcePrice":0,"oldPrice":0,"oldSourcePrice":0,"currency":"EUR","stock":"Цена по запросу","image":"","availability":"","priceUpdatedAt":"","lastFetchedAt":"","url":"https://bartsparts.com/products/mustang-n138763/"},{"id":"mustang-n17033872","name":"Mustang N17033872","nameOriginal":"N17033872","brand":"Mustang","sku":"N17033872","category":"tractor","visual":"amber","icon":"package","price":0,"sourcePrice":0,"oldPrice":0,"oldSourcePrice":0,"currency":"EUR","stock":"Цена по запросу","image":"","availability":"","priceUpdatedAt":"","lastFetchedAt":"","url":"https://bartsparts.com/products/mustang-n17033872/"},{"id":"mustang-n17033878","name":"Mustang N17033878","nameOriginal":"N17033878","brand":"Mustang","sku":"N17033878","category":"tractor","visual":"amber","icon":"package","price":0,"sourcePrice":0,"oldPrice":0,"oldSourcePrice":0,"currency":"EUR","stock":"Цена по запросу","image":"","availability":"","priceUpdatedAt":"","lastFetchedAt":"","url":"https://bartsparts.com/products/mustang-n17033878/"},{"id":"mustang-n17035004","name":"Mustang N17035004","nameOriginal":"N17035004","brand":"Mustang","sku":"N17035004","category":"tractor","visual":"amber","icon":"package","price":0,"sourcePrice":0,"oldPrice":0,"oldSourcePrice":0,"currency":"EUR","stock":"Цена по запросу","image":"","availability":"","priceUpdatedAt":"","lastFetchedAt":"","url":"https://bartsparts.com/products/mustang-n17035004/"},{"id":"mustang-n17035109","name":"Mustang N17035109","nameOriginal":"N17035109","brand":"Mustang","sku":"N17035109","category":"tractor","visual":"amber","icon":"package","price":0,"sourcePrice":0,"oldPrice":0,"oldSourcePrice":0,"currency":"EUR","stock":"Цена по запросу","image":"","availability":"","priceUpdatedAt":"","lastFetchedAt":"","url":"https://bartsparts.com/products/mustang-n17035109/"},{"id":"mustang-n174984","name":"Mustang N174984","nameOriginal":"N174984","brand":"Mustang","sku":"N174984","category":"tractor","visual":"amber","icon":"package","price":0,"sourcePrice":0,"oldPrice":0,"oldSourcePrice":0,"currency":"EUR","stock":"Цена по запросу","image":"","availability":"","priceUpdatedAt":"","lastFetchedAt":"","url":"https://bartsparts.com/products/mustang-n174984/"},{"id":"mustang-n176623","name":"Mustang N176623","nameOriginal":"N176623","brand":"Mustang","sku":"N176623","category":"tractor","visual":"amber","icon":"package","price":0,"sourcePrice":0,"oldPrice":0,"oldSourcePrice":0,"currency":"EUR","stock":"Цена по запросу","image":"","availability":"","priceUpdatedAt":"","lastFetchedAt":"","url":"https://bartsparts.com/products/mustang-n176623/"},{"id":"mustang-n176702","name":"Mustang N176702","nameOriginal":"N176702","brand":"Mustang","sku":"N176702","category":"tractor","visual":"amber","icon":"package","price":0,"sourcePrice":0,"oldPrice":0,"oldSourcePrice":0,"currency":"EUR","stock":"Цена по запросу","image":"","availability":"","priceUpdatedAt":"","lastFetchedAt":"","url":"https://bartsparts.com/products/mustang-n176702/"},{"id":"mustang-n186215","name":"Mustang N186215","nameOriginal":"N186215","brand":"Mustang","sku":"N186215","category":"tractor","visual":"amber","icon":"package","price":0,"sourcePrice":0,"oldPrice":0,"oldSourcePrice":0,"currency":"EUR","stock":"Цена по запросу","image":"","availability":"","priceUpdatedAt":"","lastFetchedAt":"","url":"https://bartsparts.com/products/mustang-n186215/"},{"id":"mustang-n186931","name":"Mustang N186931","nameOriginal":"N186931","brand":"Mustang","sku":"N186931","category":"tractor","visual":"amber","icon":"package","price":0,"sourcePrice":0,"oldPrice":0,"oldSourcePrice":0,"currency":"EUR","stock":"Цена по запросу","image":"","availability":"","priceUpdatedAt":"","lastFetchedAt":"","url":"https://bartsparts.com/products/mustang-n186931/"},{"id":"mustang-n186933","name":"Mustang N186933","nameOriginal":"N186933","brand":"Mustang","sku":"N186933","category":"tractor","visual":"amber","icon":"package","price":0,"sourcePrice":0,"oldPrice":0,"oldSourcePrice":0,"currency":"EUR","stock":"Цена по запросу","image":"","availability":"","priceUpdatedAt":"","lastFetchedAt":"","url":"https://bartsparts.com/products/mustang-n186933/"},{"id":"mustang-n187619","name":"Mustang N187619","nameOriginal":"N187619","brand":"Mustang","sku":"N187619","category":"tractor","visual":"amber","icon":"package","price":0,"sourcePrice":0,"oldPrice":0,"oldSourcePrice":0,"currency":"EUR","stock":"Цена по запросу","image":"","availability":"","priceUpdatedAt":"","lastFetchedAt":"","url":"https://bartsparts.com/products/mustang-n187619/"},{"id":"mustang-n188862","name":"Mustang N188862","nameOriginal":"N188862","brand":"Mustang","sku":"N188862","category":"tractor","visual":"amber","icon":"package","price":0,"sourcePrice":0,"oldPrice":0,"oldSourcePrice":0,"currency":"EUR","stock":"Цена по запросу","image":"","availability":"","priceUpdatedAt":"","lastFetchedAt":"","url":"https://bartsparts.com/products/mustang-n188862/"},{"id":"mustang-n191027","name":"Mustang N191027","nameOriginal":"N191027","brand":"Mustang","sku":"N191027","category":"tractor","visual":"amber","icon":"package","price":0,"sourcePrice":0,"oldPrice":0,"oldSourcePrice":0,"currency":"EUR","stock":"Цена по запросу","image":"","availability":"","priceUpdatedAt":"","lastFetchedAt":"","url":"https://bartsparts.com/products/mustang-n191027/"},{"id":"mustang-n200048","name":"Mustang N200048","nameOriginal":"N200048","brand":"Mustang","sku":"N200048","category":"tractor","visual":"amber","icon":"package","price":0,"sourcePrice":0,"oldPrice":0,"oldSourcePrice":0,"currency":"EUR","stock":"Цена по запросу","image":"","availability":"","priceUpdatedAt":"","lastFetchedAt":"","url":"https://bartsparts.com/products/mustang-n200048/"},{"id":"mustang-n203627","name":"Mustang N203627","nameOriginal":"N203627","brand":"Mustang","sku":"N203627","category":"tractor","visual":"amber","icon":"package","price":0,"sourcePrice":0,"oldPrice":0,"oldSourcePrice":0,"currency":"EUR","stock":"Цена по запросу","image":"","availability":"","priceUpdatedAt":"","lastFetchedAt":"","url":"https://bartsparts.com/products/mustang-n203627/"},{"id":"mustang-n22032576","name":"Mustang N22032576","nameOriginal":"N22032576","brand":"Mustang","sku":"N22032576","category":"tractor","visual":"amber","icon":"package","price":0,"sourcePrice":0,"oldPrice":0,"oldSourcePrice":0,"currency":"EUR","stock":"Цена по запросу","image":"","availability":"","priceUpdatedAt":"","lastFetchedAt":"","url":"https://bartsparts.com/products/mustang-n22032576/"},{"id":"mustang-n270006","name":"Mustang N270006","nameOriginal":"N270006","brand":"Mustang","sku":"N270006","category":"tractor","visual":"amber","icon":"package","price":0,"sourcePrice":0,"oldPrice":0,"oldSourcePrice":0,"currency":"EUR","stock":"Цена по запросу","image":"","availability":"","priceUpdatedAt":"","lastFetchedAt":"","url":"https://bartsparts.com/products/mustang-n270006/"},{"id":"mustang-n270007","name":"Mustang N270007","nameOriginal":"N270007","brand":"Mustang","sku":"N270007","category":"tractor","visual":"amber","icon":"package","price":0,"sourcePrice":0,"oldPrice":0,"oldSourcePrice":0,"currency":"EUR","stock":"Цена по запросу","image":"","availability":"","priceUpdatedAt":"","lastFetchedAt":"","url":"https://bartsparts.com/products/mustang-n270007/"},{"id":"mustang-n270010","name":"Mustang N270010","nameOriginal":"N270010","brand":"Mustang","sku":"N270010","category":"tractor","visual":"amber","icon":"package","price":0,"sourcePrice":0,"oldPrice":0,"oldSourcePrice":0,"currency":"EUR","stock":"Цена по запросу","image":"","availability":"","priceUpdatedAt":"","lastFetchedAt":"","url":"https://bartsparts.com/products/mustang-n270010/"},{"id":"mustang-n270168","name":"Mustang N270168","nameOriginal":"N270168","brand":"Mustang","sku":"N270168","category":"tractor","visual":"amber","icon":"package","price":0,"sourcePrice":0,"oldPrice":0,"oldSourcePrice":0,"currency":"EUR","stock":"Цена по запросу","image":"","availability":"","priceUpdatedAt":"","lastFetchedAt":"","url":"https://bartsparts.com/products/mustang-n270168/"},{"id":"mustang-n270496","name":"Mustang N270496","nameOriginal":"N270496","brand":"Mustang","sku":"N270496","category":"tractor","visual":"amber","icon":"package","price":0,"sourcePrice":0,"oldPrice":0,"oldSourcePrice":0,"currency":"EUR","stock":"Цена по запросу","image":"","availability":"","priceUpdatedAt":"","lastFetchedAt":"","url":"https://bartsparts.com/products/mustang-n270496/"},{"id":"mustang-n270497","name":"Mustang N270497","nameOriginal":"N270497","brand":"Mustang","sku":"N270497","category":"tractor","visual":"amber","icon":"package","price":0,"sourcePrice":0,"oldPrice":0,"oldSourcePrice":0,"currency":"EUR","stock":"Цена по запросу","image":"","availability":"","priceUpdatedAt":"","lastFetchedAt":"","url":"https://bartsparts.com/products/mustang-n270497/"},{"id":"mustang-n270531","name":"Mustang N270531","nameOriginal":"N270531","brand":"Mustang","sku":"N270531","category":"tractor","visual":"amber","icon":"package","price":0,"sourcePrice":0,"oldPrice":0,"oldSourcePrice":0,"currency":"EUR","stock":"Цена по запросу","image":"","availability":"","priceUpdatedAt":"","lastFetchedAt":"","url":"https://bartsparts.com/products/mustang-n270531/"},{"id":"mustang-n42035833","name":"Mustang N42035833","nameOriginal":"N42035833","brand":"Mustang","sku":"N42035833","category":"tractor","visual":"amber","icon":"package","price":0,"sourcePrice":0,"oldPrice":0,"oldSourcePrice":0,"currency":"EUR","stock":"Цена по запросу","image":"","availability":"","priceUpdatedAt":"","lastFetchedAt":"","url":"https://bartsparts.com/products/mustang-n42035833/"},{"id":"mustang-n48044505","name":"Mustang N48044505","nameOriginal":"N48044505","brand":"Mustang","sku":"N48044505","category":"tractor","visual":"amber","icon":"package","price":0,"sourcePrice":0,"oldPrice":0,"oldSourcePrice":0,"currency":"EUR","stock":"Цена по запросу","image":"","availability":"","priceUpdatedAt":"","lastFetchedAt":"","url":"https://bartsparts.com/products/mustang-n48044505/"},{"id":"mustang-n50301763","name":"Mustang N50301763","nameOriginal":"N50301763","brand":"Mustang","sku":"N50301763","category":"tractor","visual":"amber","icon":"package","price":0,"sourcePrice":0,"oldPrice":0,"oldSourcePrice":0,"currency":"EUR","stock":"Цена по запросу","image":"","availability":"","priceUpdatedAt":"","lastFetchedAt":"","url":"https://bartsparts.com/products/mustang-n50301763/"},{"id":"mustang-n50303901","name":"Mustang N50303901","nameOriginal":"N50303901","brand":"Mustang","sku":"N50303901","category":"tractor","visual":"amber","icon":"package","price":0,"sourcePrice":0,"oldPrice":0,"oldSourcePrice":0,"currency":"EUR","stock":"Цена по запросу","image":"","availability":"","priceUpdatedAt":"","lastFetchedAt":"","url":"https://bartsparts.com/products/mustang-n50303901/"},{"id":"mustang-n50303902","name":"Mustang N50303902","nameOriginal":"N50303902","brand":"Mustang","sku":"N50303902","category":"tractor","visual":"amber","icon":"package","price":0,"sourcePrice":0,"oldPrice":0,"oldSourcePrice":0,"currency":"EUR","stock":"Цена по запросу","image":"","availability":"","priceUpdatedAt":"","lastFetchedAt":"","url":"https://bartsparts.com/products/mustang-n50303902/"},{"id":"mustang-n50303908","name":"Mustang N50303908","nameOriginal":"N50303908","brand":"Mustang","sku":"N50303908","category":"tractor","visual":"amber","icon":"package","price":0,"sourcePrice":0,"oldPrice":0,"oldSourcePrice":0,"currency":"EUR","stock":"Цена по запросу","image":"","availability":"","priceUpdatedAt":"","lastFetchedAt":"","url":"https://bartsparts.com/products/mustang-n50303908/"},{"id":"mustang-n50303909","name":"Mustang N50303909","nameOriginal":"N50303909","brand":"Mustang","sku":"N50303909","category":"tractor","visual":"amber","icon":"package","price":0,"sourcePrice":0,"oldPrice":0,"oldSourcePrice":0,"currency":"EUR","stock":"Цена по запросу","image":"","availability":"","priceUpdatedAt":"","lastFetchedAt":"","url":"https://bartsparts.com/products/mustang-n50303909/"},{"id":"mustang-n50303914","name":"Mustang N50303914","nameOriginal":"N50303914","brand":"Mustang","sku":"N50303914","category":"tractor","visual":"amber","icon":"package","price":0,"sourcePrice":0,"oldPrice":0,"oldSourcePrice":0,"currency":"EUR","stock":"Цена по запросу","image":"","availability":"","priceUpdatedAt":"","lastFetchedAt":"","url":"https://bartsparts.com/products/mustang-n50303914/"},{"id":"mustang-n50303915","name":"Mustang N50303915","nameOriginal":"N50303915","brand":"Mustang","sku":"N50303915","category":"tractor","visual":"amber","icon":"package","price":0,"sourcePrice":0,"oldPrice":0,"oldSourcePrice":0,"currency":"EUR","stock":"Цена по запросу","image":"","availability":"","priceUpdatedAt":"","lastFetchedAt":"","url":"https://bartsparts.com/products/mustang-n50303915/"},{"id":"mustang-n50303930","name":"Mustang N50303930","nameOriginal":"N50303930","brand":"Mustang","sku":"N50303930","category":"tractor","visual":"amber","icon":"package","price":0,"sourcePrice":0,"oldPrice":0,"oldSourcePrice":0,"currency":"EUR","stock":"Цена по запросу","image":"","availability":"","priceUpdatedAt":"","lastFetchedAt":"","url":"https://bartsparts.com/products/mustang-n50303930/"},{"id":"mustang-n50303931","name":"Mustang N50303931","nameOriginal":"N50303931","brand":"Mustang","sku":"N50303931","category":"tractor","visual":"amber","icon":"package","price":0,"sourcePrice":0,"oldPrice":0,"oldSourcePrice":0,"currency":"EUR","stock":"Цена по запросу","image":"","availability":"","priceUpdatedAt":"","lastFetchedAt":"","url":"https://bartsparts.com/products/mustang-n50303931/"},{"id":"mustang-n50313510","name":"Mustang N50313510","nameOriginal":"N50313510","brand":"Mustang","sku":"N50313510","category":"tractor","visual":"amber","icon":"package","price":0,"sourcePrice":0,"oldPrice":0,"oldSourcePrice":0,"currency":"EUR","stock":"Цена по запросу","image":"","availability":"","priceUpdatedAt":"","lastFetchedAt":"","url":"https://bartsparts.com/products/mustang-n50313510/"},{"id":"mustang-n50350716","name":"Mustang N50350716","nameOriginal":"N50350716","brand":"Mustang","sku":"N50350716","category":"tractor","visual":"amber","icon":"package","price":0,"sourcePrice":0,"oldPrice":0,"oldSourcePrice":0,"currency":"EUR","stock":"Цена по запросу","image":"","availability":"","priceUpdatedAt":"","lastFetchedAt":"","url":"https://bartsparts.com/products/mustang-n50350716/"},{"id":"mustang-n50352436","name":"Mustang N50352436","nameOriginal":"N50352436","brand":"Mustang","sku":"N50352436","category":"tractor","visual":"amber","icon":"package","price":0,"sourcePrice":0,"oldPrice":0,"oldSourcePrice":0,"currency":"EUR","stock":"Цена по запросу","image":"","availability":"","priceUpdatedAt":"","lastFetchedAt":"","url":"https://bartsparts.com/products/mustang-n50352436/"},{"id":"mustang-n571588197010","name":"Mustang N571588197010","nameOriginal":"N571588197010","brand":"Mustang","sku":"N571588197010","category":"tractor","visual":"amber","icon":"package","price":0,"sourcePrice":0,"oldPrice":0,"oldSourcePrice":0,"currency":"EUR","stock":"Цена по запросу","image":"","availability":"","priceUpdatedAt":"","lastFetchedAt":"","url":"https://bartsparts.com/products/mustang-n571588197010/"},{"id":"mustang-n651614","name":"Mustang N651614","nameOriginal":"N651614","brand":"Mustang","sku":"N651614","category":"tractor","visual":"amber","icon":"package","price":0,"sourcePrice":0,"oldPrice":0,"oldSourcePrice":0,"currency":"EUR","stock":"Цена по запросу","image":"","availability":"","priceUpdatedAt":"","lastFetchedAt":"","url":"https://bartsparts.com/products/mustang-n651614/"},{"id":"mustang-n653018","name":"Mustang N653018","nameOriginal":"N653018","brand":"Mustang","sku":"N653018","category":"tractor","visual":"amber","icon":"package","price":0,"sourcePrice":0,"oldPrice":0,"oldSourcePrice":0,"currency":"EUR","stock":"Цена по запросу","image":"","availability":"","priceUpdatedAt":"","lastFetchedAt":"","url":"https://bartsparts.com/products/mustang-n653018/"},{"id":"mustang-s01p72x82x6","name":"Mustang S01P72X82X6","nameOriginal":"S01P72X82X6","brand":"Mustang","sku":"S01P72X82X6","category":"tractor","visual":"amber","icon":"package","price":0,"sourcePrice":0,"oldPrice":0,"oldSourcePrice":0,"currency":"EUR","stock":"Цена по запросу","image":"","availability":"","priceUpdatedAt":"","lastFetchedAt":"","url":"https://bartsparts.com/products/mustang-s01p72x82x6/"},{"id":"mustang-s01p79x89x6","name":"Mustang S01P79X89X6","nameOriginal":"S01P79X89X6","brand":"Mustang","sku":"S01P79X89X6","category":"tractor","visual":"amber","icon":"package","price":0,"sourcePrice":0,"oldPrice":0,"oldSourcePrice":0,"currency":"EUR","stock":"Цена по запросу","image":"","availability":"","priceUpdatedAt":"","lastFetchedAt":"","url":"https://bartsparts.com/products/mustang-s01p79x89x6/"},{"id":"mustang-schrankgrijs","name":"Mustang SCHRANKGRIJS","nameOriginal":"SCHRANKGRIJS","brand":"Mustang","sku":"SCHRANKGRIJS","category":"tractor","visual":"amber","icon":"package","price":0,"sourcePrice":0,"oldPrice":0,"oldSourcePrice":0,"currency":"EUR","stock":"Цена по запросу","image":"","availability":"","priceUpdatedAt":"","lastFetchedAt":"","url":"https://bartsparts.com/products/mustang-schrankgrijs/"},{"id":"mustang-wb286692","name":"Mustang WB286692","nameOriginal":"WB286692","brand":"Mustang","sku":"WB286692","category":"tractor","visual":"amber","icon":"package","price":0,"sourcePrice":0,"oldPrice":0,"oldSourcePrice":0,"currency":"EUR","stock":"Цена по запросу","image":"","availability":"","priceUpdatedAt":"","lastFetchedAt":"","url":"https://bartsparts.com/products/mustang-wb286692/"},{"id":"mustang-y103v","name":"Mustang Y103V","nameOriginal":"Y103V","brand":"Mustang","sku":"Y103V","category":"tractor","visual":"amber","icon":"package","price":0,"sourcePrice":0,"oldPrice":0,"oldSourcePrice":0,"currency":"EUR","stock":"Цена по запросу","image":"","availability":"","priceUpdatedAt":"","lastFetchedAt":"","url":"https://bartsparts.com/products/mustang-y103v/"}]}
