{"metadata":{"brand":"Agrifac","brandSlug":"agrifac","page":4,"pages":4,"count":3004,"chunkSize":1000,"currency":"EUR","priceMarkupPercent":20},"products":[{"id":"agrifac-ssm101216br","name":"Stelbout M10 1.6mm messing","nameOriginal":"Stelbout M10 1.6mm messing","brand":"Agrifac","sku":"SSM101216BR","category":"tractor","visual":"amber","icon":"package","price":11.4,"sourcePrice":9.5,"oldPrice":0,"oldSourcePrice":0,"currency":"EUR","stock":"Цена обновлена","image":"https://store-77uyis7lbs.mybigcommerce.com/content/images/brands/agrifac.png","availability":"in_stock","priceUpdatedAt":"2026-05-15T05:55:48.360Z","lastFetchedAt":"2026-05-15T05:55:48.360Z","url":"https://bartsparts.com/products/agrifac-ssm101216br/"},{"id":"agrifac-tp8002e","name":"spleetdop, even messing","nameOriginal":"spleetdop, even messing","brand":"Agrifac","sku":"TP8002E","category":"tractor","visual":"amber","icon":"package","price":3,"sourcePrice":2.5,"oldPrice":0,"oldSourcePrice":0,"currency":"EUR","stock":"Цена обновлена","image":"https://store-77uyis7lbs.mybigcommerce.com/content/images/brands/agrifac.png","availability":"in_stock","priceUpdatedAt":"2026-05-15T05:55:48.360Z","lastFetchedAt":"2026-05-15T05:55:48.360Z","url":"https://bartsparts.com/products/agrifac-tp8002e/"},{"id":"agrifac-ukp307fyh","name":"Lagerblok","nameOriginal":"Lagerblok","brand":"Agrifac","sku":"UKP307FYH","category":"tractor","visual":"amber","icon":"package","price":73.52,"sourcePrice":61.27,"oldPrice":0,"oldSourcePrice":0,"currency":"EUR","stock":"Цена обновлена","image":"https://store-77uyis7lbs.mybigcommerce.com/content/images/brands/agrifac.png","availability":"in_stock","priceUpdatedAt":"2026-05-15T05:55:48.360Z","lastFetchedAt":"2026-05-15T05:55:48.360Z","url":"https://bartsparts.com/products/agrifac-ukp307fyh/"},{"id":"agrifac-xr11005vk","name":"Agrifac - XR11005VK -","nameOriginal":"Agrifac - XR11005VK -","brand":"Agrifac","sku":"XR11005VK","category":"tractor","visual":"amber","icon":"package","price":10.46,"sourcePrice":8.72,"oldPrice":0,"oldSourcePrice":0,"currency":"EUR","stock":"Цена обновлена","image":"https://store-77uyis7lbs.mybigcommerce.com/content/images/brands/agrifac.png","availability":"in_stock","priceUpdatedAt":"2026-05-15T05:55:48.360Z","lastFetchedAt":"2026-05-15T05:55:48.360Z","url":"https://bartsparts.com/products/agrifac-xr11005vk/"}]}
