{"metadata":{"brand":"Clark","brandSlug":"clark","page":6,"pages":6,"count":5059,"chunkSize":1000,"currency":"EUR","priceMarkupPercent":20},"products":[{"id":"clark-995492","name":"Clark 995492","nameOriginal":"995492","brand":"Clark","sku":"995492","category":"tractor","visual":"green","icon":"package","price":0,"sourcePrice":0,"currency":"EUR","stock":"Цена по запросу","url":"https://bartsparts.com/products/clark-995492/"},{"id":"clark-995495","name":"Clark 995495","nameOriginal":"995495","brand":"Clark","sku":"995495","category":"tractor","visual":"green","icon":"package","price":0,"sourcePrice":0,"currency":"EUR","stock":"Цена по запросу","url":"https://bartsparts.com/products/clark-995495/"},{"id":"clark-995522","name":"Clark 995522","nameOriginal":"995522","brand":"Clark","sku":"995522","category":"tractor","visual":"green","icon":"package","price":0,"sourcePrice":0,"currency":"EUR","stock":"Цена по запросу","url":"https://bartsparts.com/products/clark-995522/"},{"id":"clark-995525","name":"Clark 995525","nameOriginal":"995525","brand":"Clark","sku":"995525","category":"tractor","visual":"green","icon":"package","price":0,"sourcePrice":0,"currency":"EUR","stock":"Цена по запросу","url":"https://bartsparts.com/products/clark-995525/"},{"id":"clark-995650","name":"Clark 995650","nameOriginal":"995650","brand":"Clark","sku":"995650","category":"tractor","visual":"green","icon":"package","price":0,"sourcePrice":0,"currency":"EUR","stock":"Цена по запросу","url":"https://bartsparts.com/products/clark-995650/"},{"id":"clark-995697","name":"Clark 995697","nameOriginal":"995697","brand":"Clark","sku":"995697","category":"tractor","visual":"green","icon":"package","price":0,"sourcePrice":0,"currency":"EUR","stock":"Цена по запросу","url":"https://bartsparts.com/products/clark-995697/"},{"id":"clark-995722","name":"Clark 995722","nameOriginal":"995722","brand":"Clark","sku":"995722","category":"tractor","visual":"green","icon":"package","price":0,"sourcePrice":0,"currency":"EUR","stock":"Цена по запросу","url":"https://bartsparts.com/products/clark-995722/"},{"id":"clark-995747","name":"Clark 995747","nameOriginal":"995747","brand":"Clark","sku":"995747","category":"tractor","visual":"green","icon":"package","price":0,"sourcePrice":0,"currency":"EUR","stock":"Цена по запросу","url":"https://bartsparts.com/products/clark-995747/"},{"id":"clark-995756","name":"Clark 995756","nameOriginal":"995756","brand":"Clark","sku":"995756","category":"tractor","visual":"green","icon":"package","price":0,"sourcePrice":0,"currency":"EUR","stock":"Цена по запросу","url":"https://bartsparts.com/products/clark-995756/"},{"id":"clark-995757","name":"Clark 995757","nameOriginal":"995757","brand":"Clark","sku":"995757","category":"tractor","visual":"green","icon":"package","price":0,"sourcePrice":0,"currency":"EUR","stock":"Цена по запросу","url":"https://bartsparts.com/products/clark-995757/"},{"id":"clark-995776","name":"Clark 995776","nameOriginal":"995776","brand":"Clark","sku":"995776","category":"tractor","visual":"green","icon":"package","price":0,"sourcePrice":0,"currency":"EUR","stock":"Цена по запросу","url":"https://bartsparts.com/products/clark-995776/"},{"id":"clark-995857","name":"Clark 995857","nameOriginal":"995857","brand":"Clark","sku":"995857","category":"tractor","visual":"green","icon":"package","price":0,"sourcePrice":0,"currency":"EUR","stock":"Цена по запросу","url":"https://bartsparts.com/products/clark-995857/"},{"id":"clark-995864","name":"Clark 995864","nameOriginal":"995864","brand":"Clark","sku":"995864","category":"tractor","visual":"green","icon":"package","price":0,"sourcePrice":0,"currency":"EUR","stock":"Цена по запросу","url":"https://bartsparts.com/products/clark-995864/"},{"id":"clark-996088","name":"Clark 996088","nameOriginal":"996088","brand":"Clark","sku":"996088","category":"tractor","visual":"green","icon":"package","price":0,"sourcePrice":0,"currency":"EUR","stock":"Цена по запросу","url":"https://bartsparts.com/products/clark-996088/"},{"id":"clark-996411","name":"Clark 996411","nameOriginal":"996411","brand":"Clark","sku":"996411","category":"tractor","visual":"green","icon":"package","price":0,"sourcePrice":0,"currency":"EUR","stock":"Цена по запросу","url":"https://bartsparts.com/products/clark-996411/"},{"id":"clark-996419","name":"Clark 996419","nameOriginal":"996419","brand":"Clark","sku":"996419","category":"tractor","visual":"green","icon":"package","price":0,"sourcePrice":0,"currency":"EUR","stock":"Цена по запросу","url":"https://bartsparts.com/products/clark-996419/"},{"id":"clark-996550","name":"Clark 996550","nameOriginal":"996550","brand":"Clark","sku":"996550","category":"tractor","visual":"green","icon":"package","price":0,"sourcePrice":0,"currency":"EUR","stock":"Цена по запросу","url":"https://bartsparts.com/products/clark-996550/"},{"id":"clark-996552","name":"Clark 996552","nameOriginal":"996552","brand":"Clark","sku":"996552","category":"tractor","visual":"green","icon":"package","price":0,"sourcePrice":0,"currency":"EUR","stock":"Цена по запросу","url":"https://bartsparts.com/products/clark-996552/"},{"id":"clark-996588","name":"Clark 996588","nameOriginal":"996588","brand":"Clark","sku":"996588","category":"tractor","visual":"green","icon":"package","price":0,"sourcePrice":0,"currency":"EUR","stock":"Цена по запросу","url":"https://bartsparts.com/products/clark-996588/"},{"id":"clark-996657","name":"Clark 996657","nameOriginal":"996657","brand":"Clark","sku":"996657","category":"tractor","visual":"green","icon":"package","price":0,"sourcePrice":0,"currency":"EUR","stock":"Цена по запросу","url":"https://bartsparts.com/products/clark-996657/"},{"id":"clark-996802","name":"Clark 996802","nameOriginal":"996802","brand":"Clark","sku":"996802","category":"tractor","visual":"green","icon":"package","price":0,"sourcePrice":0,"currency":"EUR","stock":"Цена по запросу","url":"https://bartsparts.com/products/clark-996802/"},{"id":"clark-996848","name":"Clark 996848","nameOriginal":"996848","brand":"Clark","sku":"996848","category":"tractor","visual":"green","icon":"package","price":0,"sourcePrice":0,"currency":"EUR","stock":"Цена по запросу","url":"https://bartsparts.com/products/clark-996848/"},{"id":"clark-996849","name":"Clark 996849","nameOriginal":"996849","brand":"Clark","sku":"996849","category":"tractor","visual":"green","icon":"package","price":0,"sourcePrice":0,"currency":"EUR","stock":"Цена по запросу","url":"https://bartsparts.com/products/clark-996849/"},{"id":"clark-997130","name":"Clark 997130","nameOriginal":"997130","brand":"Clark","sku":"997130","category":"tractor","visual":"green","icon":"package","price":0,"sourcePrice":0,"currency":"EUR","stock":"Цена по запросу","url":"https://bartsparts.com/products/clark-997130/"},{"id":"clark-997189","name":"Clark 997189","nameOriginal":"997189","brand":"Clark","sku":"997189","category":"tractor","visual":"green","icon":"package","price":0,"sourcePrice":0,"currency":"EUR","stock":"Цена по запросу","url":"https://bartsparts.com/products/clark-997189/"},{"id":"clark-997328","name":"Clark 997328","nameOriginal":"997328","brand":"Clark","sku":"997328","category":"tractor","visual":"green","icon":"package","price":0,"sourcePrice":0,"currency":"EUR","stock":"Цена по запросу","url":"https://bartsparts.com/products/clark-997328/"},{"id":"clark-997373","name":"Clark 997373","nameOriginal":"997373","brand":"Clark","sku":"997373","category":"tractor","visual":"green","icon":"package","price":0,"sourcePrice":0,"currency":"EUR","stock":"Цена по запросу","url":"https://bartsparts.com/products/clark-997373/"},{"id":"clark-997663","name":"Clark 997663","nameOriginal":"997663","brand":"Clark","sku":"997663","category":"tractor","visual":"green","icon":"package","price":0,"sourcePrice":0,"currency":"EUR","stock":"Цена по запросу","url":"https://bartsparts.com/products/clark-997663/"},{"id":"clark-998075","name":"Clark 998075","nameOriginal":"998075","brand":"Clark","sku":"998075","category":"tractor","visual":"green","icon":"package","price":0,"sourcePrice":0,"currency":"EUR","stock":"Цена по запросу","url":"https://bartsparts.com/products/clark-998075/"},{"id":"clark-998080","name":"Clark 998080","nameOriginal":"998080","brand":"Clark","sku":"998080","category":"tractor","visual":"green","icon":"package","price":0,"sourcePrice":0,"currency":"EUR","stock":"Цена по запросу","url":"https://bartsparts.com/products/clark-998080/"},{"id":"clark-998132","name":"Clark 998132","nameOriginal":"998132","brand":"Clark","sku":"998132","category":"tractor","visual":"green","icon":"package","price":0,"sourcePrice":0,"currency":"EUR","stock":"Цена по запросу","url":"https://bartsparts.com/products/clark-998132/"},{"id":"clark-998196","name":"Clark 998196","nameOriginal":"998196","brand":"Clark","sku":"998196","category":"tractor","visual":"green","icon":"package","price":0,"sourcePrice":0,"currency":"EUR","stock":"Цена по запросу","url":"https://bartsparts.com/products/clark-998196/"},{"id":"clark-998363","name":"Clark 998363","nameOriginal":"998363","brand":"Clark","sku":"998363","category":"tractor","visual":"green","icon":"package","price":0,"sourcePrice":0,"currency":"EUR","stock":"Цена по запросу","url":"https://bartsparts.com/products/clark-998363/"},{"id":"clark-998380","name":"Clark 998380","nameOriginal":"998380","brand":"Clark","sku":"998380","category":"tractor","visual":"green","icon":"package","price":0,"sourcePrice":0,"currency":"EUR","stock":"Цена по запросу","url":"https://bartsparts.com/products/clark-998380/"},{"id":"clark-998574","name":"Clark 998574","nameOriginal":"998574","brand":"Clark","sku":"998574","category":"tractor","visual":"green","icon":"package","price":0,"sourcePrice":0,"currency":"EUR","stock":"Цена по запросу","url":"https://bartsparts.com/products/clark-998574/"},{"id":"clark-998708","name":"Clark 998708","nameOriginal":"998708","brand":"Clark","sku":"998708","category":"tractor","visual":"green","icon":"package","price":0,"sourcePrice":0,"currency":"EUR","stock":"Цена по запросу","url":"https://bartsparts.com/products/clark-998708/"},{"id":"clark-998982","name":"Clark 998982","nameOriginal":"998982","brand":"Clark","sku":"998982","category":"tractor","visual":"green","icon":"package","price":0,"sourcePrice":0,"currency":"EUR","stock":"Цена по запросу","url":"https://bartsparts.com/products/clark-998982/"},{"id":"clark-999046","name":"Clark 999046","nameOriginal":"999046","brand":"Clark","sku":"999046","category":"tractor","visual":"green","icon":"package","price":0,"sourcePrice":0,"currency":"EUR","stock":"Цена по запросу","url":"https://bartsparts.com/products/clark-999046/"},{"id":"clark-999068","name":"Clark 999068","nameOriginal":"999068","brand":"Clark","sku":"999068","category":"tractor","visual":"green","icon":"package","price":0,"sourcePrice":0,"currency":"EUR","stock":"Цена по запросу","url":"https://bartsparts.com/products/clark-999068/"},{"id":"clark-999081","name":"Clark 999081","nameOriginal":"999081","brand":"Clark","sku":"999081","category":"tractor","visual":"green","icon":"package","price":0,"sourcePrice":0,"currency":"EUR","stock":"Цена по запросу","url":"https://bartsparts.com/products/clark-999081/"},{"id":"clark-999087","name":"Clark 999087","nameOriginal":"999087","brand":"Clark","sku":"999087","category":"tractor","visual":"green","icon":"package","price":0,"sourcePrice":0,"currency":"EUR","stock":"Цена по запросу","url":"https://bartsparts.com/products/clark-999087/"},{"id":"clark-999122","name":"Clark 999122","nameOriginal":"999122","brand":"Clark","sku":"999122","category":"tractor","visual":"green","icon":"package","price":0,"sourcePrice":0,"currency":"EUR","stock":"Цена по запросу","url":"https://bartsparts.com/products/clark-999122/"},{"id":"clark-999165","name":"Clark 999165","nameOriginal":"999165","brand":"Clark","sku":"999165","category":"tractor","visual":"green","icon":"package","price":0,"sourcePrice":0,"currency":"EUR","stock":"Цена по запросу","url":"https://bartsparts.com/products/clark-999165/"},{"id":"clark-999174","name":"Clark 999174","nameOriginal":"999174","brand":"Clark","sku":"999174","category":"tractor","visual":"green","icon":"package","price":0,"sourcePrice":0,"currency":"EUR","stock":"Цена по запросу","url":"https://bartsparts.com/products/clark-999174/"},{"id":"clark-999376","name":"Clark 999376","nameOriginal":"999376","brand":"Clark","sku":"999376","category":"tractor","visual":"green","icon":"package","price":0,"sourcePrice":0,"currency":"EUR","stock":"Цена по запросу","url":"https://bartsparts.com/products/clark-999376/"},{"id":"clark-999473","name":"Clark 999473","nameOriginal":"999473","brand":"Clark","sku":"999473","category":"tractor","visual":"green","icon":"package","price":0,"sourcePrice":0,"currency":"EUR","stock":"Цена по запросу","url":"https://bartsparts.com/products/clark-999473/"},{"id":"clark-999481","name":"Clark 999481","nameOriginal":"999481","brand":"Clark","sku":"999481","category":"tractor","visual":"green","icon":"package","price":0,"sourcePrice":0,"currency":"EUR","stock":"Цена по запросу","url":"https://bartsparts.com/products/clark-999481/"},{"id":"clark-999482","name":"Clark 999482","nameOriginal":"999482","brand":"Clark","sku":"999482","category":"tractor","visual":"green","icon":"package","price":0,"sourcePrice":0,"currency":"EUR","stock":"Цена по запросу","url":"https://bartsparts.com/products/clark-999482/"},{"id":"clark-999483","name":"Clark 999483","nameOriginal":"999483","brand":"Clark","sku":"999483","category":"tractor","visual":"green","icon":"package","price":0,"sourcePrice":0,"currency":"EUR","stock":"Цена по запросу","url":"https://bartsparts.com/products/clark-999483/"},{"id":"clark-999484","name":"Clark 999484","nameOriginal":"999484","brand":"Clark","sku":"999484","category":"tractor","visual":"green","icon":"package","price":0,"sourcePrice":0,"currency":"EUR","stock":"Цена по запросу","url":"https://bartsparts.com/products/clark-999484/"},{"id":"clark-999486","name":"Clark 999486","nameOriginal":"999486","brand":"Clark","sku":"999486","category":"tractor","visual":"green","icon":"package","price":0,"sourcePrice":0,"currency":"EUR","stock":"Цена по запросу","url":"https://bartsparts.com/products/clark-999486/"},{"id":"clark-999492","name":"Clark 999492","nameOriginal":"999492","brand":"Clark","sku":"999492","category":"tractor","visual":"green","icon":"package","price":0,"sourcePrice":0,"currency":"EUR","stock":"Цена по запросу","url":"https://bartsparts.com/products/clark-999492/"},{"id":"clark-999622","name":"Clark 999622","nameOriginal":"999622","brand":"Clark","sku":"999622","category":"tractor","visual":"green","icon":"package","price":0,"sourcePrice":0,"currency":"EUR","stock":"Цена по запросу","url":"https://bartsparts.com/products/clark-999622/"},{"id":"clark-999701","name":"Clark 999701","nameOriginal":"999701","brand":"Clark","sku":"999701","category":"tractor","visual":"green","icon":"package","price":0,"sourcePrice":0,"currency":"EUR","stock":"Цена по запросу","url":"https://bartsparts.com/products/clark-999701/"},{"id":"clark-999728","name":"Clark 999728","nameOriginal":"999728","brand":"Clark","sku":"999728","category":"tractor","visual":"green","icon":"package","price":0,"sourcePrice":0,"currency":"EUR","stock":"Цена по запросу","url":"https://bartsparts.com/products/clark-999728/"},{"id":"clark-999742","name":"Clark 999742","nameOriginal":"999742","brand":"Clark","sku":"999742","category":"tractor","visual":"green","icon":"package","price":0,"sourcePrice":0,"currency":"EUR","stock":"Цена по запросу","url":"https://bartsparts.com/products/clark-999742/"},{"id":"clark-999957","name":"Clark 999957","nameOriginal":"999957","brand":"Clark","sku":"999957","category":"tractor","visual":"green","icon":"package","price":0,"sourcePrice":0,"currency":"EUR","stock":"Цена по запросу","url":"https://bartsparts.com/products/clark-999957/"},{"id":"clark-999975","name":"Clark 999975","nameOriginal":"999975","brand":"Clark","sku":"999975","category":"tractor","visual":"green","icon":"package","price":0,"sourcePrice":0,"currency":"EUR","stock":"Цена по запросу","url":"https://bartsparts.com/products/clark-999975/"},{"id":"clark-jl28160","name":"Clark JL28160","nameOriginal":"JL28160","brand":"Clark","sku":"JL28160","category":"tractor","visual":"green","icon":"package","price":0,"sourcePrice":0,"currency":"EUR","stock":"Цена по запросу","url":"https://bartsparts.com/products/clark-jl28160/"}]}
