{"metadata":{"brand":"Goldoni","brandSlug":"goldoni","page":3,"pages":3,"count":2011,"chunkSize":1000,"currency":"EUR","priceMarkupPercent":20},"products":[{"id":"goldoni-pis12050002","name":"Goldoni PIS12050002","nameOriginal":"PIS12050002","brand":"Goldoni","sku":"PIS12050002","category":"tractor","visual":"steel","icon":"package","price":0,"sourcePrice":0,"currency":"EUR","stock":"Цена по запросу","url":"https://bartsparts.com/products/goldoni-pis12050002/"},{"id":"goldoni-pis14020001","name":"Goldoni PIS14020001","nameOriginal":"PIS14020001","brand":"Goldoni","sku":"PIS14020001","category":"tractor","visual":"steel","icon":"package","price":0,"sourcePrice":0,"currency":"EUR","stock":"Цена по запросу","url":"https://bartsparts.com/products/goldoni-pis14020001/"},{"id":"goldoni-sx08100d1","name":"Goldoni SX08100D1","nameOriginal":"SX08100D1","brand":"Goldoni","sku":"SX08100D1","category":"tractor","visual":"steel","icon":"package","price":0,"sourcePrice":0,"currency":"EUR","stock":"Цена по запросу","url":"https://bartsparts.com/products/goldoni-sx08100d1/"},{"id":"goldoni-tb507581e22","name":"Goldoni TB507581E22","nameOriginal":"TB507581E22","brand":"Goldoni","sku":"TB507581E22","category":"tractor","visual":"steel","icon":"package","price":0,"sourcePrice":0,"currency":"EUR","stock":"Цена по запросу","url":"https://bartsparts.com/products/goldoni-tb507581e22/"},{"id":"goldoni-td90022b03c","name":"Goldoni TD90022B03C","nameOriginal":"TD90022B03C","brand":"Goldoni","sku":"TD90022B03C","category":"tractor","visual":"steel","icon":"package","price":0,"sourcePrice":0,"currency":"EUR","stock":"Цена по запросу","url":"https://bartsparts.com/products/goldoni-td90022b03c/"},{"id":"goldoni-td904311k105","name":"Goldoni TD904311K105","nameOriginal":"TD904311K105","brand":"Goldoni","sku":"TD904311K105","category":"tractor","visual":"steel","icon":"package","price":0,"sourcePrice":0,"currency":"EUR","stock":"Цена по запросу","url":"https://bartsparts.com/products/goldoni-td904311k105/"},{"id":"goldoni-td904311k1102","name":"Goldoni TD904311K1102","nameOriginal":"TD904311K1102","brand":"Goldoni","sku":"TD904311K1102","category":"tractor","visual":"steel","icon":"package","price":0,"sourcePrice":0,"currency":"EUR","stock":"Цена по запросу","url":"https://bartsparts.com/products/goldoni-td904311k1102/"},{"id":"goldoni-v0069021","name":"Goldoni V0069021","nameOriginal":"V0069021","brand":"Goldoni","sku":"V0069021","category":"tractor","visual":"steel","icon":"package","price":0,"sourcePrice":0,"currency":"EUR","stock":"Цена по запросу","url":"https://bartsparts.com/products/goldoni-v0069021/"},{"id":"goldoni-v0069033","name":"Goldoni V0069033","nameOriginal":"V0069033","brand":"Goldoni","sku":"V0069033","category":"tractor","visual":"steel","icon":"package","price":0,"sourcePrice":0,"currency":"EUR","stock":"Цена по запросу","url":"https://bartsparts.com/products/goldoni-v0069033/"},{"id":"goldoni-v0069050","name":"Goldoni V0069050","nameOriginal":"V0069050","brand":"Goldoni","sku":"V0069050","category":"tractor","visual":"steel","icon":"package","price":0,"sourcePrice":0,"currency":"EUR","stock":"Цена по запросу","url":"https://bartsparts.com/products/goldoni-v0069050/"},{"id":"goldoni-v0069244","name":"Goldoni V0069244","nameOriginal":"V0069244","brand":"Goldoni","sku":"V0069244","category":"tractor","visual":"steel","icon":"package","price":0,"sourcePrice":0,"currency":"EUR","stock":"Цена по запросу","url":"https://bartsparts.com/products/goldoni-v0069244/"}]}
