{"metadata":{"brand":"Gates","brandSlug":"gates","page":3,"pages":3,"count":2040,"chunkSize":1000,"currency":"EUR","priceMarkupPercent":20},"products":[{"id":"gates-ha08a12nuhb","name":"Gates HA08A12NUHB","nameOriginal":"HA08A12NUHB","brand":"Gates","sku":"HA08A12NUHB","category":"tractor","visual":"green","icon":"package","price":0,"sourcePrice":0,"oldPrice":0,"oldSourcePrice":0,"currency":"EUR","stock":"Цена по запросу","image":"","availability":"","priceUpdatedAt":"","lastFetchedAt":"","url":"https://bartsparts.com/products/gates-ha08a12nuhb/"},{"id":"gates-ha08a15rz","name":"Gates HA08A15RZ","nameOriginal":"HA08A15RZ","brand":"Gates","sku":"HA08A15RZ","category":"tractor","visual":"green","icon":"package","price":0,"sourcePrice":0,"oldPrice":0,"oldSourcePrice":0,"currency":"EUR","stock":"Цена по запросу","image":"","availability":"","priceUpdatedAt":"","lastFetchedAt":"","url":"https://bartsparts.com/products/gates-ha08a15rz/"},{"id":"gates-ha08a16ru24a45","name":"Gates HA08A16RU24A45","nameOriginal":"HA08A16RU24A45","brand":"Gates","sku":"HA08A16RU24A45","category":"tractor","visual":"green","icon":"package","price":0,"sourcePrice":0,"oldPrice":0,"oldSourcePrice":0,"currency":"EUR","stock":"Цена по запросу","image":"","availability":"","priceUpdatedAt":"","lastFetchedAt":"","url":"https://bartsparts.com/products/gates-ha08a16ru24a45/"},{"id":"gates-ha08a18rz","name":"Gates HA08A18RZ","nameOriginal":"HA08A18RZ","brand":"Gates","sku":"HA08A18RZ","category":"tractor","visual":"green","icon":"package","price":0,"sourcePrice":0,"oldPrice":0,"oldSourcePrice":0,"currency":"EUR","stock":"Цена по запросу","image":"","availability":"","priceUpdatedAt":"","lastFetchedAt":"","url":"https://bartsparts.com/products/gates-ha08a18rz/"},{"id":"gates-ha10a10nu","name":"Gates HA10A10NU","nameOriginal":"HA10A10NU","brand":"Gates","sku":"HA10A10NU","category":"tractor","visual":"green","icon":"package","price":0,"sourcePrice":0,"oldPrice":0,"oldSourcePrice":0,"currency":"EUR","stock":"Цена по запросу","image":"","availability":"","priceUpdatedAt":"","lastFetchedAt":"","url":"https://bartsparts.com/products/gates-ha10a10nu/"},{"id":"gates-ha10a10nu45","name":"Gates HA10A10NU45","nameOriginal":"HA10A10NU45","brand":"Gates","sku":"HA10A10NU45","category":"tractor","visual":"green","icon":"package","price":0,"sourcePrice":0,"oldPrice":0,"oldSourcePrice":0,"currency":"EUR","stock":"Цена по запросу","image":"","availability":"","priceUpdatedAt":"","lastFetchedAt":"","url":"https://bartsparts.com/products/gates-ha10a10nu45/"},{"id":"gates-ha10a10nu90","name":"Gates HA10A10NU90","nameOriginal":"HA10A10NU90","brand":"Gates","sku":"HA10A10NU90","category":"tractor","visual":"green","icon":"package","price":0,"sourcePrice":0,"oldPrice":0,"oldSourcePrice":0,"currency":"EUR","stock":"Цена по запросу","image":"","availability":"","priceUpdatedAt":"","lastFetchedAt":"","url":"https://bartsparts.com/products/gates-ha10a10nu90/"},{"id":"gates-ha10a12mj","name":"Gates HA10A12MJ","nameOriginal":"HA10A12MJ","brand":"Gates","sku":"HA10A12MJ","category":"tractor","visual":"green","icon":"package","price":0,"sourcePrice":0,"oldPrice":0,"oldSourcePrice":0,"currency":"EUR","stock":"Цена по запросу","image":"","availability":"","priceUpdatedAt":"","lastFetchedAt":"","url":"https://bartsparts.com/products/gates-ha10a12mj/"},{"id":"gates-ha10a12nu90","name":"Gates HA10A12NU90","nameOriginal":"HA10A12NU90","brand":"Gates","sku":"HA10A12NU90","category":"tractor","visual":"green","icon":"package","price":0,"sourcePrice":0,"oldPrice":0,"oldSourcePrice":0,"currency":"EUR","stock":"Цена по запросу","image":"","availability":"","priceUpdatedAt":"","lastFetchedAt":"","url":"https://bartsparts.com/products/gates-ha10a12nu90/"},{"id":"gates-icgat6476mc","name":"Gates ICGAT6476MC","nameOriginal":"ICGAT6476MC","brand":"Gates","sku":"ICGAT6476MC","category":"tractor","visual":"green","icon":"package","price":0,"sourcePrice":0,"oldPrice":0,"oldSourcePrice":0,"currency":"EUR","stock":"Цена по запросу","image":"","availability":"","priceUpdatedAt":"","lastFetchedAt":"","url":"https://bartsparts.com/products/gates-icgat6476mc/"},{"id":"gates-ja344311311270225225","name":"Gates JA344311311270225225","nameOriginal":"JA344311311270225225","brand":"Gates","sku":"JA344311311270225225","category":"tractor","visual":"green","icon":"package","price":0,"sourcePrice":0,"oldPrice":0,"oldSourcePrice":0,"currency":"EUR","stock":"Цена по запросу","image":"","availability":"","priceUpdatedAt":"","lastFetchedAt":"","url":"https://bartsparts.com/products/gates-ja344311311270225225/"},{"id":"gates-ja670224261462186","name":"Gates JA670224261462186","nameOriginal":"JA670224261462186","brand":"Gates","sku":"JA670224261462186","category":"tractor","visual":"green","icon":"package","price":0,"sourcePrice":0,"oldPrice":0,"oldSourcePrice":0,"currency":"EUR","stock":"Цена по запросу","image":"","availability":"","priceUpdatedAt":"","lastFetchedAt":"","url":"https://bartsparts.com/products/gates-ja670224261462186/"},{"id":"gates-kmxpb28004","name":"Gates KMXPB28004","nameOriginal":"KMXPB28004","brand":"Gates","sku":"KMXPB28004","category":"tractor","visual":"green","icon":"package","price":0,"sourcePrice":0,"oldPrice":0,"oldSourcePrice":0,"currency":"EUR","stock":"Цена по запросу","image":"","availability":"","priceUpdatedAt":"","lastFetchedAt":"","url":"https://bartsparts.com/products/gates-kmxpb28004/"},{"id":"gates-no-067789","name":"Gates NO-067789","nameOriginal":"NO-067789","brand":"Gates","sku":"NO-067789","category":"tractor","visual":"green","icon":"package","price":0,"sourcePrice":0,"oldPrice":0,"oldSourcePrice":0,"currency":"EUR","stock":"Цена по запросу","image":"","availability":"","priceUpdatedAt":"","lastFetchedAt":"","url":"https://bartsparts.com/products/gates-no-067789/"},{"id":"gates-no-0721100","name":"Gates NO-0721100","nameOriginal":"NO-0721100","brand":"Gates","sku":"NO-0721100","category":"tractor","visual":"green","icon":"package","price":0,"sourcePrice":0,"oldPrice":0,"oldSourcePrice":0,"currency":"EUR","stock":"Цена по запросу","image":"","availability":"","priceUpdatedAt":"","lastFetchedAt":"","url":"https://bartsparts.com/products/gates-no-0721100/"},{"id":"gates-no-1401161","name":"Gates NO-1401161","nameOriginal":"NO-1401161","brand":"Gates","sku":"NO-1401161","category":"tractor","visual":"green","icon":"package","price":0,"sourcePrice":0,"oldPrice":0,"oldSourcePrice":0,"currency":"EUR","stock":"Цена по запросу","image":"","availability":"","priceUpdatedAt":"","lastFetchedAt":"","url":"https://bartsparts.com/products/gates-no-1401161/"},{"id":"gates-no-617309gates","name":"Gates NO-617309GATES","nameOriginal":"NO-617309GATES","brand":"Gates","sku":"NO-617309GATES","category":"tractor","visual":"green","icon":"package","price":0,"sourcePrice":0,"oldPrice":0,"oldSourcePrice":0,"currency":"EUR","stock":"Цена по запросу","image":"","availability":"","priceUpdatedAt":"","lastFetchedAt":"","url":"https://bartsparts.com/products/gates-no-617309gates/"},{"id":"gates-no-629737","name":"Gates NO-629737","nameOriginal":"NO-629737","brand":"Gates","sku":"NO-629737","category":"tractor","visual":"green","icon":"package","price":0,"sourcePrice":0,"oldPrice":0,"oldSourcePrice":0,"currency":"EUR","stock":"Цена по запросу","image":"","availability":"","priceUpdatedAt":"","lastFetchedAt":"","url":"https://bartsparts.com/products/gates-no-629737/"},{"id":"gates-no-8pk1915gates","name":"Gates NO-8PK1915GATES","nameOriginal":"NO-8PK1915GATES","brand":"Gates","sku":"NO-8PK1915GATES","category":"tractor","visual":"green","icon":"package","price":0,"sourcePrice":0,"oldPrice":0,"oldSourcePrice":0,"currency":"EUR","stock":"Цена по запросу","image":"","availability":"","priceUpdatedAt":"","lastFetchedAt":"","url":"https://bartsparts.com/products/gates-no-8pk1915gates/"},{"id":"gates-no-98039673","name":"Gates NO-98039673","nameOriginal":"NO-98039673","brand":"Gates","sku":"NO-98039673","category":"tractor","visual":"green","icon":"package","price":0,"sourcePrice":0,"oldPrice":0,"oldSourcePrice":0,"currency":"EUR","stock":"Цена по запросу","image":"","availability":"","priceUpdatedAt":"","lastFetchedAt":"","url":"https://bartsparts.com/products/gates-no-98039673/"},{"id":"gates-no-98045896","name":"Gates NO-98045896","nameOriginal":"NO-98045896","brand":"Gates","sku":"NO-98045896","category":"tractor","visual":"green","icon":"package","price":0,"sourcePrice":0,"oldPrice":0,"oldSourcePrice":0,"currency":"EUR","stock":"Цена по запросу","image":"","availability":"","priceUpdatedAt":"","lastFetchedAt":"","url":"https://bartsparts.com/products/gates-no-98045896/"},{"id":"gates-nv04bsp06m","name":"Gates NV04BSP06M","nameOriginal":"NV04BSP06M","brand":"Gates","sku":"NV04BSP06M","category":"tractor","visual":"green","icon":"package","price":0,"sourcePrice":0,"oldPrice":0,"oldSourcePrice":0,"currency":"EUR","stock":"Цена по запросу","image":"","availability":"","priceUpdatedAt":"","lastFetchedAt":"","url":"https://bartsparts.com/products/gates-nv04bsp06m/"},{"id":"gates-oma8813","name":"Gates OMA8813","nameOriginal":"OMA8813","brand":"Gates","sku":"OMA8813","category":"tractor","visual":"green","icon":"package","price":0,"sourcePrice":0,"oldPrice":0,"oldSourcePrice":0,"currency":"EUR","stock":"Цена по запросу","image":"","availability":"","priceUpdatedAt":"","lastFetchedAt":"","url":"https://bartsparts.com/products/gates-oma8813/"},{"id":"gates-quadpowerxpa800","name":"Gates QUADPOWERXPA800","nameOriginal":"QUADPOWERXPA800","brand":"Gates","sku":"QUADPOWERXPA800","category":"tractor","visual":"green","icon":"package","price":0,"sourcePrice":0,"oldPrice":0,"oldSourcePrice":0,"currency":"EUR","stock":"Цена по запросу","image":"","availability":"","priceUpdatedAt":"","lastFetchedAt":"","url":"https://bartsparts.com/products/gates-quadpowerxpa800/"},{"id":"gates-spa1500ca","name":"Gates SPA1500CA","nameOriginal":"SPA1500CA","brand":"Gates","sku":"SPA1500CA","category":"tractor","visual":"green","icon":"package","price":0,"sourcePrice":0,"oldPrice":0,"oldSourcePrice":0,"currency":"EUR","stock":"Цена по запросу","image":"","availability":"","priceUpdatedAt":"","lastFetchedAt":"","url":"https://bartsparts.com/products/gates-spa1500ca/"},{"id":"gates-spa2232ca","name":"Gates SPA2232CA","nameOriginal":"SPA2232CA","brand":"Gates","sku":"SPA2232CA","category":"tractor","visual":"green","icon":"package","price":0,"sourcePrice":0,"oldPrice":0,"oldSourcePrice":0,"currency":"EUR","stock":"Цена по запросу","image":"","availability":"","priceUpdatedAt":"","lastFetchedAt":"","url":"https://bartsparts.com/products/gates-spa2232ca/"},{"id":"gates-spb1650ca","name":"Gates SPB1650CA","nameOriginal":"SPB1650CA","brand":"Gates","sku":"SPB1650CA","category":"tractor","visual":"green","icon":"package","price":0,"sourcePrice":0,"oldPrice":0,"oldSourcePrice":0,"currency":"EUR","stock":"Цена по запросу","image":"","availability":"","priceUpdatedAt":"","lastFetchedAt":"","url":"https://bartsparts.com/products/gates-spb1650ca/"},{"id":"gates-spb2300ca","name":"Gates SPB2300CA","nameOriginal":"SPB2300CA","brand":"Gates","sku":"SPB2300CA","category":"tractor","visual":"green","icon":"package","price":0,"sourcePrice":0,"oldPrice":0,"oldSourcePrice":0,"currency":"EUR","stock":"Цена по запросу","image":"","availability":"","priceUpdatedAt":"","lastFetchedAt":"","url":"https://bartsparts.com/products/gates-spb2300ca/"},{"id":"gates-spb3650ca","name":"Gates SPB3650CA","nameOriginal":"SPB3650CA","brand":"Gates","sku":"SPB3650CA","category":"tractor","visual":"green","icon":"package","price":0,"sourcePrice":0,"oldPrice":0,"oldSourcePrice":0,"currency":"EUR","stock":"Цена по запросу","image":"","availability":"","priceUpdatedAt":"","lastFetchedAt":"","url":"https://bartsparts.com/products/gates-spb3650ca/"},{"id":"gates-spz1212ca","name":"Gates SPZ1212CA","nameOriginal":"SPZ1212CA","brand":"Gates","sku":"SPZ1212CA","category":"tractor","visual":"green","icon":"package","price":0,"sourcePrice":0,"oldPrice":0,"oldSourcePrice":0,"currency":"EUR","stock":"Цена по запросу","image":"","availability":"","priceUpdatedAt":"","lastFetchedAt":"","url":"https://bartsparts.com/products/gates-spz1212ca/"},{"id":"gates-t12pkx1890hd","name":"Gates T12PKX1890HD","nameOriginal":"T12PKX1890HD","brand":"Gates","sku":"T12PKX1890HD","category":"tractor","visual":"green","icon":"package","price":0,"sourcePrice":0,"oldPrice":0,"oldSourcePrice":0,"currency":"EUR","stock":"Цена по запросу","image":"","availability":"","priceUpdatedAt":"","lastFetchedAt":"","url":"https://bartsparts.com/products/gates-t12pkx1890hd/"},{"id":"gates-t19g3982e","name":"Gates T19G3982E","nameOriginal":"T19G3982E","brand":"Gates","sku":"T19G3982E","category":"tractor","visual":"green","icon":"package","price":0,"sourcePrice":0,"oldPrice":0,"oldSourcePrice":0,"currency":"EUR","stock":"Цена по запросу","image":"","availability":"","priceUpdatedAt":"","lastFetchedAt":"","url":"https://bartsparts.com/products/gates-t19g3982e/"},{"id":"gates-t4pk965","name":"Gates T4PK965","nameOriginal":"T4PK965","brand":"Gates","sku":"T4PK965","category":"tractor","visual":"green","icon":"package","price":0,"sourcePrice":0,"oldPrice":0,"oldSourcePrice":0,"currency":"EUR","stock":"Цена по запросу","image":"","availability":"","priceUpdatedAt":"","lastFetchedAt":"","url":"https://bartsparts.com/products/gates-t4pk965/"},{"id":"gates-tcb0072","name":"Gates TCB0072","nameOriginal":"TCB0072","brand":"Gates","sku":"TCB0072","category":"tractor","visual":"green","icon":"package","price":0,"sourcePrice":0,"oldPrice":0,"oldSourcePrice":0,"currency":"EUR","stock":"Цена по запросу","image":"","availability":"","priceUpdatedAt":"","lastFetchedAt":"","url":"https://bartsparts.com/products/gates-tcb0072/"},{"id":"gates-tt38508","name":"Gates TT38508","nameOriginal":"TT38508","brand":"Gates","sku":"TT38508","category":"tractor","visual":"green","icon":"package","price":0,"sourcePrice":0,"oldPrice":0,"oldSourcePrice":0,"currency":"EUR","stock":"Цена по запросу","image":"","availability":"","priceUpdatedAt":"","lastFetchedAt":"","url":"https://bartsparts.com/products/gates-tt38508/"},{"id":"gates-ucf209","name":"Gates UCF209","nameOriginal":"UCF209","brand":"Gates","sku":"UCF209","category":"tractor","visual":"green","icon":"package","price":0,"sourcePrice":0,"oldPrice":0,"oldSourcePrice":0,"currency":"EUR","stock":"Цена по запросу","image":"","availability":"","priceUpdatedAt":"","lastFetchedAt":"","url":"https://bartsparts.com/products/gates-ucf209/"},{"id":"gates-z20459gat","name":"Gates Z20459GAT","nameOriginal":"Z20459GAT","brand":"Gates","sku":"Z20459GAT","category":"tractor","visual":"green","icon":"package","price":0,"sourcePrice":0,"oldPrice":0,"oldSourcePrice":0,"currency":"EUR","stock":"Цена по запросу","image":"","availability":"","priceUpdatedAt":"","lastFetchedAt":"","url":"https://bartsparts.com/products/gates-z20459gat/"},{"id":"gates-z32190gat","name":"Gates Z32190GAT","nameOriginal":"Z32190GAT","brand":"Gates","sku":"Z32190GAT","category":"tractor","visual":"green","icon":"package","price":0,"sourcePrice":0,"oldPrice":0,"oldSourcePrice":0,"currency":"EUR","stock":"Цена по запросу","image":"","availability":"","priceUpdatedAt":"","lastFetchedAt":"","url":"https://bartsparts.com/products/gates-z32190gat/"},{"id":"gates-z36120gat","name":"Gates Z36120GAT","nameOriginal":"Z36120GAT","brand":"Gates","sku":"Z36120GAT","category":"tractor","visual":"green","icon":"package","price":0,"sourcePrice":0,"oldPrice":0,"oldSourcePrice":0,"currency":"EUR","stock":"Цена по запросу","image":"","availability":"","priceUpdatedAt":"","lastFetchedAt":"","url":"https://bartsparts.com/products/gates-z36120gat/"},{"id":"gates-z56959gat","name":"Gates Z56959GAT","nameOriginal":"Z56959GAT","brand":"Gates","sku":"Z56959GAT","category":"tractor","visual":"green","icon":"package","price":0,"sourcePrice":0,"oldPrice":0,"oldSourcePrice":0,"currency":"EUR","stock":"Цена по запросу","image":"","availability":"","priceUpdatedAt":"","lastFetchedAt":"","url":"https://bartsparts.com/products/gates-z56959gat/"}]}
