{"metadata":{"brand":"STEYR","brandSlug":"steyr","page":4,"pages":4,"count":3018,"chunkSize":1000,"currency":"EUR","priceMarkupPercent":20},"products":[{"id":"steyr-sba140517050","name":"STEYR SBA140517050","nameOriginal":"SBA140517050","brand":"STEYR","sku":"SBA140517050","category":"tractor","visual":"green","icon":"package","price":0,"sourcePrice":0,"currency":"EUR","stock":"Цена по запросу","url":"https://bartsparts.com/products/steyr-sba140517050/"},{"id":"steyr-sba185206085","name":"STEYR SBA185206085","nameOriginal":"SBA185206085","brand":"STEYR","sku":"SBA185206085","category":"tractor","visual":"green","icon":"package","price":0,"sourcePrice":0,"currency":"EUR","stock":"Цена по запросу","url":"https://bartsparts.com/products/steyr-sba185206085/"},{"id":"steyr-serv0322ae","name":"STEYR SERV0322AE","nameOriginal":"SERV0322AE","brand":"STEYR","sku":"SERV0322AE","category":"tractor","visual":"green","icon":"package","price":0,"sourcePrice":0,"currency":"EUR","stock":"Цена по запросу","url":"https://bartsparts.com/products/steyr-serv0322ae/"},{"id":"steyr-steyrt188no","name":"STEYR STEYRT188NO","nameOriginal":"STEYRT188NO","brand":"STEYR","sku":"STEYRT188NO","category":"tractor","visual":"green","icon":"package","price":0,"sourcePrice":0,"currency":"EUR","stock":"Цена по запросу","url":"https://bartsparts.com/products/steyr-steyrt188no/"},{"id":"steyr-t102453","name":"STEYR T102453","nameOriginal":"T102453","brand":"STEYR","sku":"T102453","category":"tractor","visual":"green","icon":"package","price":0,"sourcePrice":0,"currency":"EUR","stock":"Цена по запросу","url":"https://bartsparts.com/products/steyr-t102453/"},{"id":"steyr-t103567","name":"STEYR T103567","nameOriginal":"T103567","brand":"STEYR","sku":"T103567","category":"tractor","visual":"green","icon":"package","price":0,"sourcePrice":0,"currency":"EUR","stock":"Цена по запросу","url":"https://bartsparts.com/products/steyr-t103567/"},{"id":"steyr-tpagh0318d","name":"STEYR TPAGH0318D","nameOriginal":"TPAGH0318D","brand":"STEYR","sku":"TPAGH0318D","category":"tractor","visual":"green","icon":"package","price":0,"sourcePrice":0,"currency":"EUR","stock":"Цена по запросу","url":"https://bartsparts.com/products/steyr-tpagh0318d/"},{"id":"steyr-zt001hl","name":"STEYR ZT001HL","nameOriginal":"ZT001HL","brand":"STEYR","sku":"ZT001HL","category":"tractor","visual":"green","icon":"package","price":0,"sourcePrice":0,"currency":"EUR","stock":"Цена по запросу","url":"https://bartsparts.com/products/steyr-zt001hl/"},{"id":"steyr-ztn10999211","name":"STEYR ZTN10999211","nameOriginal":"ZTN10999211","brand":"STEYR","sku":"ZTN10999211","category":"tractor","visual":"green","icon":"package","price":0,"sourcePrice":0,"currency":"EUR","stock":"Цена по запросу","url":"https://bartsparts.com/products/steyr-ztn10999211/"},{"id":"steyr-ztn110545","name":"STEYR ZTN110545","nameOriginal":"ZTN110545","brand":"STEYR","sku":"ZTN110545","category":"tractor","visual":"green","icon":"package","price":0,"sourcePrice":0,"currency":"EUR","stock":"Цена по запросу","url":"https://bartsparts.com/products/steyr-ztn110545/"},{"id":"steyr-ztn110551","name":"STEYR ZTN110551","nameOriginal":"ZTN110551","brand":"STEYR","sku":"ZTN110551","category":"tractor","visual":"green","icon":"package","price":0,"sourcePrice":0,"currency":"EUR","stock":"Цена по запросу","url":"https://bartsparts.com/products/steyr-ztn110551/"},{"id":"steyr-ztn118084","name":"STEYR ZTN118084","nameOriginal":"ZTN118084","brand":"STEYR","sku":"ZTN118084","category":"tractor","visual":"green","icon":"package","price":0,"sourcePrice":0,"currency":"EUR","stock":"Цена по запросу","url":"https://bartsparts.com/products/steyr-ztn118084/"},{"id":"steyr-ztn13200082","name":"STEYR ZTN13200082","nameOriginal":"ZTN13200082","brand":"STEYR","sku":"ZTN13200082","category":"tractor","visual":"green","icon":"package","price":0,"sourcePrice":0,"currency":"EUR","stock":"Цена по запросу","url":"https://bartsparts.com/products/steyr-ztn13200082/"},{"id":"steyr-ztn5135505s","name":"STEYR ZTN5135505S","nameOriginal":"ZTN5135505S","brand":"STEYR","sku":"ZTN5135505S","category":"tractor","visual":"green","icon":"package","price":0,"sourcePrice":0,"currency":"EUR","stock":"Цена по запросу","url":"https://bartsparts.com/products/steyr-ztn5135505s/"},{"id":"steyr-ztn7810049rs","name":"STEYR ZTN7810049RS","nameOriginal":"ZTN7810049RS","brand":"STEYR","sku":"ZTN7810049RS","category":"tractor","visual":"green","icon":"package","price":0,"sourcePrice":0,"currency":"EUR","stock":"Цена по запросу","url":"https://bartsparts.com/products/steyr-ztn7810049rs/"},{"id":"steyr-ztn7810050rs","name":"STEYR ZTN7810050RS","nameOriginal":"ZTN7810050RS","brand":"STEYR","sku":"ZTN7810050RS","category":"tractor","visual":"green","icon":"package","price":0,"sourcePrice":0,"currency":"EUR","stock":"Цена по запросу","url":"https://bartsparts.com/products/steyr-ztn7810050rs/"},{"id":"steyr-ztn85000102","name":"STEYR ZTN85000102","nameOriginal":"ZTN85000102","brand":"STEYR","sku":"ZTN85000102","category":"tractor","visual":"green","icon":"package","price":0,"sourcePrice":0,"currency":"EUR","stock":"Цена по запросу","url":"https://bartsparts.com/products/steyr-ztn85000102/"},{"id":"steyr-ztn9655312","name":"STEYR ZTN9655312","nameOriginal":"ZTN9655312","brand":"STEYR","sku":"ZTN9655312","category":"tractor","visual":"green","icon":"package","price":0,"sourcePrice":0,"currency":"EUR","stock":"Цена по запросу","url":"https://bartsparts.com/products/steyr-ztn9655312/"}]}
