{"metadata":{"brand":"Doosan","brandSlug":"doosan","page":2,"pages":2,"count":1037,"chunkSize":1000,"currency":"EUR","priceMarkupPercent":20},"products":[{"id":"doosan-pbob7280497","name":"Doosan PBOB7280497","nameOriginal":"PBOB7280497","brand":"Doosan","sku":"PBOB7280497","category":"tractor","visual":"amber","icon":"package","price":0,"sourcePrice":0,"currency":"EUR","stock":"Цена по запросу","url":"https://bartsparts.com/products/doosan-pbob7280497/"},{"id":"doosan-pdos12500072","name":"Doosan PDOS12500072","nameOriginal":"PDOS12500072","brand":"Doosan","sku":"PDOS12500072","category":"tractor","visual":"amber","icon":"package","price":0,"sourcePrice":0,"currency":"EUR","stock":"Цена по запросу","url":"https://bartsparts.com/products/doosan-pdos12500072/"},{"id":"doosan-pdosa159228","name":"Doosan PDOSA159228","nameOriginal":"PDOSA159228","brand":"Doosan","sku":"PDOSA159228","category":"tractor","visual":"amber","icon":"package","price":0,"sourcePrice":0,"currency":"EUR","stock":"Цена по запросу","url":"https://bartsparts.com/products/doosan-pdosa159228/"},{"id":"doosan-pdosa304400","name":"Doosan PDOSA304400","nameOriginal":"PDOSA304400","brand":"Doosan","sku":"PDOSA304400","category":"tractor","visual":"amber","icon":"package","price":0,"sourcePrice":0,"currency":"EUR","stock":"Цена по запросу","url":"https://bartsparts.com/products/doosan-pdosa304400/"},{"id":"doosan-pdosa524037","name":"Doosan PDOSA524037","nameOriginal":"PDOSA524037","brand":"Doosan","sku":"PDOSA524037","category":"tractor","visual":"amber","icon":"package","price":0,"sourcePrice":0,"currency":"EUR","stock":"Цена по запросу","url":"https://bartsparts.com/products/doosan-pdosa524037/"},{"id":"doosan-pdosa524912","name":"Doosan PDOSA524912","nameOriginal":"PDOSA524912","brand":"Doosan","sku":"PDOSA524912","category":"tractor","visual":"amber","icon":"package","price":0,"sourcePrice":0,"currency":"EUR","stock":"Цена по запросу","url":"https://bartsparts.com/products/doosan-pdosa524912/"},{"id":"doosan-pdosd144207","name":"Doosan PDOSD144207","nameOriginal":"PDOSD144207","brand":"Doosan","sku":"PDOSD144207","category":"tractor","visual":"amber","icon":"package","price":0,"sourcePrice":0,"currency":"EUR","stock":"Цена по запросу","url":"https://bartsparts.com/products/doosan-pdosd144207/"},{"id":"doosan-pr082","name":"Doosan PR082","nameOriginal":"PR082","brand":"Doosan","sku":"PR082","category":"tractor","visual":"amber","icon":"package","price":0,"sourcePrice":0,"currency":"EUR","stock":"Цена по запросу","url":"https://bartsparts.com/products/doosan-pr082/"},{"id":"doosan-s0521366","name":"Doosan S0521366","nameOriginal":"S0521366","brand":"Doosan","sku":"S0521366","category":"tractor","visual":"amber","icon":"package","price":0,"sourcePrice":0,"currency":"EUR","stock":"Цена по запросу","url":"https://bartsparts.com/products/doosan-s0521366/"},{"id":"doosan-s0534266","name":"Doosan S0534266","nameOriginal":"S0534266","brand":"Doosan","sku":"S0534266","category":"tractor","visual":"amber","icon":"package","price":0,"sourcePrice":0,"currency":"EUR","stock":"Цена по запросу","url":"https://bartsparts.com/products/doosan-s0534266/"},{"id":"doosan-s0566266","name":"Doosan S0566266","nameOriginal":"S0566266","brand":"Doosan","sku":"S0566266","category":"tractor","visual":"amber","icon":"package","price":0,"sourcePrice":0,"currency":"EUR","stock":"Цена по запросу","url":"https://bartsparts.com/products/doosan-s0566266/"},{"id":"doosan-s0570166","name":"Doosan S0570166","nameOriginal":"S0570166","brand":"Doosan","sku":"S0570166","category":"tractor","visual":"amber","icon":"package","price":0,"sourcePrice":0,"currency":"EUR","stock":"Цена по запросу","url":"https://bartsparts.com/products/doosan-s0570166/"},{"id":"doosan-s0775666","name":"Doosan S0775666","nameOriginal":"S0775666","brand":"Doosan","sku":"S0775666","category":"tractor","visual":"amber","icon":"package","price":0,"sourcePrice":0,"currency":"EUR","stock":"Цена по запросу","url":"https://bartsparts.com/products/doosan-s0775666/"},{"id":"doosan-s3450823","name":"Doosan S3450823","nameOriginal":"S3450823","brand":"Doosan","sku":"S3450823","category":"tractor","visual":"amber","icon":"package","price":0,"sourcePrice":0,"currency":"EUR","stock":"Цена по запросу","url":"https://bartsparts.com/products/doosan-s3450823/"},{"id":"doosan-s3523836","name":"Doosan S3523836","nameOriginal":"S3523836","brand":"Doosan","sku":"S3523836","category":"tractor","visual":"amber","icon":"package","price":0,"sourcePrice":0,"currency":"EUR","stock":"Цена по запросу","url":"https://bartsparts.com/products/doosan-s3523836/"},{"id":"doosan-s4033541","name":"Doosan S4033541","nameOriginal":"S4033541","brand":"Doosan","sku":"S4033541","category":"tractor","visual":"amber","icon":"package","price":0,"sourcePrice":0,"currency":"EUR","stock":"Цена по запросу","url":"https://bartsparts.com/products/doosan-s4033541/"},{"id":"doosan-s5010303","name":"Doosan S5010303","nameOriginal":"S5010303","brand":"Doosan","sku":"S5010303","category":"tractor","visual":"amber","icon":"package","price":0,"sourcePrice":0,"currency":"EUR","stock":"Цена по запросу","url":"https://bartsparts.com/products/doosan-s5010303/"},{"id":"doosan-s5010913","name":"Doosan S5010913","nameOriginal":"S5010913","brand":"Doosan","sku":"S5010913","category":"tractor","visual":"amber","icon":"package","price":0,"sourcePrice":0,"currency":"EUR","stock":"Цена по запросу","url":"https://bartsparts.com/products/doosan-s5010913/"},{"id":"doosan-s5102906","name":"Doosan S5102906","nameOriginal":"S5102906","brand":"Doosan","sku":"S5102906","category":"tractor","visual":"amber","icon":"package","price":0,"sourcePrice":0,"currency":"EUR","stock":"Цена по запросу","url":"https://bartsparts.com/products/doosan-s5102906/"},{"id":"doosan-s6500800","name":"Doosan S6500800","nameOriginal":"S6500800","brand":"Doosan","sku":"S6500800","category":"tractor","visual":"amber","icon":"package","price":0,"sourcePrice":0,"currency":"EUR","stock":"Цена по запросу","url":"https://bartsparts.com/products/doosan-s6500800/"},{"id":"doosan-s6510380","name":"Doosan S6510380","nameOriginal":"S6510380","brand":"Doosan","sku":"S6510380","category":"tractor","visual":"amber","icon":"package","price":0,"sourcePrice":0,"currency":"EUR","stock":"Цена по запросу","url":"https://bartsparts.com/products/doosan-s6510380/"},{"id":"doosan-s8000231","name":"Doosan S8000231","nameOriginal":"S8000231","brand":"Doosan","sku":"S8000231","category":"tractor","visual":"amber","icon":"package","price":0,"sourcePrice":0,"currency":"EUR","stock":"Цена по запросу","url":"https://bartsparts.com/products/doosan-s8000231/"},{"id":"doosan-s8000235","name":"Doosan S8000235","nameOriginal":"S8000235","brand":"Doosan","sku":"S8000235","category":"tractor","visual":"amber","icon":"package","price":0,"sourcePrice":0,"currency":"EUR","stock":"Цена по запросу","url":"https://bartsparts.com/products/doosan-s8000235/"},{"id":"doosan-s8000321","name":"Doosan S8000321","nameOriginal":"S8000321","brand":"Doosan","sku":"S8000321","category":"tractor","visual":"amber","icon":"package","price":0,"sourcePrice":0,"currency":"EUR","stock":"Цена по запросу","url":"https://bartsparts.com/products/doosan-s8000321/"},{"id":"doosan-s8001101","name":"Doosan S8001101","nameOriginal":"S8001101","brand":"Doosan","sku":"S8001101","category":"tractor","visual":"amber","icon":"package","price":0,"sourcePrice":0,"currency":"EUR","stock":"Цена по запросу","url":"https://bartsparts.com/products/doosan-s8001101/"},{"id":"doosan-s8010230","name":"Doosan S8010230","nameOriginal":"S8010230","brand":"Doosan","sku":"S8010230","category":"tractor","visual":"amber","icon":"package","price":0,"sourcePrice":0,"currency":"EUR","stock":"Цена по запросу","url":"https://bartsparts.com/products/doosan-s8010230/"},{"id":"doosan-s8010251","name":"Doosan S8010251","nameOriginal":"S8010251","brand":"Doosan","sku":"S8010251","category":"tractor","visual":"amber","icon":"package","price":0,"sourcePrice":0,"currency":"EUR","stock":"Цена по запросу","url":"https://bartsparts.com/products/doosan-s8010251/"},{"id":"doosan-s8010650","name":"Doosan S8010650","nameOriginal":"S8010650","brand":"Doosan","sku":"S8010650","category":"tractor","visual":"amber","icon":"package","price":0,"sourcePrice":0,"currency":"EUR","stock":"Цена по запросу","url":"https://bartsparts.com/products/doosan-s8010650/"},{"id":"doosan-s8010751","name":"Doosan S8010751","nameOriginal":"S8010751","brand":"Doosan","sku":"S8010751","category":"tractor","visual":"amber","icon":"package","price":0,"sourcePrice":0,"currency":"EUR","stock":"Цена по запросу","url":"https://bartsparts.com/products/doosan-s8010751/"},{"id":"doosan-s8010800","name":"Doosan S8010800","nameOriginal":"S8010800","brand":"Doosan","sku":"S8010800","category":"tractor","visual":"amber","icon":"package","price":0,"sourcePrice":0,"currency":"EUR","stock":"Цена по запросу","url":"https://bartsparts.com/products/doosan-s8010800/"},{"id":"doosan-s8011101","name":"Doosan S8011101","nameOriginal":"S8011101","brand":"Doosan","sku":"S8011101","category":"tractor","visual":"amber","icon":"package","price":0,"sourcePrice":0,"currency":"EUR","stock":"Цена по запросу","url":"https://bartsparts.com/products/doosan-s8011101/"},{"id":"doosan-s8011850","name":"Doosan S8011850","nameOriginal":"S8011850","brand":"Doosan","sku":"S8011850","category":"tractor","visual":"amber","icon":"package","price":0,"sourcePrice":0,"currency":"EUR","stock":"Цена по запросу","url":"https://bartsparts.com/products/doosan-s8011850/"},{"id":"doosan-s8012200","name":"Doosan S8012200","nameOriginal":"S8012200","brand":"Doosan","sku":"S8012200","category":"tractor","visual":"amber","icon":"package","price":0,"sourcePrice":0,"currency":"EUR","stock":"Цена по запросу","url":"https://bartsparts.com/products/doosan-s8012200/"},{"id":"doosan-s8012300","name":"Doosan S8012300","nameOriginal":"S8012300","brand":"Doosan","sku":"S8012300","category":"tractor","visual":"amber","icon":"package","price":0,"sourcePrice":0,"currency":"EUR","stock":"Цена по запросу","url":"https://bartsparts.com/products/doosan-s8012300/"},{"id":"doosan-s8500130","name":"Doosan S8500130","nameOriginal":"S8500130","brand":"Doosan","sku":"S8500130","category":"tractor","visual":"amber","icon":"package","price":0,"sourcePrice":0,"currency":"EUR","stock":"Цена по запросу","url":"https://bartsparts.com/products/doosan-s8500130/"},{"id":"doosan-sn25064","name":"Doosan SN25064","nameOriginal":"SN25064","brand":"Doosan","sku":"SN25064","category":"tractor","visual":"amber","icon":"package","price":0,"sourcePrice":0,"currency":"EUR","stock":"Цена по запросу","url":"https://bartsparts.com/products/doosan-sn25064/"},{"id":"doosan-wh5866203205","name":"Doosan WH5866203205","nameOriginal":"WH5866203205","brand":"Doosan","sku":"WH5866203205","category":"tractor","visual":"amber","icon":"package","price":0,"sourcePrice":0,"currency":"EUR","stock":"Цена по запросу","url":"https://bartsparts.com/products/doosan-wh5866203205/"}]}
