{"metadata":{"brand":"Claas NO","brandSlug":"claas-no","page":3,"pages":3,"count":2037,"chunkSize":1000,"currency":"EUR","priceMarkupPercent":20},"products":[{"id":"claas-no-jag010074no","name":"Claas NO JAG010074NO","nameOriginal":"JAG010074NO","brand":"Claas NO","sku":"JAG010074NO","category":"tractor","visual":"danger","icon":"package","price":0,"sourcePrice":0,"oldPrice":0,"oldSourcePrice":0,"currency":"EUR","stock":"Цена по запросу","image":"","availability":"","priceUpdatedAt":"","lastFetchedAt":"","url":"https://bartsparts.com/products/claas-no-jag010074no/"},{"id":"claas-no-jag01ooo8522190gno","name":"Claas NO JAG01OOO8522190GNO","nameOriginal":"JAG01OOO8522190GNO","brand":"Claas NO","sku":"JAG01OOO8522190GNO","category":"tractor","visual":"danger","icon":"package","price":0,"sourcePrice":0,"oldPrice":0,"oldSourcePrice":0,"currency":"EUR","stock":"Цена по запросу","image":"","availability":"","priceUpdatedAt":"","lastFetchedAt":"","url":"https://bartsparts.com/products/claas-no-jag01ooo8522190gno/"},{"id":"claas-no-jag020026610357gno","name":"Claas NO JAG020026610357GNO","nameOriginal":"JAG020026610357GNO","brand":"Claas NO","sku":"JAG020026610357GNO","category":"tractor","visual":"danger","icon":"package","price":0,"sourcePrice":0,"oldPrice":0,"oldSourcePrice":0,"currency":"EUR","stock":"Цена по запросу","image":"","availability":"","priceUpdatedAt":"","lastFetchedAt":"","url":"https://bartsparts.com/products/claas-no-jag020026610357gno/"},{"id":"claas-no-jag020028610359gno","name":"Claas NO JAG020028610359GNO","nameOriginal":"JAG020028610359GNO","brand":"Claas NO","sku":"JAG020028610359GNO","category":"tractor","visual":"danger","icon":"package","price":0,"sourcePrice":0,"oldPrice":0,"oldSourcePrice":0,"currency":"EUR","stock":"Цена по запросу","image":"","availability":"","priceUpdatedAt":"","lastFetchedAt":"","url":"https://bartsparts.com/products/claas-no-jag020028610359gno/"},{"id":"claas-no-jag020031610482gno","name":"Claas NO JAG020031610482GNO","nameOriginal":"JAG020031610482GNO","brand":"Claas NO","sku":"JAG020031610482GNO","category":"tractor","visual":"danger","icon":"package","price":0,"sourcePrice":0,"oldPrice":0,"oldSourcePrice":0,"currency":"EUR","stock":"Цена по запросу","image":"","availability":"","priceUpdatedAt":"","lastFetchedAt":"","url":"https://bartsparts.com/products/claas-no-jag020031610482gno/"},{"id":"claas-no-jag0200351610368gno","name":"Claas NO JAG0200351610368GNO","nameOriginal":"JAG0200351610368GNO","brand":"Claas NO","sku":"JAG0200351610368GNO","category":"tractor","visual":"danger","icon":"package","price":0,"sourcePrice":0,"oldPrice":0,"oldSourcePrice":0,"currency":"EUR","stock":"Цена по запросу","image":"","availability":"","priceUpdatedAt":"","lastFetchedAt":"","url":"https://bartsparts.com/products/claas-no-jag0200351610368gno/"},{"id":"claas-no-jag02003761033001no","name":"Claas NO JAG02003761033001NO","nameOriginal":"JAG02003761033001NO","brand":"Claas NO","sku":"JAG02003761033001NO","category":"tractor","visual":"danger","icon":"package","price":0,"sourcePrice":0,"oldPrice":0,"oldSourcePrice":0,"currency":"EUR","stock":"Цена по запросу","image":"","availability":"","priceUpdatedAt":"","lastFetchedAt":"","url":"https://bartsparts.com/products/claas-no-jag02003761033001no/"},{"id":"claas-no-jag020043no","name":"Claas NO JAG020043NO","nameOriginal":"JAG020043NO","brand":"Claas NO","sku":"JAG020043NO","category":"tractor","visual":"danger","icon":"package","price":0,"sourcePrice":0,"oldPrice":0,"oldSourcePrice":0,"currency":"EUR","stock":"Цена по запросу","image":"","availability":"","priceUpdatedAt":"","lastFetchedAt":"","url":"https://bartsparts.com/products/claas-no-jag020043no/"},{"id":"claas-no-jag020045609965mno","name":"Claas NO JAG020045609965MNO","nameOriginal":"JAG020045609965MNO","brand":"Claas NO","sku":"JAG020045609965MNO","category":"tractor","visual":"danger","icon":"package","price":0,"sourcePrice":0,"oldPrice":0,"oldSourcePrice":0,"currency":"EUR","stock":"Цена по запросу","image":"","availability":"","priceUpdatedAt":"","lastFetchedAt":"","url":"https://bartsparts.com/products/claas-no-jag020045609965mno/"},{"id":"claas-no-jag020047610428gno","name":"Claas NO JAG020047610428GNO","nameOriginal":"JAG020047610428GNO","brand":"Claas NO","sku":"JAG020047610428GNO","category":"tractor","visual":"danger","icon":"package","price":0,"sourcePrice":0,"oldPrice":0,"oldSourcePrice":0,"currency":"EUR","stock":"Цена по запросу","image":"","availability":"","priceUpdatedAt":"","lastFetchedAt":"","url":"https://bartsparts.com/products/claas-no-jag020047610428gno/"},{"id":"claas-no-jag02005818050921no","name":"Claas NO JAG02005818050921NO","nameOriginal":"JAG02005818050921NO","brand":"Claas NO","sku":"JAG02005818050921NO","category":"tractor","visual":"danger","icon":"package","price":0,"sourcePrice":0,"oldPrice":0,"oldSourcePrice":0,"currency":"EUR","stock":"Цена по запросу","image":"","availability":"","priceUpdatedAt":"","lastFetchedAt":"","url":"https://bartsparts.com/products/claas-no-jag02005818050921no/"},{"id":"claas-no-jag050027618254gno","name":"Claas NO JAG050027618254GNO","nameOriginal":"JAG050027618254GNO","brand":"Claas NO","sku":"JAG050027618254GNO","category":"tractor","visual":"danger","icon":"package","price":0,"sourcePrice":0,"oldPrice":0,"oldSourcePrice":0,"currency":"EUR","stock":"Цена по запросу","image":"","availability":"","priceUpdatedAt":"","lastFetchedAt":"","url":"https://bartsparts.com/products/claas-no-jag050027618254gno/"},{"id":"claas-no-jag200926133070no","name":"Claas NO JAG200926133070NO","nameOriginal":"JAG200926133070NO","brand":"Claas NO","sku":"JAG200926133070NO","category":"tractor","visual":"danger","icon":"package","price":0,"sourcePrice":0,"oldPrice":0,"oldSourcePrice":0,"currency":"EUR","stock":"Цена по запросу","image":"","availability":"","priceUpdatedAt":"","lastFetchedAt":"","url":"https://bartsparts.com/products/claas-no-jag200926133070no/"},{"id":"claas-no-jag250064no","name":"Claas NO JAG250064NO","nameOriginal":"JAG250064NO","brand":"Claas NO","sku":"JAG250064NO","category":"tractor","visual":"danger","icon":"package","price":0,"sourcePrice":0,"oldPrice":0,"oldSourcePrice":0,"currency":"EUR","stock":"Цена по запросу","image":"","availability":"","priceUpdatedAt":"","lastFetchedAt":"","url":"https://bartsparts.com/products/claas-no-jag250064no/"},{"id":"claas-no-jd61033800no","name":"Claas NO JD61033800NO","nameOriginal":"JD61033800NO","brand":"Claas NO","sku":"JD61033800NO","category":"tractor","visual":"danger","icon":"package","price":0,"sourcePrice":0,"oldPrice":0,"oldSourcePrice":0,"currency":"EUR","stock":"Цена по запросу","image":"","availability":"","priceUpdatedAt":"","lastFetchedAt":"","url":"https://bartsparts.com/products/claas-no-jd61033800no/"},{"id":"claas-no-kn14963no","name":"Claas NO KN14963NO","nameOriginal":"KN14963NO","brand":"Claas NO","sku":"KN14963NO","category":"tractor","visual":"danger","icon":"package","price":0,"sourcePrice":0,"oldPrice":0,"oldSourcePrice":0,"currency":"EUR","stock":"Цена по запросу","image":"","availability":"","priceUpdatedAt":"","lastFetchedAt":"","url":"https://bartsparts.com/products/claas-no-kn14963no/"},{"id":"claas-no-kolo95r48","name":"Claas NO KOLO95R48","nameOriginal":"KOLO95R48","brand":"Claas NO","sku":"KOLO95R48","category":"tractor","visual":"danger","icon":"package","price":0,"sourcePrice":0,"oldPrice":0,"oldSourcePrice":0,"currency":"EUR","stock":"Цена по запросу","image":"","availability":"","priceUpdatedAt":"","lastFetchedAt":"","url":"https://bartsparts.com/products/claas-no-kolo95r48/"},{"id":"claas-no-kosarzepakelektrj","name":"Claas NO KOSARZEPAKELEKTRJ","nameOriginal":"KOSARZEPAKELEKTRJ","brand":"Claas NO","sku":"KOSARZEPAKELEKTRJ","category":"tractor","visual":"danger","icon":"package","price":0,"sourcePrice":0,"oldPrice":0,"oldSourcePrice":0,"currency":"EUR","stock":"Цена по запросу","image":"","availability":"","priceUpdatedAt":"","lastFetchedAt":"","url":"https://bartsparts.com/products/claas-no-kosarzepakelektrj/"},{"id":"claas-no-ms2501","name":"Claas NO MS2501","nameOriginal":"MS2501","brand":"Claas NO","sku":"MS2501","category":"tractor","visual":"danger","icon":"package","price":0,"sourcePrice":0,"oldPrice":0,"oldSourcePrice":0,"currency":"EUR","stock":"Цена по запросу","image":"","availability":"","priceUpdatedAt":"","lastFetchedAt":"","url":"https://bartsparts.com/products/claas-no-ms2501/"},{"id":"claas-no-p20533","name":"Claas NO P20533","nameOriginal":"P20533","brand":"Claas NO","sku":"P20533","category":"tractor","visual":"danger","icon":"package","price":0,"sourcePrice":0,"oldPrice":0,"oldSourcePrice":0,"currency":"EUR","stock":"Цена по запросу","image":"","availability":"","priceUpdatedAt":"","lastFetchedAt":"","url":"https://bartsparts.com/products/claas-no-p20533/"},{"id":"claas-no-p20633","name":"Claas NO P20633","nameOriginal":"P20633","brand":"Claas NO","sku":"P20633","category":"tractor","visual":"danger","icon":"package","price":0,"sourcePrice":0,"oldPrice":0,"oldSourcePrice":0,"currency":"EUR","stock":"Цена по запросу","image":"","availability":"","priceUpdatedAt":"","lastFetchedAt":"","url":"https://bartsparts.com/products/claas-no-p20633/"},{"id":"claas-no-p20733","name":"Claas NO P20733","nameOriginal":"P20733","brand":"Claas NO","sku":"P20733","category":"tractor","visual":"danger","icon":"package","price":0,"sourcePrice":0,"oldPrice":0,"oldSourcePrice":0,"currency":"EUR","stock":"Цена по запросу","image":"","availability":"","priceUpdatedAt":"","lastFetchedAt":"","url":"https://bartsparts.com/products/claas-no-p20733/"},{"id":"claas-no-pep160mm","name":"Claas NO PEP160MM","nameOriginal":"PEP160MM","brand":"Claas NO","sku":"PEP160MM","category":"tractor","visual":"danger","icon":"package","price":0,"sourcePrice":0,"oldPrice":0,"oldSourcePrice":0,"currency":"EUR","stock":"Цена по запросу","image":"","availability":"","priceUpdatedAt":"","lastFetchedAt":"","url":"https://bartsparts.com/products/claas-no-pep160mm/"},{"id":"claas-no-pep275mm","name":"Claas NO PEP275MM","nameOriginal":"PEP275MM","brand":"Claas NO","sku":"PEP275MM","category":"tractor","visual":"danger","icon":"package","price":0,"sourcePrice":0,"oldPrice":0,"oldSourcePrice":0,"currency":"EUR","stock":"Цена по запросу","image":"","availability":"","priceUpdatedAt":"","lastFetchedAt":"","url":"https://bartsparts.com/products/claas-no-pep275mm/"},{"id":"claas-no-purho0036","name":"Claas NO PURHO0036","nameOriginal":"PURHO0036","brand":"Claas NO","sku":"PURHO0036","category":"tractor","visual":"danger","icon":"package","price":0,"sourcePrice":0,"oldPrice":0,"oldSourcePrice":0,"currency":"EUR","stock":"Цена по запросу","image":"","availability":"","priceUpdatedAt":"","lastFetchedAt":"","url":"https://bartsparts.com/products/claas-no-purho0036/"},{"id":"claas-no-r501124no","name":"Claas NO R501124NO","nameOriginal":"R501124NO","brand":"Claas NO","sku":"R501124NO","category":"tractor","visual":"danger","icon":"package","price":0,"sourcePrice":0,"oldPrice":0,"oldSourcePrice":0,"currency":"EUR","stock":"Цена по запросу","image":"","availability":"","priceUpdatedAt":"","lastFetchedAt":"","url":"https://bartsparts.com/products/claas-no-r501124no/"},{"id":"claas-no-re502513","name":"Claas NO RE502513","nameOriginal":"RE502513","brand":"Claas NO","sku":"RE502513","category":"tractor","visual":"danger","icon":"package","price":0,"sourcePrice":0,"oldPrice":0,"oldSourcePrice":0,"currency":"EUR","stock":"Цена по запросу","image":"","availability":"","priceUpdatedAt":"","lastFetchedAt":"","url":"https://bartsparts.com/products/claas-no-re502513/"},{"id":"claas-no-sarzepakelektrjag","name":"Claas NO SARZEPAKELEKTRJAG","nameOriginal":"SARZEPAKELEKTRJAG","brand":"Claas NO","sku":"SARZEPAKELEKTRJAG","category":"tractor","visual":"danger","icon":"package","price":0,"sourcePrice":0,"oldPrice":0,"oldSourcePrice":0,"currency":"EUR","stock":"Цена по запросу","image":"","availability":"","priceUpdatedAt":"","lastFetchedAt":"","url":"https://bartsparts.com/products/claas-no-sarzepakelektrjag/"},{"id":"claas-no-schbagnet201","name":"Claas NO SCHBAGNET201","nameOriginal":"SCHBAGNET201","brand":"Claas NO","sku":"SCHBAGNET201","category":"tractor","visual":"danger","icon":"package","price":0,"sourcePrice":0,"oldPrice":0,"oldSourcePrice":0,"currency":"EUR","stock":"Цена по запросу","image":"","availability":"","priceUpdatedAt":"","lastFetchedAt":"","url":"https://bartsparts.com/products/claas-no-schbagnet201/"},{"id":"claas-no-serie10010352","name":"Claas NO SERIE10010352","nameOriginal":"SERIE10010352","brand":"Claas NO","sku":"SERIE10010352","category":"tractor","visual":"danger","icon":"package","price":0,"sourcePrice":0,"oldPrice":0,"oldSourcePrice":0,"currency":"EUR","stock":"Цена по запросу","image":"","availability":"","priceUpdatedAt":"","lastFetchedAt":"","url":"https://bartsparts.com/products/claas-no-serie10010352/"},{"id":"claas-no-sh52161no","name":"Claas NO SH52161NO","nameOriginal":"SH52161NO","brand":"Claas NO","sku":"SH52161NO","category":"tractor","visual":"danger","icon":"package","price":0,"sourcePrice":0,"oldPrice":0,"oldSourcePrice":0,"currency":"EUR","stock":"Цена по запросу","image":"","availability":"","priceUpdatedAt":"","lastFetchedAt":"","url":"https://bartsparts.com/products/claas-no-sh52161no/"},{"id":"claas-no-u5mw0107no","name":"Claas NO U5MW0107NO","nameOriginal":"U5MW0107NO","brand":"Claas NO","sku":"U5MW0107NO","category":"tractor","visual":"danger","icon":"package","price":0,"sourcePrice":0,"oldPrice":0,"oldSourcePrice":0,"currency":"EUR","stock":"Цена по запросу","image":"","availability":"","priceUpdatedAt":"","lastFetchedAt":"","url":"https://bartsparts.com/products/claas-no-u5mw0107no/"},{"id":"claas-no-veos3537no","name":"Claas NO VEOS3537NO","nameOriginal":"VEOS3537NO","brand":"Claas NO","sku":"VEOS3537NO","category":"tractor","visual":"danger","icon":"package","price":0,"sourcePrice":0,"oldPrice":0,"oldSourcePrice":0,"currency":"EUR","stock":"Цена по запросу","image":"","availability":"","priceUpdatedAt":"","lastFetchedAt":"","url":"https://bartsparts.com/products/claas-no-veos3537no/"},{"id":"claas-no-z0005546891no","name":"Claas NO Z0005546891NO","nameOriginal":"Z0005546891NO","brand":"Claas NO","sku":"Z0005546891NO","category":"tractor","visual":"danger","icon":"package","price":0,"sourcePrice":0,"oldPrice":0,"oldSourcePrice":0,"currency":"EUR","stock":"Цена по запросу","image":"","availability":"","priceUpdatedAt":"","lastFetchedAt":"","url":"https://bartsparts.com/products/claas-no-z0005546891no/"},{"id":"claas-no-z0011369500no","name":"Claas NO Z0011369500NO","nameOriginal":"Z0011369500NO","brand":"Claas NO","sku":"Z0011369500NO","category":"tractor","visual":"danger","icon":"package","price":0,"sourcePrice":0,"oldPrice":0,"oldSourcePrice":0,"currency":"EUR","stock":"Цена по запросу","image":"","availability":"","priceUpdatedAt":"","lastFetchedAt":"","url":"https://bartsparts.com/products/claas-no-z0011369500no/"},{"id":"claas-no-z303847no","name":"Claas NO Z303847NO","nameOriginal":"Z303847NO","brand":"Claas NO","sku":"Z303847NO","category":"tractor","visual":"danger","icon":"package","price":0,"sourcePrice":0,"oldPrice":0,"oldSourcePrice":0,"currency":"EUR","stock":"Цена по запросу","image":"","availability":"","priceUpdatedAt":"","lastFetchedAt":"","url":"https://bartsparts.com/products/claas-no-z303847no/"},{"id":"claas-no-z6037591no","name":"Claas NO Z6037591NO","nameOriginal":"Z6037591NO","brand":"Claas NO","sku":"Z6037591NO","category":"tractor","visual":"danger","icon":"package","price":0,"sourcePrice":0,"oldPrice":0,"oldSourcePrice":0,"currency":"EUR","stock":"Цена по запросу","image":"","availability":"","priceUpdatedAt":"","lastFetchedAt":"","url":"https://bartsparts.com/products/claas-no-z6037591no/"}]}
