{"metadata":{"brand":"DETROIT","brandSlug":"detroit","page":3,"pages":3,"count":2013,"chunkSize":1000,"currency":"EUR","priceMarkupPercent":20},"products":[{"id":"detroit-r5229405","name":"DETROIT R5229405","nameOriginal":"R5229405","brand":"DETROIT","sku":"R5229405","category":"tractor","visual":"blue","icon":"package","price":0,"sourcePrice":0,"currency":"EUR","stock":"Цена по запросу","url":"https://bartsparts.com/products/detroit-r5229405/"},{"id":"detroit-r5229410","name":"DETROIT R5229410","nameOriginal":"R5229410","brand":"DETROIT","sku":"R5229410","category":"tractor","visual":"blue","icon":"package","price":0,"sourcePrice":0,"currency":"EUR","stock":"Цена по запросу","url":"https://bartsparts.com/products/detroit-r5229410/"},{"id":"detroit-r5229650","name":"DETROIT R5229650","nameOriginal":"R5229650","brand":"DETROIT","sku":"R5229650","category":"tractor","visual":"blue","icon":"package","price":0,"sourcePrice":0,"currency":"EUR","stock":"Цена по запросу","url":"https://bartsparts.com/products/detroit-r5229650/"},{"id":"detroit-r5229820t","name":"DETROIT R5229820T","nameOriginal":"R5229820T","brand":"DETROIT","sku":"R5229820T","category":"tractor","visual":"blue","icon":"package","price":0,"sourcePrice":0,"currency":"EUR","stock":"Цена по запросу","url":"https://bartsparts.com/products/detroit-r5229820t/"},{"id":"detroit-r5234785","name":"DETROIT R5234785","nameOriginal":"R5234785","brand":"DETROIT","sku":"R5234785","category":"tractor","visual":"blue","icon":"package","price":0,"sourcePrice":0,"currency":"EUR","stock":"Цена по запросу","url":"https://bartsparts.com/products/detroit-r5234785/"},{"id":"detroit-r5234920","name":"DETROIT R5234920","nameOriginal":"R5234920","brand":"DETROIT","sku":"R5234920","category":"tractor","visual":"blue","icon":"package","price":0,"sourcePrice":0,"currency":"EUR","stock":"Цена по запросу","url":"https://bartsparts.com/products/detroit-r5234920/"},{"id":"detroit-r5235558","name":"DETROIT R5235558","nameOriginal":"R5235558","brand":"DETROIT","sku":"R5235558","category":"tractor","visual":"blue","icon":"package","price":0,"sourcePrice":0,"currency":"EUR","stock":"Цена по запросу","url":"https://bartsparts.com/products/detroit-r5235558/"},{"id":"detroit-r5235605","name":"DETROIT R5235605","nameOriginal":"R5235605","brand":"DETROIT","sku":"R5235605","category":"tractor","visual":"blue","icon":"package","price":0,"sourcePrice":0,"currency":"EUR","stock":"Цена по запросу","url":"https://bartsparts.com/products/detroit-r5235605/"},{"id":"detroit-r5235655","name":"DETROIT R5235655","nameOriginal":"R5235655","brand":"DETROIT","sku":"R5235655","category":"tractor","visual":"blue","icon":"package","price":0,"sourcePrice":0,"currency":"EUR","stock":"Цена по запросу","url":"https://bartsparts.com/products/detroit-r5235655/"},{"id":"detroit-r5236256","name":"DETROIT R5236256","nameOriginal":"R5236256","brand":"DETROIT","sku":"R5236256","category":"tractor","visual":"blue","icon":"package","price":0,"sourcePrice":0,"currency":"EUR","stock":"Цена по запросу","url":"https://bartsparts.com/products/detroit-r5236256/"},{"id":"detroit-r8927897","name":"DETROIT R8927897","nameOriginal":"R8927897","brand":"DETROIT","sku":"R8927897","category":"tractor","visual":"blue","icon":"package","price":0,"sourcePrice":0,"currency":"EUR","stock":"Цена по запросу","url":"https://bartsparts.com/products/detroit-r8927897/"},{"id":"detroit-x52208300008","name":"DETROIT X52208300008","nameOriginal":"X52208300008","brand":"DETROIT","sku":"X52208300008","category":"tractor","visual":"blue","icon":"package","price":0,"sourcePrice":0,"currency":"EUR","stock":"Цена по запросу","url":"https://bartsparts.com/products/detroit-x52208300008/"},{"id":"detroit-x52608300053","name":"DETROIT X52608300053","nameOriginal":"X52608300053","brand":"DETROIT","sku":"X52608300053","category":"tractor","visual":"blue","icon":"package","price":0,"sourcePrice":0,"currency":"EUR","stock":"Цена по запросу","url":"https://bartsparts.com/products/detroit-x52608300053/"}]}
