{"metadata":{"brand":"FARMTEC","brandSlug":"farmtec","page":3,"pages":3,"count":2008,"chunkSize":1000,"currency":"EUR","priceMarkupPercent":20},"products":[{"id":"farmtec-zb1216","name":"FARMTEC ZB1216","nameOriginal":"ZB1216","brand":"FARMTEC","sku":"ZB1216","category":"tractor","visual":"red","icon":"package","price":0,"sourcePrice":0,"currency":"EUR","stock":"Цена по запросу","url":"https://bartsparts.com/products/farmtec-zb1216/"},{"id":"farmtec-zb1224","name":"FARMTEC ZB1224","nameOriginal":"ZB1224","brand":"FARMTEC","sku":"ZB1224","category":"tractor","visual":"red","icon":"package","price":0,"sourcePrice":0,"currency":"EUR","stock":"Цена по запросу","url":"https://bartsparts.com/products/farmtec-zb1224/"},{"id":"farmtec-zb124","name":"FARMTEC ZB124","nameOriginal":"ZB124","brand":"FARMTEC","sku":"ZB124","category":"tractor","visual":"red","icon":"package","price":0,"sourcePrice":0,"currency":"EUR","stock":"Цена по запросу","url":"https://bartsparts.com/products/farmtec-zb124/"},{"id":"farmtec-zb126","name":"FARMTEC ZB126","nameOriginal":"ZB126","brand":"FARMTEC","sku":"ZB126","category":"tractor","visual":"red","icon":"package","price":0,"sourcePrice":0,"currency":"EUR","stock":"Цена по запросу","url":"https://bartsparts.com/products/farmtec-zb126/"},{"id":"farmtec-ze16","name":"FARMTEC ZE16","nameOriginal":"ZE16","brand":"FARMTEC","sku":"ZE16","category":"tractor","visual":"red","icon":"package","price":0,"sourcePrice":0,"currency":"EUR","stock":"Цена по запросу","url":"https://bartsparts.com/products/farmtec-ze16/"},{"id":"farmtec-ze4","name":"FARMTEC ZE4","nameOriginal":"ZE4","brand":"FARMTEC","sku":"ZE4","category":"tractor","visual":"red","icon":"package","price":0,"sourcePrice":0,"currency":"EUR","stock":"Цена по запросу","url":"https://bartsparts.com/products/farmtec-ze4/"},{"id":"farmtec-ze6","name":"FARMTEC ZE6","nameOriginal":"ZE6","brand":"FARMTEC","sku":"ZE6","category":"tractor","visual":"red","icon":"package","price":0,"sourcePrice":0,"currency":"EUR","stock":"Цена по запросу","url":"https://bartsparts.com/products/farmtec-ze6/"},{"id":"farmtec-zh1","name":"FARMTEC ZH1","nameOriginal":"ZH1","brand":"FARMTEC","sku":"ZH1","category":"tractor","visual":"red","icon":"package","price":0,"sourcePrice":0,"currency":"EUR","stock":"Цена по запросу","url":"https://bartsparts.com/products/farmtec-zh1/"}]}
