{"metadata":{"brand":"Symta Pièces","brandSlug":"symta-pieces","page":3,"pages":3,"count":2049,"chunkSize":1000,"currency":"EUR","priceMarkupPercent":20},"products":[{"id":"symta-pieces-tr852031000","name":"Symta Pièces TR852031000","nameOriginal":"TR852031000","brand":"Symta Pièces","sku":"TR852031000","category":"tractor","visual":"danger","icon":"package","price":0,"sourcePrice":0,"currency":"EUR","stock":"Цена по запросу","url":"https://bartsparts.com/products/symta-pieces-tr852031000/"},{"id":"symta-pieces-tr852111000","name":"Symta Pièces TR852111000","nameOriginal":"TR852111000","brand":"Symta Pièces","sku":"TR852111000","category":"tractor","visual":"danger","icon":"package","price":0,"sourcePrice":0,"currency":"EUR","stock":"Цена по запросу","url":"https://bartsparts.com/products/symta-pieces-tr852111000/"},{"id":"symta-pieces-tr8525600","name":"Symta Pièces TR8525600","nameOriginal":"TR8525600","brand":"Symta Pièces","sku":"TR8525600","category":"tractor","visual":"danger","icon":"package","price":0,"sourcePrice":0,"currency":"EUR","stock":"Цена по запросу","url":"https://bartsparts.com/products/symta-pieces-tr8525600/"},{"id":"symta-pieces-tr86200136362","name":"Symta Pièces TR86200136362","nameOriginal":"TR86200136362","brand":"Symta Pièces","sku":"TR86200136362","category":"tractor","visual":"danger","icon":"package","price":0,"sourcePrice":0,"currency":"EUR","stock":"Цена по запросу","url":"https://bartsparts.com/products/symta-pieces-tr86200136362/"},{"id":"symta-pieces-tr862622","name":"Symta Pièces TR862622","nameOriginal":"TR862622","brand":"Symta Pièces","sku":"TR862622","category":"tractor","visual":"danger","icon":"package","price":0,"sourcePrice":0,"currency":"EUR","stock":"Цена по запросу","url":"https://bartsparts.com/products/symta-pieces-tr862622/"},{"id":"symta-pieces-tr863001000","name":"Symta Pièces TR863001000","nameOriginal":"TR863001000","brand":"Symta Pièces","sku":"TR863001000","category":"tractor","visual":"danger","icon":"package","price":0,"sourcePrice":0,"currency":"EUR","stock":"Цена по запросу","url":"https://bartsparts.com/products/symta-pieces-tr863001000/"},{"id":"symta-pieces-tr90825","name":"Symta Pièces TR90825","nameOriginal":"TR90825","brand":"Symta Pièces","sku":"TR90825","category":"tractor","visual":"danger","icon":"package","price":0,"sourcePrice":0,"currency":"EUR","stock":"Цена по запросу","url":"https://bartsparts.com/products/symta-pieces-tr90825/"},{"id":"symta-pieces-trcs6gww83wr7","name":"Symta Pièces TRCS6GWW83WR7","nameOriginal":"TRCS6GWW83WR7","brand":"Symta Pièces","sku":"TRCS6GWW83WR7","category":"tractor","visual":"danger","icon":"package","price":0,"sourcePrice":0,"currency":"EUR","stock":"Цена по запросу","url":"https://bartsparts.com/products/symta-pieces-trcs6gww83wr7/"},{"id":"symta-pieces-trcs7gc049007","name":"Symta Pièces TRCS7GC049007","nameOriginal":"TRCS7GC049007","brand":"Symta Pièces","sku":"TRCS7GC049007","category":"tractor","visual":"danger","icon":"package","price":0,"sourcePrice":0,"currency":"EUR","stock":"Цена по запросу","url":"https://bartsparts.com/products/symta-pieces-trcs7gc049007/"},{"id":"symta-pieces-tre099037","name":"Symta Pièces TRE099037","nameOriginal":"TRE099037","brand":"Symta Pièces","sku":"TRE099037","category":"tractor","visual":"danger","icon":"package","price":0,"sourcePrice":0,"currency":"EUR","stock":"Цена по запросу","url":"https://bartsparts.com/products/symta-pieces-tre099037/"},{"id":"symta-pieces-tre099474","name":"Symta Pièces TRE099474","nameOriginal":"TRE099474","brand":"Symta Pièces","sku":"TRE099474","category":"tractor","visual":"danger","icon":"package","price":0,"sourcePrice":0,"currency":"EUR","stock":"Цена по запросу","url":"https://bartsparts.com/products/symta-pieces-tre099474/"},{"id":"symta-pieces-tre200001","name":"Symta Pièces TRE200001","nameOriginal":"TRE200001","brand":"Symta Pièces","sku":"TRE200001","category":"tractor","visual":"danger","icon":"package","price":0,"sourcePrice":0,"currency":"EUR","stock":"Цена по запросу","url":"https://bartsparts.com/products/symta-pieces-tre200001/"},{"id":"symta-pieces-tre200002","name":"Symta Pièces TRE200002","nameOriginal":"TRE200002","brand":"Symta Pièces","sku":"TRE200002","category":"tractor","visual":"danger","icon":"package","price":0,"sourcePrice":0,"currency":"EUR","stock":"Цена по запросу","url":"https://bartsparts.com/products/symta-pieces-tre200002/"},{"id":"symta-pieces-tre200016","name":"Symta Pièces TRE200016","nameOriginal":"TRE200016","brand":"Symta Pièces","sku":"TRE200016","category":"tractor","visual":"danger","icon":"package","price":0,"sourcePrice":0,"currency":"EUR","stock":"Цена по запросу","url":"https://bartsparts.com/products/symta-pieces-tre200016/"},{"id":"symta-pieces-tre200020","name":"Symta Pièces TRE200020","nameOriginal":"TRE200020","brand":"Symta Pièces","sku":"TRE200020","category":"tractor","visual":"danger","icon":"package","price":0,"sourcePrice":0,"currency":"EUR","stock":"Цена по запросу","url":"https://bartsparts.com/products/symta-pieces-tre200020/"},{"id":"symta-pieces-tre201033","name":"Symta Pièces TRE201033","nameOriginal":"TRE201033","brand":"Symta Pièces","sku":"TRE201033","category":"tractor","visual":"danger","icon":"package","price":0,"sourcePrice":0,"currency":"EUR","stock":"Цена по запросу","url":"https://bartsparts.com/products/symta-pieces-tre201033/"},{"id":"symta-pieces-tre202396","name":"Symta Pièces TRE202396","nameOriginal":"TRE202396","brand":"Symta Pièces","sku":"TRE202396","category":"tractor","visual":"danger","icon":"package","price":0,"sourcePrice":0,"currency":"EUR","stock":"Цена по запросу","url":"https://bartsparts.com/products/symta-pieces-tre202396/"},{"id":"symta-pieces-tre202397","name":"Symta Pièces TRE202397","nameOriginal":"TRE202397","brand":"Symta Pièces","sku":"TRE202397","category":"tractor","visual":"danger","icon":"package","price":0,"sourcePrice":0,"currency":"EUR","stock":"Цена по запросу","url":"https://bartsparts.com/products/symta-pieces-tre202397/"},{"id":"symta-pieces-tre208556","name":"Symta Pièces TRE208556","nameOriginal":"TRE208556","brand":"Symta Pièces","sku":"TRE208556","category":"tractor","visual":"danger","icon":"package","price":0,"sourcePrice":0,"currency":"EUR","stock":"Цена по запросу","url":"https://bartsparts.com/products/symta-pieces-tre208556/"},{"id":"symta-pieces-tre306104","name":"Symta Pièces TRE306104","nameOriginal":"TRE306104","brand":"Symta Pièces","sku":"TRE306104","category":"tractor","visual":"danger","icon":"package","price":0,"sourcePrice":0,"currency":"EUR","stock":"Цена по запросу","url":"https://bartsparts.com/products/symta-pieces-tre306104/"},{"id":"symta-pieces-tre306842","name":"Symta Pièces TRE306842","nameOriginal":"TRE306842","brand":"Symta Pièces","sku":"TRE306842","category":"tractor","visual":"danger","icon":"package","price":0,"sourcePrice":0,"currency":"EUR","stock":"Цена по запросу","url":"https://bartsparts.com/products/symta-pieces-tre306842/"},{"id":"symta-pieces-tre309537","name":"Symta Pièces TRE309537","nameOriginal":"TRE309537","brand":"Symta Pièces","sku":"TRE309537","category":"tractor","visual":"danger","icon":"package","price":0,"sourcePrice":0,"currency":"EUR","stock":"Цена по запросу","url":"https://bartsparts.com/products/symta-pieces-tre309537/"},{"id":"symta-pieces-trjs2400s4nv","name":"Symta Pièces TRJS2400S4NV","nameOriginal":"TRJS2400S4NV","brand":"Symta Pièces","sku":"TRJS2400S4NV","category":"tractor","visual":"danger","icon":"package","price":0,"sourcePrice":0,"currency":"EUR","stock":"Цена по запросу","url":"https://bartsparts.com/products/symta-pieces-trjs2400s4nv/"},{"id":"symta-pieces-tro14172","name":"Symta Pièces TRO14172","nameOriginal":"TRO14172","brand":"Symta Pièces","sku":"TRO14172","category":"tractor","visual":"danger","icon":"package","price":0,"sourcePrice":0,"currency":"EUR","stock":"Цена по запросу","url":"https://bartsparts.com/products/symta-pieces-tro14172/"},{"id":"symta-pieces-trs6005501019","name":"Symta Pièces TRS6005501019","nameOriginal":"TRS6005501019","brand":"Symta Pièces","sku":"TRS6005501019","category":"tractor","visual":"danger","icon":"package","price":0,"sourcePrice":0,"currency":"EUR","stock":"Цена по запросу","url":"https://bartsparts.com/products/symta-pieces-trs6005501019/"},{"id":"symta-pieces-trwe2280151410ql","name":"Symta Pièces TRWE2280151410QL","nameOriginal":"TRWE2280151410QL","brand":"Symta Pièces","sku":"TRWE2280151410QL","category":"tractor","visual":"danger","icon":"package","price":0,"sourcePrice":0,"currency":"EUR","stock":"Цена по запросу","url":"https://bartsparts.com/products/symta-pieces-trwe2280151410ql/"},{"id":"symta-pieces-uc204","name":"Symta Pièces UC204","nameOriginal":"UC204","brand":"Symta Pièces","sku":"UC204","category":"tractor","visual":"danger","icon":"package","price":0,"sourcePrice":0,"currency":"EUR","stock":"Цена по запросу","url":"https://bartsparts.com/products/symta-pieces-uc204/"},{"id":"symta-pieces-uc208","name":"Symta Pièces UC208","nameOriginal":"UC208","brand":"Symta Pièces","sku":"UC208","category":"tractor","visual":"danger","icon":"package","price":0,"sourcePrice":0,"currency":"EUR","stock":"Цена по запросу","url":"https://bartsparts.com/products/symta-pieces-uc208/"},{"id":"symta-pieces-uc211","name":"Symta Pièces UC211","nameOriginal":"UC211","brand":"Symta Pièces","sku":"UC211","category":"tractor","visual":"danger","icon":"package","price":0,"sourcePrice":0,"currency":"EUR","stock":"Цена по запросу","url":"https://bartsparts.com/products/symta-pieces-uc211/"},{"id":"symta-pieces-ucf205","name":"Symta Pièces UCF205","nameOriginal":"UCF205","brand":"Symta Pièces","sku":"UCF205","category":"tractor","visual":"danger","icon":"package","price":0,"sourcePrice":0,"currency":"EUR","stock":"Цена по запросу","url":"https://bartsparts.com/products/symta-pieces-ucf205/"},{"id":"symta-pieces-ucfl206","name":"Symta Pièces UCFL206","nameOriginal":"UCFL206","brand":"Symta Pièces","sku":"UCFL206","category":"tractor","visual":"danger","icon":"package","price":0,"sourcePrice":0,"currency":"EUR","stock":"Цена по запросу","url":"https://bartsparts.com/products/symta-pieces-ucfl206/"},{"id":"symta-pieces-ucp207","name":"Symta Pièces UCP207","nameOriginal":"UCP207","brand":"Symta Pièces","sku":"UCP207","category":"tractor","visual":"danger","icon":"package","price":0,"sourcePrice":0,"currency":"EUR","stock":"Цена по запросу","url":"https://bartsparts.com/products/symta-pieces-ucp207/"},{"id":"symta-pieces-ucp208","name":"Symta Pièces UCP208","nameOriginal":"UCP208","brand":"Symta Pièces","sku":"UCP208","category":"tractor","visual":"danger","icon":"package","price":0,"sourcePrice":0,"currency":"EUR","stock":"Цена по запросу","url":"https://bartsparts.com/products/symta-pieces-ucp208/"},{"id":"symta-pieces-ucp218","name":"Symta Pièces UCP218","nameOriginal":"UCP218","brand":"Symta Pièces","sku":"UCP218","category":"tractor","visual":"danger","icon":"package","price":0,"sourcePrice":0,"currency":"EUR","stock":"Цена по запросу","url":"https://bartsparts.com/products/symta-pieces-ucp218/"},{"id":"symta-pieces-uel208","name":"Symta Pièces UEL208","nameOriginal":"UEL208","brand":"Symta Pièces","sku":"UEL208","category":"tractor","visual":"danger","icon":"package","price":0,"sourcePrice":0,"currency":"EUR","stock":"Цена по запросу","url":"https://bartsparts.com/products/symta-pieces-uel208/"},{"id":"symta-pieces-vf06565650","name":"Symta Pièces VF06565650","nameOriginal":"VF06565650","brand":"Symta Pièces","sku":"VF06565650","category":"tractor","visual":"danger","icon":"package","price":0,"sourcePrice":0,"currency":"EUR","stock":"Цена по запросу","url":"https://bartsparts.com/products/symta-pieces-vf06565650/"},{"id":"symta-pieces-wal351002","name":"Symta Pièces WAL351002","nameOriginal":"WAL351002","brand":"Symta Pièces","sku":"WAL351002","category":"tractor","visual":"danger","icon":"package","price":0,"sourcePrice":0,"currency":"EUR","stock":"Цена по запросу","url":"https://bartsparts.com/products/symta-pieces-wal351002/"},{"id":"symta-pieces-wal3524140","name":"Symta Pièces WAL3524140","nameOriginal":"WAL3524140","brand":"Symta Pièces","sku":"WAL3524140","category":"tractor","visual":"danger","icon":"package","price":0,"sourcePrice":0,"currency":"EUR","stock":"Цена по запросу","url":"https://bartsparts.com/products/symta-pieces-wal3524140/"},{"id":"symta-pieces-wal3570103","name":"Symta Pièces WAL3570103","nameOriginal":"WAL3570103","brand":"Symta Pièces","sku":"WAL3570103","category":"tractor","visual":"danger","icon":"package","price":0,"sourcePrice":0,"currency":"EUR","stock":"Цена по запросу","url":"https://bartsparts.com/products/symta-pieces-wal3570103/"},{"id":"symta-pieces-wal3579101","name":"Symta Pièces WAL3579101","nameOriginal":"WAL3579101","brand":"Symta Pièces","sku":"WAL3579101","category":"tractor","visual":"danger","icon":"package","price":0,"sourcePrice":0,"currency":"EUR","stock":"Цена по запросу","url":"https://bartsparts.com/products/symta-pieces-wal3579101/"},{"id":"symta-pieces-wal850003","name":"Symta Pièces WAL850003","nameOriginal":"WAL850003","brand":"Symta Pièces","sku":"WAL850003","category":"tractor","visual":"danger","icon":"package","price":0,"sourcePrice":0,"currency":"EUR","stock":"Цена по запросу","url":"https://bartsparts.com/products/symta-pieces-wal850003/"},{"id":"symta-pieces-wal852051500","name":"Symta Pièces WAL852051500","nameOriginal":"WAL852051500","brand":"Symta Pièces","sku":"WAL852051500","category":"tractor","visual":"danger","icon":"package","price":0,"sourcePrice":0,"currency":"EUR","stock":"Цена по запросу","url":"https://bartsparts.com/products/symta-pieces-wal852051500/"},{"id":"symta-pieces-wg04","name":"Symta Pièces WG04","nameOriginal":"WG04","brand":"Symta Pièces","sku":"WG04","category":"tractor","visual":"danger","icon":"package","price":0,"sourcePrice":0,"currency":"EUR","stock":"Цена по запросу","url":"https://bartsparts.com/products/symta-pieces-wg04/"},{"id":"symta-pieces-wk9041x","name":"Symta Pièces WK9041X","nameOriginal":"WK9041X","brand":"Symta Pièces","sku":"WK9041X","category":"tractor","visual":"danger","icon":"package","price":0,"sourcePrice":0,"currency":"EUR","stock":"Цена по запросу","url":"https://bartsparts.com/products/symta-pieces-wk9041x/"},{"id":"symta-pieces-wz238015","name":"Symta Pièces WZ238015","nameOriginal":"WZ238015","brand":"Symta Pièces","sku":"WZ238015","category":"tractor","visual":"danger","icon":"package","price":0,"sourcePrice":0,"currency":"EUR","stock":"Цена по запросу","url":"https://bartsparts.com/products/symta-pieces-wz238015/"},{"id":"symta-pieces-yet204","name":"Symta Pièces YET204","nameOriginal":"YET204","brand":"Symta Pièces","sku":"YET204","category":"tractor","visual":"danger","icon":"package","price":0,"sourcePrice":0,"currency":"EUR","stock":"Цена по запросу","url":"https://bartsparts.com/products/symta-pieces-yet204/"},{"id":"symta-pieces-yet206","name":"Symta Pièces YET206","nameOriginal":"YET206","brand":"Symta Pièces","sku":"YET206","category":"tractor","visual":"danger","icon":"package","price":0,"sourcePrice":0,"currency":"EUR","stock":"Цена по запросу","url":"https://bartsparts.com/products/symta-pieces-yet206/"},{"id":"symta-pieces-yet207","name":"Symta Pièces YET207","nameOriginal":"YET207","brand":"Symta Pièces","sku":"YET207","category":"tractor","visual":"danger","icon":"package","price":0,"sourcePrice":0,"currency":"EUR","stock":"Цена по запросу","url":"https://bartsparts.com/products/symta-pieces-yet207/"},{"id":"symta-pieces-yet211","name":"Symta Pièces YET211","nameOriginal":"YET211","brand":"Symta Pièces","sku":"YET211","category":"tractor","visual":"danger","icon":"package","price":0,"sourcePrice":0,"currency":"EUR","stock":"Цена по запросу","url":"https://bartsparts.com/products/symta-pieces-yet211/"}]}
