{"metadata":{"brand":"KUHN","brandSlug":"kuhn","page":19,"pages":19,"count":18105,"chunkSize":1000,"currency":"EUR","priceMarkupPercent":20},"products":[{"id":"kuhn-z5109450","name":"KUHN Z5109450","nameOriginal":"Z5109450","brand":"KUHN","sku":"Z5109450","category":"tractor","visual":"amber","icon":"package","price":0,"sourcePrice":0,"currency":"EUR","stock":"Цена по запросу","url":"https://bartsparts.com/products/kuhn-z5109450/"},{"id":"kuhn-z5109520","name":"KUHN Z5109520","nameOriginal":"Z5109520","brand":"KUHN","sku":"Z5109520","category":"tractor","visual":"amber","icon":"package","price":0,"sourcePrice":0,"currency":"EUR","stock":"Цена по запросу","url":"https://bartsparts.com/products/kuhn-z5109520/"},{"id":"kuhn-z5109540","name":"KUHN Z5109540","nameOriginal":"Z5109540","brand":"KUHN","sku":"Z5109540","category":"tractor","visual":"amber","icon":"package","price":0,"sourcePrice":0,"currency":"EUR","stock":"Цена по запросу","url":"https://bartsparts.com/products/kuhn-z5109540/"},{"id":"kuhn-z5109560","name":"KUHN Z5109560","nameOriginal":"Z5109560","brand":"KUHN","sku":"Z5109560","category":"tractor","visual":"amber","icon":"package","price":0,"sourcePrice":0,"currency":"EUR","stock":"Цена по запросу","url":"https://bartsparts.com/products/kuhn-z5109560/"},{"id":"kuhn-z5109830","name":"KUHN Z5109830","nameOriginal":"Z5109830","brand":"KUHN","sku":"Z5109830","category":"tractor","visual":"amber","icon":"package","price":0,"sourcePrice":0,"currency":"EUR","stock":"Цена по запросу","url":"https://bartsparts.com/products/kuhn-z5109830/"},{"id":"kuhn-z5110050","name":"KUHN Z5110050","nameOriginal":"Z5110050","brand":"KUHN","sku":"Z5110050","category":"tractor","visual":"amber","icon":"package","price":0,"sourcePrice":0,"currency":"EUR","stock":"Цена по запросу","url":"https://bartsparts.com/products/kuhn-z5110050/"},{"id":"kuhn-z5110152","name":"KUHN Z5110152","nameOriginal":"Z5110152","brand":"KUHN","sku":"Z5110152","category":"tractor","visual":"amber","icon":"package","price":0,"sourcePrice":0,"currency":"EUR","stock":"Цена по запросу","url":"https://bartsparts.com/products/kuhn-z5110152/"},{"id":"kuhn-z5113630","name":"KUHN Z5113630","nameOriginal":"Z5113630","brand":"KUHN","sku":"Z5113630","category":"tractor","visual":"amber","icon":"package","price":0,"sourcePrice":0,"currency":"EUR","stock":"Цена по запросу","url":"https://bartsparts.com/products/kuhn-z5113630/"},{"id":"kuhn-z5114830","name":"KUHN Z5114830","nameOriginal":"Z5114830","brand":"KUHN","sku":"Z5114830","category":"tractor","visual":"amber","icon":"package","price":0,"sourcePrice":0,"currency":"EUR","stock":"Цена по запросу","url":"https://bartsparts.com/products/kuhn-z5114830/"},{"id":"kuhn-z5120850","name":"KUHN Z5120850","nameOriginal":"Z5120850","brand":"KUHN","sku":"Z5120850","category":"tractor","visual":"amber","icon":"package","price":0,"sourcePrice":0,"currency":"EUR","stock":"Цена по запросу","url":"https://bartsparts.com/products/kuhn-z5120850/"},{"id":"kuhn-z5122330","name":"KUHN Z5122330","nameOriginal":"Z5122330","brand":"KUHN","sku":"Z5122330","category":"tractor","visual":"amber","icon":"package","price":0,"sourcePrice":0,"currency":"EUR","stock":"Цена по запросу","url":"https://bartsparts.com/products/kuhn-z5122330/"},{"id":"kuhn-z5131740","name":"KUHN Z5131740","nameOriginal":"Z5131740","brand":"KUHN","sku":"Z5131740","category":"tractor","visual":"amber","icon":"package","price":0,"sourcePrice":0,"currency":"EUR","stock":"Цена по запросу","url":"https://bartsparts.com/products/kuhn-z5131740/"},{"id":"kuhn-z5140270","name":"KUHN Z5140270","nameOriginal":"Z5140270","brand":"KUHN","sku":"Z5140270","category":"tractor","visual":"amber","icon":"package","price":0,"sourcePrice":0,"currency":"EUR","stock":"Цена по запросу","url":"https://bartsparts.com/products/kuhn-z5140270/"},{"id":"kuhn-z5140280","name":"KUHN Z5140280","nameOriginal":"Z5140280","brand":"KUHN","sku":"Z5140280","category":"tractor","visual":"amber","icon":"package","price":0,"sourcePrice":0,"currency":"EUR","stock":"Цена по запросу","url":"https://bartsparts.com/products/kuhn-z5140280/"},{"id":"kuhn-z5141360","name":"KUHN Z5141360","nameOriginal":"Z5141360","brand":"KUHN","sku":"Z5141360","category":"tractor","visual":"amber","icon":"package","price":0,"sourcePrice":0,"currency":"EUR","stock":"Цена по запросу","url":"https://bartsparts.com/products/kuhn-z5141360/"},{"id":"kuhn-z5141920","name":"KUHN Z5141920","nameOriginal":"Z5141920","brand":"KUHN","sku":"Z5141920","category":"tractor","visual":"amber","icon":"package","price":0,"sourcePrice":0,"currency":"EUR","stock":"Цена по запросу","url":"https://bartsparts.com/products/kuhn-z5141920/"},{"id":"kuhn-z5142610","name":"KUHN Z5142610","nameOriginal":"Z5142610","brand":"KUHN","sku":"Z5142610","category":"tractor","visual":"amber","icon":"package","price":0,"sourcePrice":0,"currency":"EUR","stock":"Цена по запросу","url":"https://bartsparts.com/products/kuhn-z5142610/"},{"id":"kuhn-z5142660","name":"KUHN Z5142660","nameOriginal":"Z5142660","brand":"KUHN","sku":"Z5142660","category":"tractor","visual":"amber","icon":"package","price":0,"sourcePrice":0,"currency":"EUR","stock":"Цена по запросу","url":"https://bartsparts.com/products/kuhn-z5142660/"},{"id":"kuhn-z5147790","name":"KUHN Z5147790","nameOriginal":"Z5147790","brand":"KUHN","sku":"Z5147790","category":"tractor","visual":"amber","icon":"package","price":0,"sourcePrice":0,"currency":"EUR","stock":"Цена по запросу","url":"https://bartsparts.com/products/kuhn-z5147790/"},{"id":"kuhn-z5150300","name":"KUHN Z5150300","nameOriginal":"Z5150300","brand":"KUHN","sku":"Z5150300","category":"tractor","visual":"amber","icon":"package","price":0,"sourcePrice":0,"currency":"EUR","stock":"Цена по запросу","url":"https://bartsparts.com/products/kuhn-z5150300/"},{"id":"kuhn-z5150590","name":"KUHN Z5150590","nameOriginal":"Z5150590","brand":"KUHN","sku":"Z5150590","category":"tractor","visual":"amber","icon":"package","price":0,"sourcePrice":0,"currency":"EUR","stock":"Цена по запросу","url":"https://bartsparts.com/products/kuhn-z5150590/"},{"id":"kuhn-z5159900","name":"KUHN Z5159900","nameOriginal":"Z5159900","brand":"KUHN","sku":"Z5159900","category":"tractor","visual":"amber","icon":"package","price":0,"sourcePrice":0,"currency":"EUR","stock":"Цена по запросу","url":"https://bartsparts.com/products/kuhn-z5159900/"},{"id":"kuhn-z5160740","name":"KUHN Z5160740","nameOriginal":"Z5160740","brand":"KUHN","sku":"Z5160740","category":"tractor","visual":"amber","icon":"package","price":0,"sourcePrice":0,"currency":"EUR","stock":"Цена по запросу","url":"https://bartsparts.com/products/kuhn-z5160740/"},{"id":"kuhn-z5161360","name":"KUHN Z5161360","nameOriginal":"Z5161360","brand":"KUHN","sku":"Z5161360","category":"tractor","visual":"amber","icon":"package","price":0,"sourcePrice":0,"currency":"EUR","stock":"Цена по запросу","url":"https://bartsparts.com/products/kuhn-z5161360/"},{"id":"kuhn-z5165330","name":"KUHN Z5165330","nameOriginal":"Z5165330","brand":"KUHN","sku":"Z5165330","category":"tractor","visual":"amber","icon":"package","price":0,"sourcePrice":0,"currency":"EUR","stock":"Цена по запросу","url":"https://bartsparts.com/products/kuhn-z5165330/"},{"id":"kuhn-z5165340","name":"KUHN Z5165340","nameOriginal":"Z5165340","brand":"KUHN","sku":"Z5165340","category":"tractor","visual":"amber","icon":"package","price":0,"sourcePrice":0,"currency":"EUR","stock":"Цена по запросу","url":"https://bartsparts.com/products/kuhn-z5165340/"},{"id":"kuhn-z5165480","name":"KUHN Z5165480","nameOriginal":"Z5165480","brand":"KUHN","sku":"Z5165480","category":"tractor","visual":"amber","icon":"package","price":0,"sourcePrice":0,"currency":"EUR","stock":"Цена по запросу","url":"https://bartsparts.com/products/kuhn-z5165480/"},{"id":"kuhn-z5166240","name":"KUHN Z5166240","nameOriginal":"Z5166240","brand":"KUHN","sku":"Z5166240","category":"tractor","visual":"amber","icon":"package","price":0,"sourcePrice":0,"currency":"EUR","stock":"Цена по запросу","url":"https://bartsparts.com/products/kuhn-z5166240/"},{"id":"kuhn-z5166251","name":"KUHN Z5166251","nameOriginal":"Z5166251","brand":"KUHN","sku":"Z5166251","category":"tractor","visual":"amber","icon":"package","price":0,"sourcePrice":0,"currency":"EUR","stock":"Цена по запросу","url":"https://bartsparts.com/products/kuhn-z5166251/"},{"id":"kuhn-z5166270","name":"KUHN Z5166270","nameOriginal":"Z5166270","brand":"KUHN","sku":"Z5166270","category":"tractor","visual":"amber","icon":"package","price":0,"sourcePrice":0,"currency":"EUR","stock":"Цена по запросу","url":"https://bartsparts.com/products/kuhn-z5166270/"},{"id":"kuhn-z5166301","name":"KUHN Z5166301","nameOriginal":"Z5166301","brand":"KUHN","sku":"Z5166301","category":"tractor","visual":"amber","icon":"package","price":0,"sourcePrice":0,"currency":"EUR","stock":"Цена по запросу","url":"https://bartsparts.com/products/kuhn-z5166301/"},{"id":"kuhn-z5166330","name":"KUHN Z5166330","nameOriginal":"Z5166330","brand":"KUHN","sku":"Z5166330","category":"tractor","visual":"amber","icon":"package","price":0,"sourcePrice":0,"currency":"EUR","stock":"Цена по запросу","url":"https://bartsparts.com/products/kuhn-z5166330/"},{"id":"kuhn-z5169040","name":"KUHN Z5169040","nameOriginal":"Z5169040","brand":"KUHN","sku":"Z5169040","category":"tractor","visual":"amber","icon":"package","price":0,"sourcePrice":0,"currency":"EUR","stock":"Цена по запросу","url":"https://bartsparts.com/products/kuhn-z5169040/"},{"id":"kuhn-z5169060","name":"KUHN Z5169060","nameOriginal":"Z5169060","brand":"KUHN","sku":"Z5169060","category":"tractor","visual":"amber","icon":"package","price":0,"sourcePrice":0,"currency":"EUR","stock":"Цена по запросу","url":"https://bartsparts.com/products/kuhn-z5169060/"},{"id":"kuhn-z5169080","name":"KUHN Z5169080","nameOriginal":"Z5169080","brand":"KUHN","sku":"Z5169080","category":"tractor","visual":"amber","icon":"package","price":0,"sourcePrice":0,"currency":"EUR","stock":"Цена по запросу","url":"https://bartsparts.com/products/kuhn-z5169080/"},{"id":"kuhn-z5169130","name":"KUHN Z5169130","nameOriginal":"Z5169130","brand":"KUHN","sku":"Z5169130","category":"tractor","visual":"amber","icon":"package","price":0,"sourcePrice":0,"currency":"EUR","stock":"Цена по запросу","url":"https://bartsparts.com/products/kuhn-z5169130/"},{"id":"kuhn-z5170110","name":"KUHN Z5170110","nameOriginal":"Z5170110","brand":"KUHN","sku":"Z5170110","category":"tractor","visual":"amber","icon":"package","price":0,"sourcePrice":0,"currency":"EUR","stock":"Цена по запросу","url":"https://bartsparts.com/products/kuhn-z5170110/"},{"id":"kuhn-z5171520","name":"KUHN Z5171520","nameOriginal":"Z5171520","brand":"KUHN","sku":"Z5171520","category":"tractor","visual":"amber","icon":"package","price":0,"sourcePrice":0,"currency":"EUR","stock":"Цена по запросу","url":"https://bartsparts.com/products/kuhn-z5171520/"},{"id":"kuhn-z5174560","name":"KUHN Z5174560","nameOriginal":"Z5174560","brand":"KUHN","sku":"Z5174560","category":"tractor","visual":"amber","icon":"package","price":0,"sourcePrice":0,"currency":"EUR","stock":"Цена по запросу","url":"https://bartsparts.com/products/kuhn-z5174560/"},{"id":"kuhn-z5311056","name":"KUHN Z5311056","nameOriginal":"Z5311056","brand":"KUHN","sku":"Z5311056","category":"tractor","visual":"amber","icon":"package","price":0,"sourcePrice":0,"currency":"EUR","stock":"Цена по запросу","url":"https://bartsparts.com/products/kuhn-z5311056/"},{"id":"kuhn-z56001320","name":"KUHN Z56001320","nameOriginal":"Z56001320","brand":"KUHN","sku":"Z56001320","category":"tractor","visual":"amber","icon":"package","price":0,"sourcePrice":0,"currency":"EUR","stock":"Цена по запросу","url":"https://bartsparts.com/products/kuhn-z56001320/"},{"id":"kuhn-z56036720","name":"KUHN Z56036720","nameOriginal":"Z56036720","brand":"KUHN","sku":"Z56036720","category":"tractor","visual":"amber","icon":"package","price":0,"sourcePrice":0,"currency":"EUR","stock":"Цена по запросу","url":"https://bartsparts.com/products/kuhn-z56036720/"},{"id":"kuhn-z6000300","name":"KUHN Z6000300","nameOriginal":"Z6000300","brand":"KUHN","sku":"Z6000300","category":"tractor","visual":"amber","icon":"package","price":0,"sourcePrice":0,"currency":"EUR","stock":"Цена по запросу","url":"https://bartsparts.com/products/kuhn-z6000300/"},{"id":"kuhn-z6000380","name":"KUHN Z6000380","nameOriginal":"Z6000380","brand":"KUHN","sku":"Z6000380","category":"tractor","visual":"amber","icon":"package","price":0,"sourcePrice":0,"currency":"EUR","stock":"Цена по запросу","url":"https://bartsparts.com/products/kuhn-z6000380/"},{"id":"kuhn-z6004670","name":"KUHN Z6004670","nameOriginal":"Z6004670","brand":"KUHN","sku":"Z6004670","category":"tractor","visual":"amber","icon":"package","price":0,"sourcePrice":0,"currency":"EUR","stock":"Цена по запросу","url":"https://bartsparts.com/products/kuhn-z6004670/"},{"id":"kuhn-z6004890","name":"KUHN Z6004890","nameOriginal":"Z6004890","brand":"KUHN","sku":"Z6004890","category":"tractor","visual":"amber","icon":"package","price":0,"sourcePrice":0,"currency":"EUR","stock":"Цена по запросу","url":"https://bartsparts.com/products/kuhn-z6004890/"},{"id":"kuhn-z6004940","name":"KUHN Z6004940","nameOriginal":"Z6004940","brand":"KUHN","sku":"Z6004940","category":"tractor","visual":"amber","icon":"package","price":0,"sourcePrice":0,"currency":"EUR","stock":"Цена по запросу","url":"https://bartsparts.com/products/kuhn-z6004940/"},{"id":"kuhn-z6004970","name":"KUHN Z6004970","nameOriginal":"Z6004970","brand":"KUHN","sku":"Z6004970","category":"tractor","visual":"amber","icon":"package","price":0,"sourcePrice":0,"currency":"EUR","stock":"Цена по запросу","url":"https://bartsparts.com/products/kuhn-z6004970/"},{"id":"kuhn-z6005290","name":"KUHN Z6005290","nameOriginal":"Z6005290","brand":"KUHN","sku":"Z6005290","category":"tractor","visual":"amber","icon":"package","price":0,"sourcePrice":0,"currency":"EUR","stock":"Цена по запросу","url":"https://bartsparts.com/products/kuhn-z6005290/"},{"id":"kuhn-z6007140","name":"KUHN Z6007140","nameOriginal":"Z6007140","brand":"KUHN","sku":"Z6007140","category":"tractor","visual":"amber","icon":"package","price":0,"sourcePrice":0,"currency":"EUR","stock":"Цена по запросу","url":"https://bartsparts.com/products/kuhn-z6007140/"},{"id":"kuhn-z6007170","name":"KUHN Z6007170","nameOriginal":"Z6007170","brand":"KUHN","sku":"Z6007170","category":"tractor","visual":"amber","icon":"package","price":0,"sourcePrice":0,"currency":"EUR","stock":"Цена по запросу","url":"https://bartsparts.com/products/kuhn-z6007170/"},{"id":"kuhn-z6007190","name":"KUHN Z6007190","nameOriginal":"Z6007190","brand":"KUHN","sku":"Z6007190","category":"tractor","visual":"amber","icon":"package","price":0,"sourcePrice":0,"currency":"EUR","stock":"Цена по запросу","url":"https://bartsparts.com/products/kuhn-z6007190/"},{"id":"kuhn-z6007460","name":"KUHN Z6007460","nameOriginal":"Z6007460","brand":"KUHN","sku":"Z6007460","category":"tractor","visual":"amber","icon":"package","price":0,"sourcePrice":0,"currency":"EUR","stock":"Цена по запросу","url":"https://bartsparts.com/products/kuhn-z6007460/"},{"id":"kuhn-z6008123","name":"KUHN Z6008123","nameOriginal":"Z6008123","brand":"KUHN","sku":"Z6008123","category":"tractor","visual":"amber","icon":"package","price":0,"sourcePrice":0,"currency":"EUR","stock":"Цена по запросу","url":"https://bartsparts.com/products/kuhn-z6008123/"},{"id":"kuhn-z6008350","name":"KUHN Z6008350","nameOriginal":"Z6008350","brand":"KUHN","sku":"Z6008350","category":"tractor","visual":"amber","icon":"package","price":0,"sourcePrice":0,"currency":"EUR","stock":"Цена по запросу","url":"https://bartsparts.com/products/kuhn-z6008350/"},{"id":"kuhn-z6008840","name":"KUHN Z6008840","nameOriginal":"Z6008840","brand":"KUHN","sku":"Z6008840","category":"tractor","visual":"amber","icon":"package","price":0,"sourcePrice":0,"currency":"EUR","stock":"Цена по запросу","url":"https://bartsparts.com/products/kuhn-z6008840/"},{"id":"kuhn-z6010900","name":"KUHN Z6010900","nameOriginal":"Z6010900","brand":"KUHN","sku":"Z6010900","category":"tractor","visual":"amber","icon":"package","price":0,"sourcePrice":0,"currency":"EUR","stock":"Цена по запросу","url":"https://bartsparts.com/products/kuhn-z6010900/"},{"id":"kuhn-z6013201","name":"KUHN Z6013201","nameOriginal":"Z6013201","brand":"KUHN","sku":"Z6013201","category":"tractor","visual":"amber","icon":"package","price":0,"sourcePrice":0,"currency":"EUR","stock":"Цена по запросу","url":"https://bartsparts.com/products/kuhn-z6013201/"},{"id":"kuhn-z6013790","name":"KUHN Z6013790","nameOriginal":"Z6013790","brand":"KUHN","sku":"Z6013790","category":"tractor","visual":"amber","icon":"package","price":0,"sourcePrice":0,"currency":"EUR","stock":"Цена по запросу","url":"https://bartsparts.com/products/kuhn-z6013790/"},{"id":"kuhn-z6014250","name":"KUHN Z6014250","nameOriginal":"Z6014250","brand":"KUHN","sku":"Z6014250","category":"tractor","visual":"amber","icon":"package","price":0,"sourcePrice":0,"currency":"EUR","stock":"Цена по запросу","url":"https://bartsparts.com/products/kuhn-z6014250/"},{"id":"kuhn-z6014550","name":"KUHN Z6014550","nameOriginal":"Z6014550","brand":"KUHN","sku":"Z6014550","category":"tractor","visual":"amber","icon":"package","price":0,"sourcePrice":0,"currency":"EUR","stock":"Цена по запросу","url":"https://bartsparts.com/products/kuhn-z6014550/"},{"id":"kuhn-z6015210","name":"KUHN Z6015210","nameOriginal":"Z6015210","brand":"KUHN","sku":"Z6015210","category":"tractor","visual":"amber","icon":"package","price":0,"sourcePrice":0,"currency":"EUR","stock":"Цена по запросу","url":"https://bartsparts.com/products/kuhn-z6015210/"},{"id":"kuhn-z6016110","name":"KUHN Z6016110","nameOriginal":"Z6016110","brand":"KUHN","sku":"Z6016110","category":"tractor","visual":"amber","icon":"package","price":0,"sourcePrice":0,"currency":"EUR","stock":"Цена по запросу","url":"https://bartsparts.com/products/kuhn-z6016110/"},{"id":"kuhn-z6016320","name":"KUHN Z6016320","nameOriginal":"Z6016320","brand":"KUHN","sku":"Z6016320","category":"tractor","visual":"amber","icon":"package","price":0,"sourcePrice":0,"currency":"EUR","stock":"Цена по запросу","url":"https://bartsparts.com/products/kuhn-z6016320/"},{"id":"kuhn-z6016470","name":"KUHN Z6016470","nameOriginal":"Z6016470","brand":"KUHN","sku":"Z6016470","category":"tractor","visual":"amber","icon":"package","price":0,"sourcePrice":0,"currency":"EUR","stock":"Цена по запросу","url":"https://bartsparts.com/products/kuhn-z6016470/"},{"id":"kuhn-z6018130","name":"KUHN Z6018130","nameOriginal":"Z6018130","brand":"KUHN","sku":"Z6018130","category":"tractor","visual":"amber","icon":"package","price":0,"sourcePrice":0,"currency":"EUR","stock":"Цена по запросу","url":"https://bartsparts.com/products/kuhn-z6018130/"},{"id":"kuhn-z6018890","name":"KUHN Z6018890","nameOriginal":"Z6018890","brand":"KUHN","sku":"Z6018890","category":"tractor","visual":"amber","icon":"package","price":0,"sourcePrice":0,"currency":"EUR","stock":"Цена по запросу","url":"https://bartsparts.com/products/kuhn-z6018890/"},{"id":"kuhn-z6019100","name":"KUHN Z6019100","nameOriginal":"Z6019100","brand":"KUHN","sku":"Z6019100","category":"tractor","visual":"amber","icon":"package","price":0,"sourcePrice":0,"currency":"EUR","stock":"Цена по запросу","url":"https://bartsparts.com/products/kuhn-z6019100/"},{"id":"kuhn-z6019280","name":"KUHN Z6019280","nameOriginal":"Z6019280","brand":"KUHN","sku":"Z6019280","category":"tractor","visual":"amber","icon":"package","price":0,"sourcePrice":0,"currency":"EUR","stock":"Цена по запросу","url":"https://bartsparts.com/products/kuhn-z6019280/"},{"id":"kuhn-z6020421","name":"KUHN Z6020421","nameOriginal":"Z6020421","brand":"KUHN","sku":"Z6020421","category":"tractor","visual":"amber","icon":"package","price":0,"sourcePrice":0,"currency":"EUR","stock":"Цена по запросу","url":"https://bartsparts.com/products/kuhn-z6020421/"},{"id":"kuhn-z6022280","name":"KUHN Z6022280","nameOriginal":"Z6022280","brand":"KUHN","sku":"Z6022280","category":"tractor","visual":"amber","icon":"package","price":0,"sourcePrice":0,"currency":"EUR","stock":"Цена по запросу","url":"https://bartsparts.com/products/kuhn-z6022280/"},{"id":"kuhn-z6024030","name":"KUHN Z6024030","nameOriginal":"Z6024030","brand":"KUHN","sku":"Z6024030","category":"tractor","visual":"amber","icon":"package","price":0,"sourcePrice":0,"currency":"EUR","stock":"Цена по запросу","url":"https://bartsparts.com/products/kuhn-z6024030/"},{"id":"kuhn-z6024790","name":"KUHN Z6024790","nameOriginal":"Z6024790","brand":"KUHN","sku":"Z6024790","category":"tractor","visual":"amber","icon":"package","price":0,"sourcePrice":0,"currency":"EUR","stock":"Цена по запросу","url":"https://bartsparts.com/products/kuhn-z6024790/"},{"id":"kuhn-z6025270","name":"KUHN Z6025270","nameOriginal":"Z6025270","brand":"KUHN","sku":"Z6025270","category":"tractor","visual":"amber","icon":"package","price":0,"sourcePrice":0,"currency":"EUR","stock":"Цена по запросу","url":"https://bartsparts.com/products/kuhn-z6025270/"},{"id":"kuhn-z6025990","name":"KUHN Z6025990","nameOriginal":"Z6025990","brand":"KUHN","sku":"Z6025990","category":"tractor","visual":"amber","icon":"package","price":0,"sourcePrice":0,"currency":"EUR","stock":"Цена по запросу","url":"https://bartsparts.com/products/kuhn-z6025990/"},{"id":"kuhn-z6028740","name":"KUHN Z6028740","nameOriginal":"Z6028740","brand":"KUHN","sku":"Z6028740","category":"tractor","visual":"amber","icon":"package","price":0,"sourcePrice":0,"currency":"EUR","stock":"Цена по запросу","url":"https://bartsparts.com/products/kuhn-z6028740/"},{"id":"kuhn-z6028930","name":"KUHN Z6028930","nameOriginal":"Z6028930","brand":"KUHN","sku":"Z6028930","category":"tractor","visual":"amber","icon":"package","price":0,"sourcePrice":0,"currency":"EUR","stock":"Цена по запросу","url":"https://bartsparts.com/products/kuhn-z6028930/"},{"id":"kuhn-z6100060","name":"KUHN Z6100060","nameOriginal":"Z6100060","brand":"KUHN","sku":"Z6100060","category":"tractor","visual":"amber","icon":"package","price":0,"sourcePrice":0,"currency":"EUR","stock":"Цена по запросу","url":"https://bartsparts.com/products/kuhn-z6100060/"},{"id":"kuhn-z6102960","name":"KUHN Z6102960","nameOriginal":"Z6102960","brand":"KUHN","sku":"Z6102960","category":"tractor","visual":"amber","icon":"package","price":0,"sourcePrice":0,"currency":"EUR","stock":"Цена по запросу","url":"https://bartsparts.com/products/kuhn-z6102960/"},{"id":"kuhn-z6102961","name":"KUHN Z6102961","nameOriginal":"Z6102961","brand":"KUHN","sku":"Z6102961","category":"tractor","visual":"amber","icon":"package","price":0,"sourcePrice":0,"currency":"EUR","stock":"Цена по запросу","url":"https://bartsparts.com/products/kuhn-z6102961/"},{"id":"kuhn-z6102970","name":"KUHN Z6102970","nameOriginal":"Z6102970","brand":"KUHN","sku":"Z6102970","category":"tractor","visual":"amber","icon":"package","price":0,"sourcePrice":0,"currency":"EUR","stock":"Цена по запросу","url":"https://bartsparts.com/products/kuhn-z6102970/"},{"id":"kuhn-z6103360","name":"KUHN Z6103360","nameOriginal":"Z6103360","brand":"KUHN","sku":"Z6103360","category":"tractor","visual":"amber","icon":"package","price":0,"sourcePrice":0,"currency":"EUR","stock":"Цена по запросу","url":"https://bartsparts.com/products/kuhn-z6103360/"},{"id":"kuhn-z6103810","name":"KUHN Z6103810","nameOriginal":"Z6103810","brand":"KUHN","sku":"Z6103810","category":"tractor","visual":"amber","icon":"package","price":0,"sourcePrice":0,"currency":"EUR","stock":"Цена по запросу","url":"https://bartsparts.com/products/kuhn-z6103810/"},{"id":"kuhn-z6104710","name":"KUHN Z6104710","nameOriginal":"Z6104710","brand":"KUHN","sku":"Z6104710","category":"tractor","visual":"amber","icon":"package","price":0,"sourcePrice":0,"currency":"EUR","stock":"Цена по запросу","url":"https://bartsparts.com/products/kuhn-z6104710/"},{"id":"kuhn-z6104750","name":"KUHN Z6104750","nameOriginal":"Z6104750","brand":"KUHN","sku":"Z6104750","category":"tractor","visual":"amber","icon":"package","price":0,"sourcePrice":0,"currency":"EUR","stock":"Цена по запросу","url":"https://bartsparts.com/products/kuhn-z6104750/"},{"id":"kuhn-z6104760","name":"KUHN Z6104760","nameOriginal":"Z6104760","brand":"KUHN","sku":"Z6104760","category":"tractor","visual":"amber","icon":"package","price":0,"sourcePrice":0,"currency":"EUR","stock":"Цена по запросу","url":"https://bartsparts.com/products/kuhn-z6104760/"},{"id":"kuhn-z6104871","name":"KUHN Z6104871","nameOriginal":"Z6104871","brand":"KUHN","sku":"Z6104871","category":"tractor","visual":"amber","icon":"package","price":0,"sourcePrice":0,"currency":"EUR","stock":"Цена по запросу","url":"https://bartsparts.com/products/kuhn-z6104871/"},{"id":"kuhn-z6106271","name":"KUHN Z6106271","nameOriginal":"Z6106271","brand":"KUHN","sku":"Z6106271","category":"tractor","visual":"amber","icon":"package","price":0,"sourcePrice":0,"currency":"EUR","stock":"Цена по запросу","url":"https://bartsparts.com/products/kuhn-z6106271/"},{"id":"kuhn-z6106440","name":"KUHN Z6106440","nameOriginal":"Z6106440","brand":"KUHN","sku":"Z6106440","category":"tractor","visual":"amber","icon":"package","price":0,"sourcePrice":0,"currency":"EUR","stock":"Цена по запросу","url":"https://bartsparts.com/products/kuhn-z6106440/"},{"id":"kuhn-z6106810","name":"KUHN Z6106810","nameOriginal":"Z6106810","brand":"KUHN","sku":"Z6106810","category":"tractor","visual":"amber","icon":"package","price":0,"sourcePrice":0,"currency":"EUR","stock":"Цена по запросу","url":"https://bartsparts.com/products/kuhn-z6106810/"},{"id":"kuhn-z6108350","name":"KUHN Z6108350","nameOriginal":"Z6108350","brand":"KUHN","sku":"Z6108350","category":"tractor","visual":"amber","icon":"package","price":0,"sourcePrice":0,"currency":"EUR","stock":"Цена по запросу","url":"https://bartsparts.com/products/kuhn-z6108350/"},{"id":"kuhn-z6108360","name":"KUHN Z6108360","nameOriginal":"Z6108360","brand":"KUHN","sku":"Z6108360","category":"tractor","visual":"amber","icon":"package","price":0,"sourcePrice":0,"currency":"EUR","stock":"Цена по запросу","url":"https://bartsparts.com/products/kuhn-z6108360/"},{"id":"kuhn-z6108400","name":"KUHN Z6108400","nameOriginal":"Z6108400","brand":"KUHN","sku":"Z6108400","category":"tractor","visual":"amber","icon":"package","price":0,"sourcePrice":0,"currency":"EUR","stock":"Цена по запросу","url":"https://bartsparts.com/products/kuhn-z6108400/"},{"id":"kuhn-z6108420","name":"KUHN Z6108420","nameOriginal":"Z6108420","brand":"KUHN","sku":"Z6108420","category":"tractor","visual":"amber","icon":"package","price":0,"sourcePrice":0,"currency":"EUR","stock":"Цена по запросу","url":"https://bartsparts.com/products/kuhn-z6108420/"},{"id":"kuhn-z6109740","name":"KUHN Z6109740","nameOriginal":"Z6109740","brand":"KUHN","sku":"Z6109740","category":"tractor","visual":"amber","icon":"package","price":0,"sourcePrice":0,"currency":"EUR","stock":"Цена по запросу","url":"https://bartsparts.com/products/kuhn-z6109740/"},{"id":"kuhn-z6109901","name":"KUHN Z6109901","nameOriginal":"Z6109901","brand":"KUHN","sku":"Z6109901","category":"tractor","visual":"amber","icon":"package","price":0,"sourcePrice":0,"currency":"EUR","stock":"Цена по запросу","url":"https://bartsparts.com/products/kuhn-z6109901/"},{"id":"kuhn-z6110300","name":"KUHN Z6110300","nameOriginal":"Z6110300","brand":"KUHN","sku":"Z6110300","category":"tractor","visual":"amber","icon":"package","price":0,"sourcePrice":0,"currency":"EUR","stock":"Цена по запросу","url":"https://bartsparts.com/products/kuhn-z6110300/"},{"id":"kuhn-z6111520","name":"KUHN Z6111520","nameOriginal":"Z6111520","brand":"KUHN","sku":"Z6111520","category":"tractor","visual":"amber","icon":"package","price":0,"sourcePrice":0,"currency":"EUR","stock":"Цена по запросу","url":"https://bartsparts.com/products/kuhn-z6111520/"},{"id":"kuhn-z6114090","name":"KUHN Z6114090","nameOriginal":"Z6114090","brand":"KUHN","sku":"Z6114090","category":"tractor","visual":"amber","icon":"package","price":0,"sourcePrice":0,"currency":"EUR","stock":"Цена по запросу","url":"https://bartsparts.com/products/kuhn-z6114090/"},{"id":"kuhn-z6115380","name":"KUHN Z6115380","nameOriginal":"Z6115380","brand":"KUHN","sku":"Z6115380","category":"tractor","visual":"amber","icon":"package","price":0,"sourcePrice":0,"currency":"EUR","stock":"Цена по запросу","url":"https://bartsparts.com/products/kuhn-z6115380/"},{"id":"kuhn-z80201670","name":"KUHN Z80201670","nameOriginal":"Z80201670","brand":"KUHN","sku":"Z80201670","category":"tractor","visual":"amber","icon":"package","price":0,"sourcePrice":0,"currency":"EUR","stock":"Цена по запросу","url":"https://bartsparts.com/products/kuhn-z80201670/"},{"id":"kuhn-z80253536","name":"KUHN Z80253536","nameOriginal":"Z80253536","brand":"KUHN","sku":"Z80253536","category":"tractor","visual":"amber","icon":"package","price":0,"sourcePrice":0,"currency":"EUR","stock":"Цена по запросу","url":"https://bartsparts.com/products/kuhn-z80253536/"},{"id":"kuhn-z80281639","name":"KUHN Z80281639","nameOriginal":"Z80281639","brand":"KUHN","sku":"Z80281639","category":"tractor","visual":"amber","icon":"package","price":0,"sourcePrice":0,"currency":"EUR","stock":"Цена по запросу","url":"https://bartsparts.com/products/kuhn-z80281639/"},{"id":"kuhn-zs018580","name":"KUHN ZS018580","nameOriginal":"ZS018580","brand":"KUHN","sku":"ZS018580","category":"tractor","visual":"amber","icon":"package","price":0,"sourcePrice":0,"currency":"EUR","stock":"Цена по запросу","url":"https://bartsparts.com/products/kuhn-zs018580/"},{"id":"kuhn-zwatborddoekschudde","name":"KUHN ZWATBORDDOEKSCHUDDE","nameOriginal":"ZWATBORDDOEKSCHUDDE","brand":"KUHN","sku":"ZWATBORDDOEKSCHUDDE","category":"tractor","visual":"amber","icon":"package","price":0,"sourcePrice":0,"currency":"EUR","stock":"Цена по запросу","url":"https://bartsparts.com/products/kuhn-zwatborddoekschudde/"}]}
