{"metadata":{"brand":"Merlo","brandSlug":"merlo","page":7,"pages":7,"count":6057,"chunkSize":1000,"currency":"EUR","priceMarkupPercent":20},"products":[{"id":"merlo-p00655","name":"Merlo P00655","nameOriginal":"P00655","brand":"Merlo","sku":"P00655","category":"tractor","visual":"steel","icon":"package","price":0,"sourcePrice":0,"currency":"EUR","stock":"Цена по запросу","url":"https://bartsparts.com/products/merlo-p00655/"},{"id":"merlo-p00661","name":"Merlo P00661","nameOriginal":"P00661","brand":"Merlo","sku":"P00661","category":"tractor","visual":"steel","icon":"package","price":0,"sourcePrice":0,"currency":"EUR","stock":"Цена по запросу","url":"https://bartsparts.com/products/merlo-p00661/"},{"id":"merlo-p00689","name":"Merlo P00689","nameOriginal":"P00689","brand":"Merlo","sku":"P00689","category":"tractor","visual":"steel","icon":"package","price":0,"sourcePrice":0,"currency":"EUR","stock":"Цена по запросу","url":"https://bartsparts.com/products/merlo-p00689/"},{"id":"merlo-p00690","name":"Merlo P00690","nameOriginal":"P00690","brand":"Merlo","sku":"P00690","category":"tractor","visual":"steel","icon":"package","price":0,"sourcePrice":0,"currency":"EUR","stock":"Цена по запросу","url":"https://bartsparts.com/products/merlo-p00690/"},{"id":"merlo-p00691","name":"Merlo P00691","nameOriginal":"P00691","brand":"Merlo","sku":"P00691","category":"tractor","visual":"steel","icon":"package","price":0,"sourcePrice":0,"currency":"EUR","stock":"Цена по запросу","url":"https://bartsparts.com/products/merlo-p00691/"},{"id":"merlo-p00694","name":"Merlo P00694","nameOriginal":"P00694","brand":"Merlo","sku":"P00694","category":"tractor","visual":"steel","icon":"package","price":0,"sourcePrice":0,"currency":"EUR","stock":"Цена по запросу","url":"https://bartsparts.com/products/merlo-p00694/"},{"id":"merlo-p00704","name":"Merlo P00704","nameOriginal":"P00704","brand":"Merlo","sku":"P00704","category":"tractor","visual":"steel","icon":"package","price":0,"sourcePrice":0,"currency":"EUR","stock":"Цена по запросу","url":"https://bartsparts.com/products/merlo-p00704/"},{"id":"merlo-p00708","name":"Merlo P00708","nameOriginal":"P00708","brand":"Merlo","sku":"P00708","category":"tractor","visual":"steel","icon":"package","price":0,"sourcePrice":0,"currency":"EUR","stock":"Цена по запросу","url":"https://bartsparts.com/products/merlo-p00708/"},{"id":"merlo-p00730","name":"Merlo P00730","nameOriginal":"P00730","brand":"Merlo","sku":"P00730","category":"tractor","visual":"steel","icon":"package","price":0,"sourcePrice":0,"currency":"EUR","stock":"Цена по запросу","url":"https://bartsparts.com/products/merlo-p00730/"},{"id":"merlo-p00731","name":"Merlo P00731","nameOriginal":"P00731","brand":"Merlo","sku":"P00731","category":"tractor","visual":"steel","icon":"package","price":0,"sourcePrice":0,"currency":"EUR","stock":"Цена по запросу","url":"https://bartsparts.com/products/merlo-p00731/"},{"id":"merlo-p00738","name":"Merlo P00738","nameOriginal":"P00738","brand":"Merlo","sku":"P00738","category":"tractor","visual":"steel","icon":"package","price":0,"sourcePrice":0,"currency":"EUR","stock":"Цена по запросу","url":"https://bartsparts.com/products/merlo-p00738/"},{"id":"merlo-p00742","name":"Merlo P00742","nameOriginal":"P00742","brand":"Merlo","sku":"P00742","category":"tractor","visual":"steel","icon":"package","price":0,"sourcePrice":0,"currency":"EUR","stock":"Цена по запросу","url":"https://bartsparts.com/products/merlo-p00742/"},{"id":"merlo-p00744","name":"Merlo P00744","nameOriginal":"P00744","brand":"Merlo","sku":"P00744","category":"tractor","visual":"steel","icon":"package","price":0,"sourcePrice":0,"currency":"EUR","stock":"Цена по запросу","url":"https://bartsparts.com/products/merlo-p00744/"},{"id":"merlo-p00744e","name":"Merlo P00744E","nameOriginal":"P00744E","brand":"Merlo","sku":"P00744E","category":"tractor","visual":"steel","icon":"package","price":0,"sourcePrice":0,"currency":"EUR","stock":"Цена по запросу","url":"https://bartsparts.com/products/merlo-p00744e/"},{"id":"merlo-p00745","name":"Merlo P00745","nameOriginal":"P00745","brand":"Merlo","sku":"P00745","category":"tractor","visual":"steel","icon":"package","price":0,"sourcePrice":0,"currency":"EUR","stock":"Цена по запросу","url":"https://bartsparts.com/products/merlo-p00745/"},{"id":"merlo-p00746","name":"Merlo P00746","nameOriginal":"P00746","brand":"Merlo","sku":"P00746","category":"tractor","visual":"steel","icon":"package","price":0,"sourcePrice":0,"currency":"EUR","stock":"Цена по запросу","url":"https://bartsparts.com/products/merlo-p00746/"},{"id":"merlo-p775300","name":"Merlo P775300","nameOriginal":"P775300","brand":"Merlo","sku":"P775300","category":"tractor","visual":"steel","icon":"package","price":0,"sourcePrice":0,"currency":"EUR","stock":"Цена по запросу","url":"https://bartsparts.com/products/merlo-p775300/"},{"id":"merlo-p780522","name":"Merlo P780522","nameOriginal":"P780522","brand":"Merlo","sku":"P780522","category":"tractor","visual":"steel","icon":"package","price":0,"sourcePrice":0,"currency":"EUR","stock":"Цена по запросу","url":"https://bartsparts.com/products/merlo-p780522/"},{"id":"merlo-p780523","name":"Merlo P780523","nameOriginal":"P780523","brand":"Merlo","sku":"P780523","category":"tractor","visual":"steel","icon":"package","price":0,"sourcePrice":0,"currency":"EUR","stock":"Цена по запросу","url":"https://bartsparts.com/products/merlo-p780523/"},{"id":"merlo-q0338","name":"Merlo Q0338","nameOriginal":"Q0338","brand":"Merlo","sku":"Q0338","category":"tractor","visual":"steel","icon":"package","price":0,"sourcePrice":0,"currency":"EUR","stock":"Цена по запросу","url":"https://bartsparts.com/products/merlo-q0338/"},{"id":"merlo-q10907","name":"Merlo Q10907","nameOriginal":"Q10907","brand":"Merlo","sku":"Q10907","category":"tractor","visual":"steel","icon":"package","price":0,"sourcePrice":0,"currency":"EUR","stock":"Цена по запросу","url":"https://bartsparts.com/products/merlo-q10907/"},{"id":"merlo-r0014y22","name":"Merlo R0014Y22","nameOriginal":"R0014Y22","brand":"Merlo","sku":"R0014Y22","category":"tractor","visual":"steel","icon":"package","price":0,"sourcePrice":0,"currency":"EUR","stock":"Цена по запросу","url":"https://bartsparts.com/products/merlo-r0014y22/"},{"id":"merlo-s82600","name":"Merlo S82600","nameOriginal":"S82600","brand":"Merlo","sku":"S82600","category":"tractor","visual":"steel","icon":"package","price":0,"sourcePrice":0,"currency":"EUR","stock":"Цена по запросу","url":"https://bartsparts.com/products/merlo-s82600/"},{"id":"merlo-smr121198","name":"Merlo SMR121198","nameOriginal":"SMR121198","brand":"Merlo","sku":"SMR121198","category":"tractor","visual":"steel","icon":"package","price":0,"sourcePrice":0,"currency":"EUR","stock":"Цена по запросу","url":"https://bartsparts.com/products/merlo-smr121198/"},{"id":"merlo-smr128773","name":"Merlo SMR128773","nameOriginal":"SMR128773","brand":"Merlo","sku":"SMR128773","category":"tractor","visual":"steel","icon":"package","price":0,"sourcePrice":0,"currency":"EUR","stock":"Цена по запросу","url":"https://bartsparts.com/products/merlo-smr128773/"},{"id":"merlo-sv0055","name":"Merlo SV0055","nameOriginal":"SV0055","brand":"Merlo","sku":"SV0055","category":"tractor","visual":"steel","icon":"package","price":0,"sourcePrice":0,"currency":"EUR","stock":"Цена по запросу","url":"https://bartsparts.com/products/merlo-sv0055/"},{"id":"merlo-sv1022","name":"Merlo SV1022","nameOriginal":"SV1022","brand":"Merlo","sku":"SV1022","category":"tractor","visual":"steel","icon":"package","price":0,"sourcePrice":0,"currency":"EUR","stock":"Цена по запросу","url":"https://bartsparts.com/products/merlo-sv1022/"},{"id":"merlo-sv1511","name":"Merlo SV1511","nameOriginal":"SV1511","brand":"Merlo","sku":"SV1511","category":"tractor","visual":"steel","icon":"package","price":0,"sourcePrice":0,"currency":"EUR","stock":"Цена по запросу","url":"https://bartsparts.com/products/merlo-sv1511/"},{"id":"merlo-sv2021","name":"Merlo SV2021","nameOriginal":"SV2021","brand":"Merlo","sku":"SV2021","category":"tractor","visual":"steel","icon":"package","price":0,"sourcePrice":0,"currency":"EUR","stock":"Цена по запросу","url":"https://bartsparts.com/products/merlo-sv2021/"},{"id":"merlo-sv2413","name":"Merlo SV2413","nameOriginal":"SV2413","brand":"Merlo","sku":"SV2413","category":"tractor","visual":"steel","icon":"package","price":0,"sourcePrice":0,"currency":"EUR","stock":"Цена по запросу","url":"https://bartsparts.com/products/merlo-sv2413/"},{"id":"merlo-t409161","name":"Merlo T409161","nameOriginal":"T409161","brand":"Merlo","sku":"T409161","category":"tractor","visual":"steel","icon":"package","price":0,"sourcePrice":0,"currency":"EUR","stock":"Цена по запросу","url":"https://bartsparts.com/products/merlo-t409161/"},{"id":"merlo-tbme0001","name":"Merlo TBME0001","nameOriginal":"TBME0001","brand":"Merlo","sku":"TBME0001","category":"tractor","visual":"steel","icon":"package","price":0,"sourcePrice":0,"currency":"EUR","stock":"Цена по запросу","url":"https://bartsparts.com/products/merlo-tbme0001/"},{"id":"merlo-tdlsp01320002","name":"Merlo TDLSP01320002","nameOriginal":"TDLSP01320002","brand":"Merlo","sku":"TDLSP01320002","category":"tractor","visual":"steel","icon":"package","price":0,"sourcePrice":0,"currency":"EUR","stock":"Цена по запросу","url":"https://bartsparts.com/products/merlo-tdlsp01320002/"},{"id":"merlo-tdlsp01323101","name":"Merlo TDLSP01323101","nameOriginal":"TDLSP01323101","brand":"Merlo","sku":"TDLSP01323101","category":"tractor","visual":"steel","icon":"package","price":0,"sourcePrice":0,"currency":"EUR","stock":"Цена по запросу","url":"https://bartsparts.com/products/merlo-tdlsp01323101/"},{"id":"merlo-tvh28696967","name":"Merlo TVH28696967","nameOriginal":"TVH28696967","brand":"Merlo","sku":"TVH28696967","category":"tractor","visual":"steel","icon":"package","price":0,"sourcePrice":0,"currency":"EUR","stock":"Цена по запросу","url":"https://bartsparts.com/products/merlo-tvh28696967/"},{"id":"merlo-tvh51108618","name":"Merlo TVH51108618","nameOriginal":"TVH51108618","brand":"Merlo","sku":"TVH51108618","category":"tractor","visual":"steel","icon":"package","price":0,"sourcePrice":0,"currency":"EUR","stock":"Цена по запросу","url":"https://bartsparts.com/products/merlo-tvh51108618/"},{"id":"merlo-u20240","name":"Merlo U20240","nameOriginal":"U20240","brand":"Merlo","sku":"U20240","category":"tractor","visual":"steel","icon":"package","price":0,"sourcePrice":0,"currency":"EUR","stock":"Цена по запросу","url":"https://bartsparts.com/products/merlo-u20240/"},{"id":"merlo-u5mh0056","name":"Merlo U5MH0056","nameOriginal":"U5MH0056","brand":"Merlo","sku":"U5MH0056","category":"tractor","visual":"steel","icon":"package","price":0,"sourcePrice":0,"currency":"EUR","stock":"Цена по запросу","url":"https://bartsparts.com/products/merlo-u5mh0056/"},{"id":"merlo-u5mk0384","name":"Merlo U5MK0384","nameOriginal":"U5MK0384","brand":"Merlo","sku":"U5MK0384","category":"tractor","visual":"steel","icon":"package","price":0,"sourcePrice":0,"currency":"EUR","stock":"Цена по запросу","url":"https://bartsparts.com/products/merlo-u5mk0384/"},{"id":"merlo-ulpk0003","name":"Merlo ULPK0003","nameOriginal":"ULPK0003","brand":"Merlo","sku":"ULPK0003","category":"tractor","visual":"steel","icon":"package","price":0,"sourcePrice":0,"currency":"EUR","stock":"Цена по запросу","url":"https://bartsparts.com/products/merlo-ulpk0003/"},{"id":"merlo-um3000","name":"Merlo UM3000","nameOriginal":"UM3000","brand":"Merlo","sku":"UM3000","category":"tractor","visual":"steel","icon":"package","price":0,"sourcePrice":0,"currency":"EUR","stock":"Цена по запросу","url":"https://bartsparts.com/products/merlo-um3000/"},{"id":"merlo-um3001","name":"Merlo UM3001","nameOriginal":"UM3001","brand":"Merlo","sku":"UM3001","category":"tractor","visual":"steel","icon":"package","price":0,"sourcePrice":0,"currency":"EUR","stock":"Цена по запросу","url":"https://bartsparts.com/products/merlo-um3001/"},{"id":"merlo-um7616","name":"Merlo UM7616","nameOriginal":"UM7616","brand":"Merlo","sku":"UM7616","category":"tractor","visual":"steel","icon":"package","price":0,"sourcePrice":0,"currency":"EUR","stock":"Цена по запросу","url":"https://bartsparts.com/products/merlo-um7616/"},{"id":"merlo-um761605","name":"Merlo UM761605","nameOriginal":"UM761605","brand":"Merlo","sku":"UM761605","category":"tractor","visual":"steel","icon":"package","price":0,"sourcePrice":0,"currency":"EUR","stock":"Цена по запросу","url":"https://bartsparts.com/products/merlo-um761605/"},{"id":"merlo-um7631s","name":"Merlo UM7631S","nameOriginal":"UM7631S","brand":"Merlo","sku":"UM7631S","category":"tractor","visual":"steel","icon":"package","price":0,"sourcePrice":0,"currency":"EUR","stock":"Цена по запросу","url":"https://bartsparts.com/products/merlo-um7631s/"},{"id":"merlo-um9086","name":"Merlo UM9086","nameOriginal":"UM9086","brand":"Merlo","sku":"UM9086","category":"tractor","visual":"steel","icon":"package","price":0,"sourcePrice":0,"currency":"EUR","stock":"Цена по запросу","url":"https://bartsparts.com/products/merlo-um9086/"},{"id":"merlo-um9089","name":"Merlo UM9089","nameOriginal":"UM9089","brand":"Merlo","sku":"UM9089","category":"tractor","visual":"steel","icon":"package","price":0,"sourcePrice":0,"currency":"EUR","stock":"Цена по запросу","url":"https://bartsparts.com/products/merlo-um9089/"},{"id":"merlo-uwm240","name":"Merlo UWM240","nameOriginal":"UWM240","brand":"Merlo","sku":"UWM240","category":"tractor","visual":"steel","icon":"package","price":0,"sourcePrice":0,"currency":"EUR","stock":"Цена по запросу","url":"https://bartsparts.com/products/merlo-uwm240/"},{"id":"merlo-v2510","name":"Merlo V2510","nameOriginal":"V2510","brand":"Merlo","sku":"V2510","category":"tractor","visual":"steel","icon":"package","price":0,"sourcePrice":0,"currency":"EUR","stock":"Цена по запросу","url":"https://bartsparts.com/products/merlo-v2510/"},{"id":"merlo-wk9405","name":"Merlo WK9405","nameOriginal":"WK9405","brand":"Merlo","sku":"WK9405","category":"tractor","visual":"steel","icon":"package","price":0,"sourcePrice":0,"currency":"EUR","stock":"Цена по запросу","url":"https://bartsparts.com/products/merlo-wk9405/"},{"id":"merlo-y00001","name":"Merlo Y00001","nameOriginal":"Y00001","brand":"Merlo","sku":"Y00001","category":"tractor","visual":"steel","icon":"package","price":0,"sourcePrice":0,"currency":"EUR","stock":"Цена по запросу","url":"https://bartsparts.com/products/merlo-y00001/"},{"id":"merlo-y00003","name":"Merlo Y00003","nameOriginal":"Y00003","brand":"Merlo","sku":"Y00003","category":"tractor","visual":"steel","icon":"package","price":0,"sourcePrice":0,"currency":"EUR","stock":"Цена по запросу","url":"https://bartsparts.com/products/merlo-y00003/"},{"id":"merlo-zbe101","name":"Merlo ZBE101","nameOriginal":"ZBE101","brand":"Merlo","sku":"ZBE101","category":"tractor","visual":"steel","icon":"package","price":0,"sourcePrice":0,"currency":"EUR","stock":"Цена по запросу","url":"https://bartsparts.com/products/merlo-zbe101/"},{"id":"merlo-zbe102","name":"Merlo ZBE102","nameOriginal":"ZBE102","brand":"Merlo","sku":"ZBE102","category":"tractor","visual":"steel","icon":"package","price":0,"sourcePrice":0,"currency":"EUR","stock":"Цена по запросу","url":"https://bartsparts.com/products/merlo-zbe102/"},{"id":"merlo-zbe205","name":"Merlo ZBE205","nameOriginal":"ZBE205","brand":"Merlo","sku":"ZBE205","category":"tractor","visual":"steel","icon":"package","price":0,"sourcePrice":0,"currency":"EUR","stock":"Цена по запросу","url":"https://bartsparts.com/products/merlo-zbe205/"},{"id":"merlo-zcky18","name":"Merlo ZCKY18","nameOriginal":"ZCKY18","brand":"Merlo","sku":"ZCKY18","category":"tractor","visual":"steel","icon":"package","price":0,"sourcePrice":0,"currency":"EUR","stock":"Цена по запросу","url":"https://bartsparts.com/products/merlo-zcky18/"},{"id":"merlo-zct21g11","name":"Merlo ZCT21G11","nameOriginal":"ZCT21G11","brand":"Merlo","sku":"ZCT21G11","category":"tractor","visual":"steel","icon":"package","price":0,"sourcePrice":0,"currency":"EUR","stock":"Цена по запросу","url":"https://bartsparts.com/products/merlo-zct21g11/"}]}
