{"metadata":{"brand":"Grammer","brandSlug":"grammer","page":2,"pages":2,"count":1050,"chunkSize":1000,"currency":"EUR","priceMarkupPercent":20},"products":[{"id":"grammer-no-107681no","name":"Grammer NO-107681NO","nameOriginal":"NO-107681NO","brand":"Grammer","sku":"NO-107681NO","category":"tractor","visual":"danger","icon":"package","price":0,"sourcePrice":0,"currency":"EUR","stock":"Цена по запросу","url":"https://bartsparts.com/products/grammer-no-107681no/"},{"id":"grammer-no-1079670no","name":"Grammer NO-1079670NO","nameOriginal":"NO-1079670NO","brand":"Grammer","sku":"NO-1079670NO","category":"tractor","visual":"danger","icon":"package","price":0,"sourcePrice":0,"currency":"EUR","stock":"Цена по запросу","url":"https://bartsparts.com/products/grammer-no-1079670no/"},{"id":"grammer-no-1079671no","name":"Grammer NO-1079671NO","nameOriginal":"NO-1079671NO","brand":"Grammer","sku":"NO-1079671NO","category":"tractor","visual":"danger","icon":"package","price":0,"sourcePrice":0,"currency":"EUR","stock":"Цена по запросу","url":"https://bartsparts.com/products/grammer-no-1079671no/"},{"id":"grammer-no-116010no","name":"Grammer NO-116010NO","nameOriginal":"NO-116010NO","brand":"Grammer","sku":"NO-116010NO","category":"tractor","visual":"danger","icon":"package","price":0,"sourcePrice":0,"currency":"EUR","stock":"Цена по запросу","url":"https://bartsparts.com/products/grammer-no-116010no/"},{"id":"grammer-no-1169705no","name":"Grammer NO-1169705NO","nameOriginal":"NO-1169705NO","brand":"Grammer","sku":"NO-1169705NO","category":"tractor","visual":"danger","icon":"package","price":0,"sourcePrice":0,"currency":"EUR","stock":"Цена по запросу","url":"https://bartsparts.com/products/grammer-no-1169705no/"},{"id":"grammer-no-1288546no","name":"Grammer NO-1288546NO","nameOriginal":"NO-1288546NO","brand":"Grammer","sku":"NO-1288546NO","category":"tractor","visual":"danger","icon":"package","price":0,"sourcePrice":0,"currency":"EUR","stock":"Цена по запросу","url":"https://bartsparts.com/products/grammer-no-1288546no/"},{"id":"grammer-no-133018no","name":"Grammer NO-133018NO","nameOriginal":"NO-133018NO","brand":"Grammer","sku":"NO-133018NO","category":"tractor","visual":"danger","icon":"package","price":0,"sourcePrice":0,"currency":"EUR","stock":"Цена по запросу","url":"https://bartsparts.com/products/grammer-no-133018no/"},{"id":"grammer-no-a1096551no","name":"Grammer NO-A1096551NO","nameOriginal":"NO-A1096551NO","brand":"Grammer","sku":"NO-A1096551NO","category":"tractor","visual":"danger","icon":"package","price":0,"sourcePrice":0,"currency":"EUR","stock":"Цена по запросу","url":"https://bartsparts.com/products/grammer-no-a1096551no/"},{"id":"grammer-no-a1096591no","name":"Grammer NO-A1096591NO","nameOriginal":"NO-A1096591NO","brand":"Grammer","sku":"NO-A1096591NO","category":"tractor","visual":"danger","icon":"package","price":0,"sourcePrice":0,"currency":"EUR","stock":"Цена по запросу","url":"https://bartsparts.com/products/grammer-no-a1096591no/"},{"id":"grammer-no-a1112227no","name":"Grammer NO-A1112227NO","nameOriginal":"NO-A1112227NO","brand":"Grammer","sku":"NO-A1112227NO","category":"tractor","visual":"danger","icon":"package","price":0,"sourcePrice":0,"currency":"EUR","stock":"Цена по запросу","url":"https://bartsparts.com/products/grammer-no-a1112227no/"},{"id":"grammer-no-a1268712no","name":"Grammer NO-A1268712NO","nameOriginal":"NO-A1268712NO","brand":"Grammer","sku":"NO-A1268712NO","category":"tractor","visual":"danger","icon":"package","price":0,"sourcePrice":0,"currency":"EUR","stock":"Цена по запросу","url":"https://bartsparts.com/products/grammer-no-a1268712no/"},{"id":"grammer-no-an31040600no","name":"Grammer NO-AN31040600NO","nameOriginal":"NO-AN31040600NO","brand":"Grammer","sku":"NO-AN31040600NO","category":"tractor","visual":"danger","icon":"package","price":0,"sourcePrice":0,"currency":"EUR","stock":"Цена по запросу","url":"https://bartsparts.com/products/grammer-no-an31040600no/"},{"id":"grammer-o0218670","name":"Grammer O0218670","nameOriginal":"O0218670","brand":"Grammer","sku":"O0218670","category":"tractor","visual":"danger","icon":"package","price":0,"sourcePrice":0,"currency":"EUR","stock":"Цена по запросу","url":"https://bartsparts.com/products/grammer-o0218670/"},{"id":"grammer-o0226015","name":"Grammer O0226015","nameOriginal":"O0226015","brand":"Grammer","sku":"O0226015","category":"tractor","visual":"danger","icon":"package","price":0,"sourcePrice":0,"currency":"EUR","stock":"Цена по запросу","url":"https://bartsparts.com/products/grammer-o0226015/"},{"id":"grammer-o0226552","name":"Grammer O0226552","nameOriginal":"O0226552","brand":"Grammer","sku":"O0226552","category":"tractor","visual":"danger","icon":"package","price":0,"sourcePrice":0,"currency":"EUR","stock":"Цена по запросу","url":"https://bartsparts.com/products/grammer-o0226552/"},{"id":"grammer-o0230030","name":"Grammer O0230030","nameOriginal":"O0230030","brand":"Grammer","sku":"O0230030","category":"tractor","visual":"danger","icon":"package","price":0,"sourcePrice":0,"currency":"EUR","stock":"Цена по запросу","url":"https://bartsparts.com/products/grammer-o0230030/"},{"id":"grammer-o0235008","name":"Grammer O0235008","nameOriginal":"O0235008","brand":"Grammer","sku":"O0235008","category":"tractor","visual":"danger","icon":"package","price":0,"sourcePrice":0,"currency":"EUR","stock":"Цена по запросу","url":"https://bartsparts.com/products/grammer-o0235008/"},{"id":"grammer-o0250040","name":"Grammer O0250040","nameOriginal":"O0250040","brand":"Grammer","sku":"O0250040","category":"tractor","visual":"danger","icon":"package","price":0,"sourcePrice":0,"currency":"EUR","stock":"Цена по запросу","url":"https://bartsparts.com/products/grammer-o0250040/"},{"id":"grammer-o0253746","name":"Grammer O0253746","nameOriginal":"O0253746","brand":"Grammer","sku":"O0253746","category":"tractor","visual":"danger","icon":"package","price":0,"sourcePrice":0,"currency":"EUR","stock":"Цена по запросу","url":"https://bartsparts.com/products/grammer-o0253746/"},{"id":"grammer-o0269124","name":"Grammer O0269124","nameOriginal":"O0269124","brand":"Grammer","sku":"O0269124","category":"tractor","visual":"danger","icon":"package","price":0,"sourcePrice":0,"currency":"EUR","stock":"Цена по запросу","url":"https://bartsparts.com/products/grammer-o0269124/"},{"id":"grammer-on150300","name":"Grammer ON150300","nameOriginal":"ON150300","brand":"Grammer","sku":"ON150300","category":"tractor","visual":"danger","icon":"package","price":0,"sourcePrice":0,"currency":"EUR","stock":"Цена по запросу","url":"https://bartsparts.com/products/grammer-on150300/"},{"id":"grammer-pi180107","name":"Grammer PI180107","nameOriginal":"PI180107","brand":"Grammer","sku":"PI180107","category":"tractor","visual":"danger","icon":"package","price":0,"sourcePrice":0,"currency":"EUR","stock":"Цена по запросу","url":"https://bartsparts.com/products/grammer-pi180107/"},{"id":"grammer-pr193","name":"Grammer PR193","nameOriginal":"PR193","brand":"Grammer","sku":"PR193","category":"tractor","visual":"danger","icon":"package","price":0,"sourcePrice":0,"currency":"EUR","stock":"Цена по запросу","url":"https://bartsparts.com/products/grammer-pr193/"},{"id":"grammer-pvc50202","name":"Grammer PVC50202","nameOriginal":"PVC50202","brand":"Grammer","sku":"PVC50202","category":"tractor","visual":"danger","icon":"package","price":0,"sourcePrice":0,"currency":"EUR","stock":"Цена по запросу","url":"https://bartsparts.com/products/grammer-pvc50202/"},{"id":"grammer-r0140940","name":"Grammer R0140940","nameOriginal":"R0140940","brand":"Grammer","sku":"R0140940","category":"tractor","visual":"danger","icon":"package","price":0,"sourcePrice":0,"currency":"EUR","stock":"Цена по запросу","url":"https://bartsparts.com/products/grammer-r0140940/"},{"id":"grammer-r0200933","name":"Grammer R0200933","nameOriginal":"R0200933","brand":"Grammer","sku":"R0200933","category":"tractor","visual":"danger","icon":"package","price":0,"sourcePrice":0,"currency":"EUR","stock":"Цена по запросу","url":"https://bartsparts.com/products/grammer-r0200933/"},{"id":"grammer-rr134831","name":"Grammer RR134831","nameOriginal":"RR134831","brand":"Grammer","sku":"RR134831","category":"tractor","visual":"danger","icon":"package","price":0,"sourcePrice":0,"currency":"EUR","stock":"Цена по запросу","url":"https://bartsparts.com/products/grammer-rr134831/"},{"id":"grammer-s0604b","name":"Grammer S0604B","nameOriginal":"S0604B","brand":"Grammer","sku":"S0604B","category":"tractor","visual":"danger","icon":"package","price":0,"sourcePrice":0,"currency":"EUR","stock":"Цена по запросу","url":"https://bartsparts.com/products/grammer-s0604b/"},{"id":"grammer-s3004110","name":"Grammer S3004110","nameOriginal":"S3004110","brand":"Grammer","sku":"S3004110","category":"tractor","visual":"danger","icon":"package","price":0,"sourcePrice":0,"currency":"EUR","stock":"Цена по запросу","url":"https://bartsparts.com/products/grammer-s3004110/"},{"id":"grammer-s3004150","name":"Grammer S3004150","nameOriginal":"S3004150","brand":"Grammer","sku":"S3004150","category":"tractor","visual":"danger","icon":"package","price":0,"sourcePrice":0,"currency":"EUR","stock":"Цена по запросу","url":"https://bartsparts.com/products/grammer-s3004150/"},{"id":"grammer-s300441","name":"Grammer S300441","nameOriginal":"S300441","brand":"Grammer","sku":"S300441","category":"tractor","visual":"danger","icon":"package","price":0,"sourcePrice":0,"currency":"EUR","stock":"Цена по запросу","url":"https://bartsparts.com/products/grammer-s300441/"},{"id":"grammer-s3006131","name":"Grammer S3006131","nameOriginal":"S3006131","brand":"Grammer","sku":"S3006131","category":"tractor","visual":"danger","icon":"package","price":0,"sourcePrice":0,"currency":"EUR","stock":"Цена по запросу","url":"https://bartsparts.com/products/grammer-s3006131/"},{"id":"grammer-s3010179","name":"Grammer S3010179","nameOriginal":"S3010179","brand":"Grammer","sku":"S3010179","category":"tractor","visual":"danger","icon":"package","price":0,"sourcePrice":0,"currency":"EUR","stock":"Цена по запросу","url":"https://bartsparts.com/products/grammer-s3010179/"},{"id":"grammer-s5108","name":"Grammer S5108","nameOriginal":"S5108","brand":"Grammer","sku":"S5108","category":"tractor","visual":"danger","icon":"package","price":0,"sourcePrice":0,"currency":"EUR","stock":"Цена по запросу","url":"https://bartsparts.com/products/grammer-s5108/"},{"id":"grammer-s5110","name":"Grammer S5110","nameOriginal":"S5110","brand":"Grammer","sku":"S5110","category":"tractor","visual":"danger","icon":"package","price":0,"sourcePrice":0,"currency":"EUR","stock":"Цена по запросу","url":"https://bartsparts.com/products/grammer-s5110/"},{"id":"grammer-s6000310","name":"Grammer S6000310","nameOriginal":"S6000310","brand":"Grammer","sku":"S6000310","category":"tractor","visual":"danger","icon":"package","price":0,"sourcePrice":0,"currency":"EUR","stock":"Цена по запросу","url":"https://bartsparts.com/products/grammer-s6000310/"},{"id":"grammer-s6000312","name":"Grammer S6000312","nameOriginal":"S6000312","brand":"Grammer","sku":"S6000312","category":"tractor","visual":"danger","icon":"package","price":0,"sourcePrice":0,"currency":"EUR","stock":"Цена по запросу","url":"https://bartsparts.com/products/grammer-s6000312/"},{"id":"grammer-s6000313","name":"Grammer S6000313","nameOriginal":"S6000313","brand":"Grammer","sku":"S6000313","category":"tractor","visual":"danger","icon":"package","price":0,"sourcePrice":0,"currency":"EUR","stock":"Цена по запросу","url":"https://bartsparts.com/products/grammer-s6000313/"},{"id":"grammer-s6041","name":"Grammer S6041","nameOriginal":"S6041","brand":"Grammer","sku":"S6041","category":"tractor","visual":"danger","icon":"package","price":0,"sourcePrice":0,"currency":"EUR","stock":"Цена по запросу","url":"https://bartsparts.com/products/grammer-s6041/"},{"id":"grammer-s604414z","name":"Grammer S604414Z","nameOriginal":"S604414Z","brand":"Grammer","sku":"S604414Z","category":"tractor","visual":"danger","icon":"package","price":0,"sourcePrice":0,"currency":"EUR","stock":"Цена по запросу","url":"https://bartsparts.com/products/grammer-s604414z/"},{"id":"grammer-s607001","name":"Grammer S607001","nameOriginal":"S607001","brand":"Grammer","sku":"S607001","category":"tractor","visual":"danger","icon":"package","price":0,"sourcePrice":0,"currency":"EUR","stock":"Цена по запросу","url":"https://bartsparts.com/products/grammer-s607001/"},{"id":"grammer-s607002","name":"Grammer S607002","nameOriginal":"S607002","brand":"Grammer","sku":"S607002","category":"tractor","visual":"danger","icon":"package","price":0,"sourcePrice":0,"currency":"EUR","stock":"Цена по запросу","url":"https://bartsparts.com/products/grammer-s607002/"},{"id":"grammer-s6100","name":"Grammer S6100","nameOriginal":"S6100","brand":"Grammer","sku":"S6100","category":"tractor","visual":"danger","icon":"package","price":0,"sourcePrice":0,"currency":"EUR","stock":"Цена по запросу","url":"https://bartsparts.com/products/grammer-s6100/"},{"id":"grammer-t10300p","name":"Grammer T10300P","nameOriginal":"T10300P","brand":"Grammer","sku":"T10300P","category":"tractor","visual":"danger","icon":"package","price":0,"sourcePrice":0,"currency":"EUR","stock":"Цена по запросу","url":"https://bartsparts.com/products/grammer-t10300p/"},{"id":"grammer-t103261","name":"Grammer T103261","nameOriginal":"T103261","brand":"Grammer","sku":"T103261","category":"tractor","visual":"danger","icon":"package","price":0,"sourcePrice":0,"currency":"EUR","stock":"Цена по запросу","url":"https://bartsparts.com/products/grammer-t103261/"},{"id":"grammer-ts51000gp","name":"Grammer TS51000GP","nameOriginal":"TS51000GP","brand":"Grammer","sku":"TS51000GP","category":"tractor","visual":"danger","icon":"package","price":0,"sourcePrice":0,"currency":"EUR","stock":"Цена по запросу","url":"https://bartsparts.com/products/grammer-ts51000gp/"},{"id":"grammer-v92515","name":"Grammer V92515","nameOriginal":"V92515","brand":"Grammer","sku":"V92515","category":"tractor","visual":"danger","icon":"package","price":0,"sourcePrice":0,"currency":"EUR","stock":"Цена по запросу","url":"https://bartsparts.com/products/grammer-v92515/"},{"id":"grammer-w00120","name":"Grammer W00120","nameOriginal":"W00120","brand":"Grammer","sku":"W00120","category":"tractor","visual":"danger","icon":"package","price":0,"sourcePrice":0,"currency":"EUR","stock":"Цена по запросу","url":"https://bartsparts.com/products/grammer-w00120/"},{"id":"grammer-xpb1650","name":"Grammer XPB1650","nameOriginal":"XPB1650","brand":"Grammer","sku":"XPB1650","category":"tractor","visual":"danger","icon":"package","price":0,"sourcePrice":0,"currency":"EUR","stock":"Цена по запросу","url":"https://bartsparts.com/products/grammer-xpb1650/"},{"id":"grammer-z53067","name":"Grammer Z53067","nameOriginal":"Z53067","brand":"Grammer","sku":"Z53067","category":"tractor","visual":"danger","icon":"package","price":0,"sourcePrice":0,"currency":"EUR","stock":"Цена по запросу","url":"https://bartsparts.com/products/grammer-z53067/"}]}
